0.02500000000000	0.00000000000000	0.00000000000000	0.00000000000000
0.07500000000000	0.00000000000000	0.00000000000000	0.00000000000000
0.12500000000000	0.00000000000000	0.00000000000000	0.00000000000000
0.17500000000000	0.00000000000000	0.00000000000000	0.00000000000000
0.22500000000000	0.00000000000000	0.00000000000000	0.00000000000000
0.27500000000000	0.00000000000000	0.00000000000000	0.00000000000000
0.32500000000000	0.00000000000000	0.00000000000000	0.00000000000000
0.37500000000000	0.00000000000000	0.00000000000000	0.00000000000000
0.42500000000000	0.00000000000000	0.00000000000000	0.00000000000000
0.47500000000000	0.00000000000000	0.00000000000000	0.00000000000000
0.52500000000000	0.00000000000000	0.00000000000000	0.00000000000000
0.57500000000000	0.00000000000000	0.00000000000000	0.00000000000000
0.62500000000000	0.00000000000000	0.00000000000000	0.00000000000000
0.67500000000000	0.00000000000000	0.00000000000000	0.00000000000000
0.72500000000000	0.00000000000000	0.00000000000000	0.00000000000000
0.77500000000000	0.00000000000000	0.00000000000000	0.00000000000000
0.82500000000000	0.00000000000000	0.00000000000000	0.00000000000000
0.87500000000000	0.00000000000000	0.00000000000000	0.00000000000000
0.92500000000000	0.00000000000000	0.00000000000000	0.00000000000000
0.97500000000000	0.00000000000000	0.00000000000000	0.00000000000000
1.02500000000000	0.00000000000000	0.00000000000000	0.00000000000000
1.07500000000000	0.00000000000000	0.00000000000000	0.00000000000000
1.12500000000000	0.00000000000000	0.00000000000000	0.00000000000000
1.17500000000000	0.00000000000000	0.00000000000000	0.00000000000000
1.22500000000000	0.00000000000000	0.00000000000000	0.00000000000000
1.27500000000000	0.00000000000000	0.00000000000000	0.00000000000000
1.32500000000000	0.00000000000000	0.00000000000000	0.00000000000000
1.37500000000000	0.00000000000000	0.00000000000000	0.00000000000000
1.42500000000000	0.00000000000000	0.00000000000000	0.00000000000000
1.47500000000000	0.00000000000000	0.00000000000000	0.00000000000000
1.52500000000000	0.00000000000000	0.00000000000000	0.00000000000000
1.57500000000000	0.00000000000000	0.00000000000000	0.00000000000000
1.62500000000000	0.00000000000000	0.00000000000000	0.00000000000000
1.67500000000000	0.00000000000000	0.00000000000000	0.00000000000000
1.72500000000000	0.00000000000000	0.00000000000000	0.00000000000000
1.77500000000000	0.00000000000000	0.00000000000000	0.00000000000000
1.82500000000000	0.00000000000000	0.00000000000000	0.00000000000000
1.87500000000000	0.00000000000000	0.00000000000000	0.00000000000000
1.92500000000000	0.00000000000000	0.00000000000000	0.00000000000000
1.97500000000000	0.00000000000000	0.00000000000000	0.00000000000000
2.02500000000000	0.00000000000000	0.00000000000000	0.00000000000000
2.07500000000000	0.00000000000000	0.00000000000000	0.00000000000000
2.12500000000000	0.00000000000000	0.00000000000000	0.00000000000000
2.17500000000000	0.00000000000000	0.00000000000000	0.00000000000000
2.22500000000000	0.00000000000000	0.00000000000000	0.00000000000000
2.27500000000000	0.00000000000000	0.00000000000000	0.00000000000000
2.32500000000000	0.00000000000000	0.00000000000000	0.00000000000000
2.37500000000000	0.00000000000000	0.00000000000000	0.00000000000000
2.42500000000000	0.00000000000000	0.00000000000000	0.00000000000000
2.47500000000000	0.00000000000000	0.00000000000000	0.00000000000000
2.52500000000000	0.00000000000000	0.00000000000000	0.00000000000000
2.57500000000000	0.00000000000000	0.00000000000000	0.00000000000000
2.62500000000000	0.00000000000000	0.00000000000000	0.00000000000000
2.67500000000000	0.00000000000000	0.00000000000000	0.00000000000000
2.72500000000000	0.00000000000000	0.00000000000000	0.00000000000000
2.77500000000000	0.00000000000000	0.00000000000000	0.00000000000000
2.82500000000000	0.00000000000000	0.00000000000000	0.00000000000000
2.87500000000000	0.00000000000000	0.00000000000000	0.00000000000000
2.92500000000000	0.00000002168017	0.00000000241394	0.00005000000000
2.97500000000000	0.00000394002303	0.00000045623521	0.00940000000000
3.02500000000000	0.00009362943242	0.00001160623763	0.23095000000000
3.07500000000000	0.00116424930791	0.00015487375078	2.96750000000000
3.12500000000000	0.00835483994279	0.00121669000145	21.99340000000000
3.17500000000000	0.03827267719098	0.00623765509583	103.99925000000000
3.22500000000000	0.12431575280296	0.02306424950514	348.52924999999999
3.27500000000000	0.30651641490293	0.06584877371699	886.19585000000006
3.32500000000000	0.60749134457179	0.15325321537197	1810.40820000000008
3.37500000000000	1.01335264397881	0.30346984985275	3111.43715000000020
3.42500000000000	1.47444276905447	0.52856115000241	4662.31610000000001
3.47500000000000	1.92644736792854	0.83130559551972	6270.74570000000040
3.52500000000000	2.31328723160886	1.20537915318882	7748.18560000000070
3.57500000000000	2.59907825955129	1.63767439289334	8954.13130000000092
3.62500000000000	2.77398445401191	2.11205710664801	9825.88915000000088
3.67500000000000	2.84482208827532	2.61206679862889	10356.70074999999997
3.72500000000000	2.82881040369400	3.12288320861294	10580.54030000000057
3.77500000000000	2.74872736115858	3.63265271327183	10558.85575000000063
3.82500000000000	2.62423819416225	4.13231231835077	10349.44940000000133
3.87500000000000	2.47347980895450	4.61566010476508	10011.58270000000084
3.92500000000000	2.31077220902954	5.07894085598417	9595.93419999999969
3.97500000000000	2.14520284448779	5.52005428716263	9136.78250000000116
4.02500000000000	1.98394845445469	5.93833675710913	8663.88479999999981
4.07500000000000	1.83118115530722	6.33406214213301	8196.65990000000056
4.12500000000000	1.68929061799683	6.70813786028105	7748.23035000000073
4.17500000000000	1.55935892456449	7.06186319461209	7326.71285000000080
4.22500000000000	1.44138393150155	7.39670532515807	6935.58505000000059
4.27500000000000	1.33547146157410	7.71432962873550	6578.95220000000063
4.32500000000000	1.24040075940660	8.01628378313139	6254.37640000000010
4.37500000000000	1.15569999567488	8.30416138656876	5962.80880000000070
4.42500000000000	1.08034609330833	8.57945491478778	5702.15484999999990
4.47500000000000	1.01335955038573	8.84354742673681	5470.14820000000054
4.52500000000000	0.95432339978321	9.09784316612755	5267.22764999999981
4.57500000000000	0.90207386108861	9.34355752908797	5089.48160000000007
4.62500000000000	0.85621825842865	9.58190695698350	4936.93170000000009
4.67500000000000	0.81561818184758	9.81388997489495	4805.06425000000036
4.72500000000000	0.78005443717271	10.04052890696661	4694.37219999999979
4.77500000000000	0.74901071410684	10.26277834693185	4603.45265000000018
4.82500000000000	0.72205886138444	10.48154093323038	4531.22944999999982
4.87500000000000	0.69857765477192	10.69759859025738	4475.20225000000028
4.92500000000000	0.67878352136165	10.91186269251194	4438.05234999999993
4.97500000000000	0.66183109666121	11.12503899242023	4415.52070000000003
5.02500000000000	0.64793093757304	11.33795404094039	4410.10940000000028
5.07500000000000	0.63650505667152	11.55129752812247	4418.98365000000013
5.12500000000000	0.62783495190994	11.76590191667069	4445.10069999999996
5.17500000000000	0.62136997278149	11.98246093516162	4485.58694999999989
5.22500000000000	0.61706340704228	12.20169479071117	4540.99085000000014
5.27500000000000	0.61509584045522	12.42443206199005	4613.55709999999999
5.32500000000000	0.61531849015324	12.65149398204041	4703.13355000000047
5.37500000000000	0.61737310117627	12.88361245111765	4807.86985000000004
5.42500000000000	0.62176964221048	13.12175335538064	4932.61254999999983
5.47500000000000	0.62819405825768	13.36681030029449	5075.86450000000059
5.52500000000000	0.63646718195234	13.61965011828310	5237.07115000000067
5.57500000000000	0.64694077157606	13.88132323178682	5420.03520000000026
5.62500000000000	0.65948880480360	14.15287789552437	5624.71175000000039
5.67500000000000	0.67405128448283	14.43538502148401	5851.57009999999991
5.72500000000000	0.69076534753810	14.73002129339060	6102.80110000000059
5.77500000000000	0.70943152161021	15.03792796311503	6377.67085000000043
5.82500000000000	0.72997017066151	15.36025858398080	6676.43415000000005
5.87500000000000	0.75254157995979	15.69828511562788	7001.54355000000032
5.92500000000000	0.77672713113325	16.05313910104762	7350.09060000000045
5.97500000000000	0.80254426499105	16.42600208806068	7723.11105000000043
6.02500000000000	0.82973087901069	16.81797474532909	8118.92965000000004
6.07500000000000	0.85801540962229	17.23006470091255	8535.61924999999974
6.12500000000000	0.88703240825542	17.66313261719696	8970.13575000000128
6.17500000000000	0.91643102516589	18.11788816443788	9419.35165000000052
6.22500000000000	0.94580558441519	18.59485133491053	9879.33814999999959
6.27500000000000	0.97488683903147	19.09440930333615	10347.34420000000136
6.32500000000000	1.00328292537126	19.61674375030168	10819.11340000000018
6.37500000000000	1.03085260034082	20.16195034519383	11292.86419999999998
6.42500000000000	1.05720009188251	20.72989703567822	11763.87980000000061
6.47500000000000	1.08233892072629	21.32043375175019	12231.78700000000026
6.52500000000000	1.10586954982896	21.93316352290823	12691.47175000000061
6.57500000000000	1.12829530577855	22.56793632984117	13148.04915000000074
6.62500000000000	1.14927227188408	23.22438183749345	13596.95580000000155
6.67500000000000	1.16881867234667	23.90210704147147	14037.72215000000142
6.72500000000000	1.18672885321181	24.60056457297343	14467.15084999999999
6.77500000000000	1.20346445407110	25.31944351614949	14890.13954999999987
6.82500000000000	1.21839826788072	26.05802506155551	15298.23955000000024
6.87500000000000	1.23155025443228	26.81555775841263	15690.77475000000049
6.92500000000000	1.24257097194046	27.59102699029594	16062.29420000000027
6.97500000000000	1.25095091047343	28.38304029353566	16404.97155000000203
7.02500000000000	1.25655818581130	29.19005048520236	16715.60210000000006
7.07500000000000	1.25915693958303	30.01028206199049	16989.45665000000008
7.12500000000000	1.25863049025328	30.84180013518071	17223.23385000000053
7.17500000000000	1.25486512390768	31.68250690146284	17413.55925000000207
7.22500000000000	1.24781042741421	32.53017916284441	17557.83554999999978
7.27500000000000	1.23764648470941	33.38262391734649	17656.68820000000051
7.32500000000000	1.22474889818544	34.23782044126900	17713.68560000000070
7.37500000000000	1.20946735040098	35.09391509921291	17732.28865000000224
7.42500000000000	1.19195382483390	35.94909190604950	17713.27720000000045
7.47500000000000	1.17273911086171	36.80185294018246	17663.23930000000109
7.52500000000000	1.15234562968609	37.65103202819482	17589.04645000000164
7.57500000000000	1.13090112410627	38.49551989088964	17491.87710000000152
7.62500000000000	1.10899154743964	39.33461543233705	17380.18594999999914
7.67500000000000	1.08686802974248	40.16779199295129	17257.58610000000044
7.72500000000000	1.06483674433446	40.99474998068823	17128.78080000000045
7.77500000000000	1.04308342295980	41.81533438903103	16996.76484999999957
7.82500000000000	1.02213617894762	42.62981519818477	16870.34100000000035
7.87500000000000	1.00191063552218	43.43841474919099	16748.52249999999913
7.92500000000000	0.98264812209296	44.24157080094628	16635.77130000000034
7.97500000000000	0.96455983192145	45.03992185583960	16536.24539999999979
8.02500000000000	0.94763848056023	45.83413322551073	16450.50010000000111
8.07500000000000	0.93198653702073	46.62499031767474	16381.02295000000049
8.12500000000000	0.91761854977175	47.41332787862702	16328.83590000000004
8.17500000000000	0.90483792099876	48.20028232752449	16300.18750000000000
8.22500000000000	0.89341226158242	48.98683350311411	16291.83450000000084
8.27500000000000	0.88354928829489	49.77418749336158	16308.46320000000014
8.32500000000000	0.87484789535417	50.56323702505659	16343.58294999999998
8.37500000000000	0.86779845606022	51.35535837638182	16407.20954999999958
8.42500000000000	0.86221921771360	52.15181241249481	16496.95245000000068
8.47500000000000	0.85797933611430	52.95378482112681	16611.25449999999910
8.52500000000000	0.85515703406280	53.76257862936293	16752.54615000000194
8.57500000000000	0.85368884804811	54.57948262685270	16920.53250000000116
8.62500000000000	0.85355551067094	55.40581186452957	17115.75749999999971
8.67500000000000	0.85475543071181	56.24292462704511	17339.11664999999994
8.72500000000000	0.85723393689898	57.09217029643175	17590.42554999999993
8.77500000000000	0.86088466636384	57.95483558393235	17868.38609999999971
8.82500000000000	0.86568110793859	58.83222108820578	18173.28595000000132
8.87500000000000	0.87159692557937	59.72564071114815	18505.40064999999959
8.92500000000000	0.87857978168622	60.63639393134803	18864.43145000000004
8.97500000000000	0.88642467282678	61.56560376816509	19246.72335000000021
9.02500000000000	0.89516487252164	62.51446016269909	19653.66250000000218
9.07500000000000	0.90465496223613	63.48403036740205	20082.70765000000029
9.12500000000000	0.91473854711660	64.47524051320538	20530.93575000000055
9.17500000000000	0.92557407543934	65.48921336600155	21002.41970000000219
9.22500000000000	0.93663463348041	66.52651712209681	21485.67270000000281
9.27500000000000	0.94820636291545	67.58805056003501	21987.54210000000239
9.32500000000000	0.95983132028505	68.67421495920432	22497.72320000000036
9.37500000000000	0.97152407493737	69.78543246511909	23016.64819999999963
9.42500000000000	0.98325944845237	70.92210087384787	23543.81275000000096
9.47500000000000	0.99484058684030	72.08439184811405	24074.53295000000071
9.52500000000000	1.00597770160289	73.27213147298767	24601.65085000000181
9.57500000000000	1.01681377402764	74.48530213151172	25128.40385000000242
9.62500000000000	1.02697014374563	75.72342058369190	25645.14750000000276
9.67500000000000	1.03676446960958	76.98636705692054	26159.41029999999955
9.72500000000000	1.04584549864583	78.27357773378986	26661.99475000000166
9.77500000000000	1.05398431745951	79.58417890938162	27146.48214999999982
9.82500000000000	1.06137321004932	80.91750415439508	27617.16580000000249
9.87500000000000	1.06778539487847	82.27257199343326	28067.52015000000029
9.92500000000000	1.07329001778804	83.64845328296147	28498.62915000000066
9.97500000000000	1.07808563603305	85.04444198329519	28915.11395000000266
10.02500000000000	1.08174607891240	86.45924806401858	29304.87835000000268
10.07500000000000	1.08447428748848	87.89180596968028	29672.57190000000264
10.12500000000000	1.08640439241693	89.34119304543016	30021.15450000000055
10.17500000000000	1.08734682344304	90.80620013035339	30344.69175000000178
10.22500000000000	1.08750046654591	92.28584971274033	30647.98180000000139
10.27500000000000	1.08669157287955	93.77889417998310	30925.43005000000267
10.32500000000000	1.08538272797532	95.28468900690387	31189.52825000000303
10.37500000000000	1.08309189124907	96.80189406169933	31425.86830000000191
10.42500000000000	1.08022133048793	98.32969803022206	31645.40360000000146
10.47500000000000	1.07671411149454	99.86718420074445	31845.95105000000331
10.52500000000000	1.07274981353832	101.41366808526050	32032.32070000000022
10.57500000000000	1.06822454105334	102.96829448172628	32200.97655000000304
10.62500000000000	1.06311313426124	104.53014723603557	32350.65610000000015
10.67500000000000	1.05778191375939	106.09882819002621	32492.08860000000277
10.72500000000000	1.05201884582294	107.67361160865084	32618.48895000000266
10.77500000000000	1.04597767565594	109.25398488630368	32734.27170000000115
10.82500000000000	1.03965276424529	110.83941396707458	32838.99255000000267
10.87500000000000	1.03310593542379	112.42944674841831	32934.34900000000198
10.92500000000000	1.02650959053513	114.02388823444103	33025.66649999999936
10.97500000000000	1.01985016439629	115.62251877082026	33112.43430000000080
11.02500000000000	1.01319751270501	117.22522520639292	33196.85840000000462
11.07500000000000	1.00659740730314	118.83196644378012	33280.43125000000146
11.12500000000000	1.00011142461324	120.44280154250919	33365.22740000000340
11.17500000000000	0.99372867809944	122.05777554917182	33450.95660000000498
11.22500000000000	0.98767822301121	123.67731234973330	33545.46575000000303
11.27500000000000	0.98176464681103	125.30152589195399	33642.33510000000388
11.32500000000000	0.97631548911407	126.93108167334539	33752.98890000000392
11.37500000000000	0.97107436018545	128.56623289238726	33868.88720000000467
11.42500000000000	0.96627717013546	130.20764168155245	33998.50025000000460
11.47500000000000	0.96191551722217	131.85597459807940	34141.91969999999856
11.52500000000000	0.95810743027462	133.51212083715586	34303.75705000000016
11.57500000000000	0.95469487255292	135.17671815285235	34478.80419999999867
11.62500000000000	0.95180442424278	136.85064408342603	34672.02780000000348
11.67500000000000	0.94939610011466	138.53472832037818	34882.43680000000313
11.72500000000000	0.94753393200766	140.22993657123592	35112.84850000000006
11.77500000000000	0.94621639327103	141.93725637280878	35363.71504999999888
11.82500000000000	0.94551132432585	143.65782343938614	35638.10565000000497
11.87500000000000	0.94525952834142	145.39250941437743	35930.55060000000231
11.92500000000000	0.94552333467232	147.14232221068977	36243.87245000000257
11.97500000000000	0.94637497393622	148.90842854246159	36581.36045000000013
12.02500000000000	0.94764424233232	150.69170242601342	36936.95195000000240
12.07500000000000	0.94944885648113	152.49326105585885	37315.68390000000363
12.12500000000000	0.95164167006666	154.31396563993508	37712.25405000000319
12.17500000000000	0.95438780888560	156.15501468642893	38133.64890000000014
12.22500000000000	0.95726680473192	158.01681571235375	38563.48464999999851
12.27500000000000	0.96073979259725	159.90068734369800	39020.63309999999910
12.32500000000000	0.96444487420980	161.80726186935817	39490.87815000000410
12.37500000000000	0.96832260299616	163.73706497368707	39972.01170000000275
12.42500000000000	0.97251708707129	165.69092094578480	40470.21875000000000
12.47500000000000	0.97685276927067	167.66931467677375	40978.46934999999939
12.52500000000000	0.98132014095803	169.67271935499508	41496.52110000000539
12.57500000000000	0.98584041033363	171.70145332400179	42021.16670000000158
12.62500000000000	0.99035447349193	173.75571580408433	42549.93875000000116
12.67500000000000	0.99485875054800	175.83569910684116	43082.69415000000299
12.72500000000000	0.99942797283446	177.94175341814488	43622.70294999999896
12.77500000000000	1.00370763377310	180.07348011635216	44154.45509999999922
12.82500000000000	1.00791927594402	182.23094121566075	44687.49175000000105
12.87500000000000	1.01185340972389	184.41374423550488	45212.39895000000251
12.92500000000000	1.01563808971115	186.62176193453507	45734.67060000000492
12.97500000000000	1.01915775512101	188.85460710423436	46248.92199999999866
13.02500000000000	1.02232035901672	191.11167660406366	46750.68055000000459
13.07500000000000	1.02525631372222	193.39263992661694	47245.59330000000045
13.12500000000000	1.02772341889024	195.69661262009345	47722.18639999999868
13.17500000000000	1.02987851904870	198.02304103703020	48187.31180000000313
13.22500000000000	1.03169900356386	200.37130446820674	48639.58045000000129
13.27500000000000	1.03314732937015	202.74067921595278	49076.85915000000386
13.32500000000000	1.03422077509086	205.13041632549692	49498.62475000000268
13.37500000000000	1.03496052122315	207.53984345580071	49906.46414999999979
13.42500000000000	1.03524928030063	209.96799592285063	50294.32205000000249
13.47500000000000	1.03521862967947	212.41419642012391	50668.15090000000055
13.52500000000000	1.03478303160592	214.87754723603484	51023.38545000000158
13.57500000000000	1.03414967766105	217.35762611403388	51369.87380000000121
13.62500000000000	1.03313247218655	219.85355062762341	51698.08445000000211
13.67500000000000	1.03185431542825	222.36471686621834	52013.78629999999976
13.72500000000000	1.03025542211172	224.89036020132346	52313.65040000000590
13.77500000000000	1.02841904080734	227.42990410853122	52601.57295000000158
13.82500000000000	1.02642658148220	229.98296144933175	52881.47669999999925
13.87500000000000	1.02425630591275	232.54908182542246	53152.05135000000155
13.92500000000000	1.02194143765135	235.12788863756950	53414.82549999999901
13.97500000000000	1.01942200953088	237.71884457587112	53666.47035000000324
14.02500000000000	1.01685384633362	240.32179957997482	53915.00700000000506
14.07500000000000	1.01427741722384	242.93670475788105	54162.53095000000030
14.12500000000000	1.01155962780685	245.56316468883995	54401.86455000000569
14.17500000000000	1.00879707547049	248.20102822864791	54638.06750000000466
14.22500000000000	1.00613130442995	250.85051395500633	54878.79785000000265
14.27500000000000	1.00342508251059	253.51148136677389	55116.61800000000221
14.32500000000000	1.00076591305882	256.18402086129686	55356.31055000000197
14.37500000000000	0.99815311908353	258.86822312316076	55597.88145000000077
14.42500000000000	0.99568244141522	261.56444018249283	55846.74395000000368
14.47500000000000	0.99336334826170	264.27305739390454	56103.58830000000307
14.52500000000000	0.99105804020862	266.99408987109734	56360.74569999999949
14.57500000000000	0.98893316784050	269.72801376671640	56627.76565000000119
14.62500000000000	0.98706069090944	272.47551536957678	56909.00070000000414
14.67500000000000	0.98526474923297	275.23680212668296	57194.53260000000591
14.72500000000000	0.98367016010700	278.01243771061888	57491.73985000000539
14.77500000000000	0.98222831502697	280.80285894607402	57797.99505000000499
14.82500000000000	0.98102060869214	283.60874397479830	58118.29660000000149
14.87500000000000	0.98000452832934	286.43066181624982	58450.38425000000279
14.92500000000000	0.97919832857046	289.26924531936629	58795.58009999999922
14.97500000000000	0.97861098866041	292.12516558923886	59154.67655000000377
15.02500000000000	0.97818513793320	294.99893784338258	59524.44470000000001
15.07500000000000	0.97804038337809	297.89144040457734	59912.40555000000313
15.12500000000000	0.97811846195833	300.80339462897530	60315.30785000000469
15.17500000000000	0.97838732008831	303.73543896586517	60731.43435000000318
15.22500000000000	0.97876271423541	306.68796907256217	61155.75610000000597
15.27500000000000	0.97939523211533	309.66184425240391	61597.87660000000324
15.32500000000000	0.98023984110813	312.65780160527140	62055.26465000000462
15.37500000000000	0.98120682169853	315.67631505817690	62522.46915000000445
15.42500000000000	0.98235156230987	318.71803756336237	63003.19825000000128
15.47500000000000	0.98358087384947	321.78334256264185	63491.66245000000345
15.52500000000000	0.98498256646547	324.87288426833504	63993.67735000000539
15.57500000000000	0.98652489629158	327.98722738618193	64507.38900000000285
15.62500000000000	0.98817805384174	331.12685075073705	65031.01875000000291
15.67500000000000	0.98980216105223	334.29179300198047	65555.44885000000068
15.72500000000000	0.99155218369839	337.48258999903402	66090.97819999999774
15.77500000000000	0.99333222253489	340.69947509293581	66631.34094999999797
15.82500000000000	0.99515188318703	343.94271513300743	67177.23094999999739
15.87500000000000	0.99695566977887	347.21239775986072	67724.93624999999884
15.92500000000000	0.99876946871089	350.50869541833708	68276.21340000000782
15.97500000000000	1.00053399169622	353.83158462559885	68827.00415000000794
16.02500000000000	1.00216732165538	357.18076541302599	69371.58165000000736
16.07500000000000	1.00392706751369	360.55679622942131	69927.72630000000936
16.12500000000000	1.00546605955429	363.95906904359879	70471.27680000000692
16.17500000000000	1.00692645941687	367.38744628011892	71011.97770000000310
16.22500000000000	1.00828219311735	370.84169636701751	71547.88205000000016
16.27500000000000	1.00957104499948	374.32171162072177	72081.55595000000903
16.32500000000000	1.01078569266102	377.82735497030973	72612.39070000000356
16.37500000000000	1.01166635061579	381.35757833486190	73121.51655000000028
16.42500000000000	1.01261081016825	384.91270907401412	73637.42300000000978
16.47500000000000	1.01330753692364	388.49197839521014	74137.40545000000566
16.52500000000000	1.01384885072237	392.09492981219444	74627.93270000000484
16.57500000000000	1.01429539228341	395.72131374016544	75113.29030000000785
16.62500000000000	1.01453396053318	399.37046738763070	75584.91950000000361
16.67500000000000	1.01463673889755	403.04197573021804	76047.95230000000447
16.72500000000000	1.01461465380775	406.73545471201567	76503.03015000000596
16.77500000000000	1.01444621110464	410.45043341862737	76948.35395000000426
16.82500000000000	1.01417975235152	414.18660941920604	77387.41350000000966
16.87500000000000	1.01368908277196	417.94320614107386	77810.38790000000154
16.92500000000000	1.01318373947062	421.72021329116859	78233.14910000000964
16.97500000000000	1.01247655921778	425.51691766282136	78641.13765000000421
17.02500000000000	1.01169803509158	429.33308478009133	79044.26950000000943
17.07500000000000	1.01090616279610	433.16869532901620	79447.00130000000354
17.12500000000000	1.00989431773875	437.02294037319871	79832.97759999999835
17.17500000000000	1.00890101243765	440.89591169555592	80220.85500000001048
17.22500000000000	1.00783759992270	444.78735984406211	80603.56549999999697
17.27500000000000	1.00673907461648	448.69716635687502	80983.82229999999981
17.32500000000000	1.00562707246182	452.62529470622542	81363.32250000000931
17.37500000000000	1.00444392699713	456.57148068121171	81737.35010000001057
17.42500000000000	1.00329155801801	460.53585774392798	82114.14209999999730
17.47500000000000	1.00209019590774	464.51824421136752	82487.17089999999735
17.52500000000000	1.00095853335840	468.51892922560819	82866.18869999999879
17.57500000000000	0.99988636485606	472.53816544682286	83250.43985000000976
17.62500000000000	0.99870749809645	476.57553755371151	83626.08845000001020
17.67500000000000	0.99769355406347	480.63172695649547	84015.85109999999986
17.72500000000000	0.99662393690452	484.70652430357359	84401.27745000000868
17.77500000000000	0.99572687904289	488.80065461063128	84801.72105000000738
17.82500000000000	0.99484196903985	492.91419139670995	85203.68744999999763
17.87500000000000	0.99406379836796	497.04760217254380	85615.33740000000398
17.92500000000000	0.99334221609279	501.20115203495203	86032.47830000000249
17.97500000000000	0.99264782380482	505.37498628156419	86452.62875000000349
18.02500000000000	0.99207083110929	509.56963340172769	86883.72580000000016
18.07500000000000	0.99165484796333	513.78581543716450	87329.77850000000035
18.12500000000000	0.99120307172090	518.02342432047294	87773.59279999999853
18.17500000000000	0.99096680413399	522.28342967218771	88237.49085000000196
18.22500000000000	0.99069303011367	526.56572267416493	88699.13495000000694
18.27500000000000	0.99062620528337	530.87125426060732	89180.47574999999779
18.32500000000000	0.99064578796843	535.20046332013794	89670.90725000000384
18.37500000000000	0.99069696468234	539.55355406990691	90165.56870000000345
18.42500000000000	0.99085805636293	543.93107901559767	90671.67420000000857
18.47500000000000	0.99109296250096	548.33343823444454	91186.06650000000081
18.52500000000000	0.99143056523951	552.76116615410945	91711.52840000001015
18.57500000000000	0.99182440163795	557.21459606044584	92243.89364999999816
18.62500000000000	0.99230219252425	561.69419053009722	92785.84025000000838
18.67500000000000	0.99283860867383	566.20030336985837	93335.11525000000256
18.72500000000000	0.99341901090161	570.73322596196124	93890.42565000000468
18.77500000000000	0.99399908423468	575.29304972481191	94447.62960000000021
18.82500000000000	0.99473238970049	579.88057436151530	95021.39780000000610
18.87500000000000	0.99536844206977	584.49544962825246	95587.91140000001178
18.92500000000000	0.99612878212966	589.13835083764138	96168.41275000000314
18.97500000000000	0.99684395772812	593.80916863563925	96746.64905000000726
19.02500000000000	0.99762556787367	598.50831613478874	97333.44215000000258
19.07500000000000	0.99842513783475	603.23598199440107	97924.14295000000857
19.12500000000000	0.99914018413079	607.99186854632057	98508.67815000000701
19.17500000000000	0.99997151122520	612.77663278859291	99106.82175000000279
19.22500000000000	1.00062498673738	617.58952583160612	99689.45360000000801
19.27500000000000	1.00135306533710	622.43100618452399	100281.58255000000645
19.32500000000000	1.00205575303758	627.30105212910553	100873.26165000000037
19.37500000000000	1.00267467612929	632.19935500168685	101458.54740000001038
19.42500000000000	1.00331889593992	637.12613547530555	102048.40395000000717
19.47500000000000	1.00387078175152	642.08103566359307	102630.84760000000824
19.52500000000000	1.00433965274102	647.06373701057828	103206.69299999999930
19.57500000000000	1.00487061917601	652.07463834065697	103790.79925000001094
19.62500000000000	1.00520037479715	657.11282359870688	104355.93125000000873
19.67500000000000	1.00552896835017	662.17836918118826	104922.64565000000584
19.72500000000000	1.00578831722748	667.27100673489929	105483.80165000000852
19.77500000000000	1.00602520260739	672.39070070245384	106044.22115000001213
19.82500000000000	1.00620057388675	677.53721410467199	106599.73210000000836
19.87500000000000	1.00624964798269	682.70997221552068	107143.33875000000990
19.92500000000000	1.00629466353612	687.90902208033424	107687.91985000000568
19.97500000000000	1.00627910883639	693.13411700139761	108227.39110000000801
20.02500000000000	1.00617268288348	698.38484743397612	108758.37945000000764
20.07500000000000	1.00603740075332	703.66112196204995	109287.47430000000168
20.12500000000000	1.00584241275283	708.96268428281758	109811.26035000001139
20.17500000000000	1.00562118087047	714.28945061797242	110333.31110000000626
20.22500000000000	1.00526449029351	719.64075370058185	110841.54075000000012
20.27500000000000	1.00492150827117	725.01671350117954	111352.25535000000673
20.32500000000000	1.00458469793319	730.41741048858728	111864.63670000000275
20.37500000000000	1.00412538297840	735.84223037705658	112364.29435000001104
20.42500000000000	1.00376902210436	741.29177309177294	112876.37825000000885
20.47500000000000	1.00326304057948	746.76526871771421	113372.51490000000922
20.52500000000000	1.00274247200864	752.26267559985945	113867.78875000000698
20.57500000000000	1.00226901885674	757.78429074012377	114369.21440000001166
20.62500000000000	1.00170806939048	763.32966962777130	114861.43289999999979
20.67500000000000	1.00132841922301	768.89985586105718	115375.26744999999937
20.72500000000000	1.00068790101763	774.49343598223334	115859.82504999999946
20.77500000000000	1.00019040135278	780.11124385168500	116361.65439999999944
20.82500000000000	0.99977366652034	785.75377347077301	116873.71600000000035
20.87500000000000	0.99929235518052	791.42070109593078	117379.07190000000992
20.92500000000000	0.99882897510324	797.11216777386971	117887.34930000000168
20.97500000000000	0.99836848557745	802.82822980978597	118396.79295000000275
21.02500000000000	0.99795132393968	808.56917628060557	118912.22424999999930
21.07500000000000	0.99759753932730	814.33541562061976	119436.11545000001206
21.12500000000000	0.99720771031889	820.12678400521554	119956.61334999999963
21.17500000000000	0.99699253588653	825.94434401583237	120499.12050000000454
21.22500000000000	0.99666421503326	831.78748532322845	121028.98589999999967
21.27500000000000	0.99642988775255	837.65680829672215	121571.28674999999930
21.32500000000000	0.99629733770152	843.55296712209997	122127.13775000000896
21.37500000000000	0.99605981722380	849.47539513107597	122671.25135000000591
21.42500000000000	0.99599721480034	855.42518883068999	123238.07690000000002
21.47500000000000	0.99591409606525	861.40228640708631	123803.62210000000778
21.52500000000000	0.99588683735094	867.40708483077776	124377.38975000000210
21.57500000000000	0.99590918419989	873.43994786848953	124958.69210000000021
21.62500000000000	0.99592177258049	879.50088218992641	125540.13260000001173
21.67500000000000	0.99608492386037	885.59087383769202	126141.99700000000303
21.72500000000000	0.99616791426193	891.70950446820882	126735.19625000000815
21.77500000000000	0.99631542788173	897.85724173224537	127338.08195000000705
21.82500000000000	0.99656857185615	904.03481360498631	127956.04620000001159
21.87500000000000	0.99675069362560	910.24185703664205	128566.49060000000463
21.92500000000000	0.99698420485127	916.47876873461291	129185.15200000000186
21.97500000000000	0.99725694119109	922.74587340076278	129810.53895000000193
22.02500000000000	0.99750668262761	929.04310635832462	130434.58625000000757
22.07500000000000	0.99788587484224	935.37136776420050	131077.27850000001490
22.12500000000000	0.99812536800584	941.72985439337367	131703.33355000001029
22.17500000000000	0.99852032965090	948.11963986627313	132351.62650000001304
22.22500000000000	0.99881069843695	954.54013961280236	132987.81124999999884
22.27500000000000	0.99917689926238	960.99192507604312	133635.83230000000913
22.32500000000000	0.99949588159303	967.47477623715145	134279.29610000000685
22.37500000000000	0.99983128154148	973.98888363104675	134926.70644999999786
22.42500000000000	1.00018338181123	980.53444114082447	135578.13270000001648
22.47500000000000	1.00043389758134	987.11086662483365	136217.50105000002077
22.52500000000000	1.00077032984533	993.71880712837446	136870.27165000000969
22.57500000000000	1.00109642200848	1000.35827891662052	137523.37914999999339
22.62500000000000	1.00131552582895	1007.02865357504288	138163.47030000001541
22.67500000000000	1.00162071990020	1013.73058519770643	138817.10970000000088
22.72500000000000	1.00182300356781	1020.46346534785209	139458.14655000000494
22.77500000000000	1.00203121999147	1027.22741122484172	140101.61095000000205
22.82500000000000	1.00225999219732	1034.02263973833533	140749.56820000000880
22.87500000000000	1.00241774133671	1040.84874605319283	141389.14010000001872
22.92500000000000	1.00252886714186	1047.70548590981548	142023.65265000000363
22.97500000000000	1.00261414804729	1054.59275363540814	142655.97640000001411
23.02500000000000	1.00273457408971	1061.51086204316084	143294.77945000000182
23.07500000000000	1.00282041190014	1068.45964392651103	143930.11915000001318
23.12500000000000	1.00281319603572	1075.43852210447972	144553.50370000000112
23.17500000000000	1.00285889017341	1082.44793120503346	145185.89070000001811
23.22500000000000	1.00278438021020	1089.48709545214251	145802.20905000000494
23.27500000000000	1.00274705501880	1096.55633773957334	146425.21550000002026
23.32500000000000	1.00268415614539	1103.65553998697192	147045.77615000001970
23.37500000000000	1.00254233671454	1110.78420244774838	147655.98555000001215
23.42500000000000	1.00245999963648	1117.94280649351117	148276.16560000000754
23.47500000000000	1.00226140908586	1125.13057861489028	148880.32395000001998
23.52500000000000	1.00213436643198	1132.34808719162015	149496.25515000001178
23.57500000000000	1.00195856573195	1139.59503699609490	150106.07130000001052
23.62500000000000	1.00173858505767	1146.87116153622401	150710.36759999999776
23.67500000000000	1.00159661983654	1154.17708153333933	151327.52090000000317
23.72500000000000	1.00135772753781	1161.51214340993283	151931.13665000000037
23.77500000000000	1.00112937932745	1168.87647513397769	152537.40300000002026
23.82500000000000	1.00095251992222	1176.27050806497914	153152.60409999999683
23.87500000000000	1.00067545769043	1183.69355305846784	153753.53095000001485
23.92500000000000	1.00050155978183	1191.14642649544248	154371.36749999999302
23.97500000000000	1.00024350197590	1198.62855310675627	154977.28849999999511
24.02500000000000	1.00002148712277	1206.14025261188863	155589.83185000001686
24.07500000000000	0.99980794418882	1213.68164010040869	156204.75904999999329
24.12500000000000	0.99959455613866	1221.25276842081121	156820.78090000001248
24.17500000000000	0.99942555152475	1228.85402678026844	157444.86440000002040
24.22500000000000	0.99919983212146	1236.48503643846630	158061.10305000000517
24.27500000000000	0.99900960849869	1244.14612038574614	158684.03179999999702
24.32500000000000	0.99892155780030	1251.83811837010307	159324.35425000000396
24.37500000000000	0.99872057991809	1259.56021666346214	159947.82195000001229
24.42500000000000	0.99859192107813	1267.31302896732518	160584.00125000000116
24.47500000000000	0.99847445905503	1275.09669936513319	161223.16495000000577
24.52500000000000	0.99837108959385	1282.91139565248523	161865.80420000001322
24.57500000000000	0.99833347042621	1290.75769295128453	162520.35594999999739
24.62500000000000	0.99824316278636	1298.63523802925465	163167.59119999999530
24.67500000000000	0.99826692612643	1306.54499389271882	163834.77319999999600
24.72500000000000	0.99817494778760	1314.48610622555361	164484.25974999999744
24.77500000000000	0.99813838513482	1322.45907671027044	165144.13765000001877
24.82500000000000	0.99825586099493	1330.46520334330125	165830.90095000001020
24.87500000000000	0.99819682984642	1338.50313735576765	166489.72719999999390
24.92500000000000	0.99831551086271	1346.57437665474708	167179.57959999999730
24.97500000000000	0.99832683316615	1354.67812243277967	167852.88630000001285
25.02500000000000	0.99840894054480	1362.81501727417844	168539.50285000001895
25.07500000000000	0.99852860208988	1370.98543877757129	169233.94060000000172
25.12500000000000	0.99860566138759	1379.18910974268056	169922.63670000000275
25.17500000000000	0.99875427647013	1387.42669036837333	170625.00750000000698
25.22500000000000	0.99882195712021	1395.69758519045695	171315.04445000001579
25.27500000000000	0.99897673231204	1404.00258770579330	172021.51709999999730
25.32500000000000	0.99915064460535	1412.34193282480464	172732.85545000000275
25.37500000000000	0.99925967519908	1420.71515335297090	173434.51680000001215
25.42500000000000	0.99943960274047	1429.12291793077043	174150.02770000000601
25.47500000000000	0.99955618836582	1437.56476853667345	174856.05160000000615
25.52500000000000	0.99969233892947	1446.04094382754965	175567.01880000001984
25.57500000000000	0.99989213114599	1454.55205961714796	176290.74134999999660
25.62500000000000	1.00001214679004	1463.09751254768389	177001.96655000001192
25.67500000000000	1.00017941670589	1471.67778107469212	177723.10200000001350
25.72500000000000	1.00029990642715	1480.29253857723143	178437.47215000001597
25.77500000000000	1.00040350282924	1488.94171215662050	179150.33235000001150
25.82500000000000	1.00056612898451	1497.62588619225335	179875.29680000001099
25.87500000000000	1.00070892170875	1506.34496391396760	180598.25685000000522
25.92500000000000	1.00078675908732	1515.09845191425143	181310.99695000000065
25.97500000000000	1.00093432361629	1523.88703279582842	182037.87580000000889
26.02500000000000	1.00097444225835	1532.70983461353489	182746.69405000002007
26.07500000000000	1.00106562971626	1541.56737707961884	183466.27710000000661
26.12500000000000	1.00117048761270	1550.45985294258662	184189.85255000001052
26.17500000000000	1.00118336487133	1559.38651436779219	184897.93809999999939
26.22500000000000	1.00125343651315	1568.34793927968144	185617.99420000001555
26.27500000000000	1.00122269187446	1577.34329184087733	186320.73760000002221
26.32500000000000	1.00128135218396	1586.37344140394021	187041.48790000000736
26.37500000000000	1.00131812063492	1595.43825895574196	187759.56595000001835
26.42500000000000	1.00128378166548	1604.53716600443749	188465.66169999999693
26.47500000000000	1.00131164740898	1613.67079275093442	189184.81080000000657
26.52500000000000	1.00126007891273	1622.83847895766576	189890.28440000000410
26.57500000000000	1.00117746315243	1632.04000086901669	190591.12335000000894
26.62500000000000	1.00122992730118	1641.27666407089941	191319.00489999999991
26.67500000000000	1.00106435172525	1650.54651830009948	192006.49065000002156
26.72500000000000	1.00105851580787	1659.85110193838477	192725.84090000001015
26.77500000000000	1.00094343855208	1669.18946054409480	193425.42180000001099
26.82500000000000	1.00087055524264	1678.56204635012114	194134.36980000001495
26.87500000000000	1.00078303609702	1687.96878182542105	194841.71190000002389
26.92500000000000	1.00068737056653	1697.40964911169203	195548.68410000001313
26.97500000000000	1.00060508812092	1706.88483334862599	196259.49110000001383
27.02500000000000	1.00046597500648	1716.39385371506000	196960.33885000000009
27.07500000000000	1.00040206307202	1725.93748292859755	197677.19190000000526
27.12500000000000	1.00029798882109	1735.51539702362174	198387.33465000000433
27.17500000000000	1.00016878558139	1745.12741224111073	199093.67120000001159
27.22500000000000	1.00014237355236	1754.77457602471532	199821.70345000000088
27.27500000000000	0.99994370563005	1764.45528392795882	200516.50280000001658
27.32500000000000	0.99990555590902	1774.17114663255848	201244.66419999999925
27.37500000000000	0.99981044262340	1783.92167095784589	201962.61035000000265
27.42500000000000	0.99970410437458	1793.70680531309881	202679.48790000000736
27.47500000000000	0.99967783738834	1803.52739375756141	203413.84845000001951
27.52500000000000	0.99953043880398	1813.38230515858731	204124.77985000002082
27.57500000000000	0.99946486335371	1823.27240366679371	204853.61040000000503
27.62500000000000	0.99942099952160	1833.19796523440368	205588.15675000002375
27.67500000000000	0.99933007107296	1843.15858263167593	206314.26815000001807
27.72500000000000	0.99933695016876	1853.15529273644961	207061.85640000001877
27.77500000000000	0.99922141718333	1863.18693211991945	207785.34655000001658
27.82500000000000	0.99924183694602	1873.25492725824461	208538.38330000001588
27.87500000000000	0.99923328605095	1883.35905170181968	209286.72960000002058
27.92500000000000	0.99915632517886	1893.49867561192741	210022.03005000000121
27.97500000000000	0.99922815723639	1903.67537379906457	210789.94955000001937
28.02500000000000	0.99919281071770	1913.88812103992677	211536.63360000000102
28.07500000000000	0.99918858069682	1924.13729894992684	212291.22205000001122
28.12500000000000	0.99927077707386	1934.42386191522496	213065.57870000001276
28.17500000000000	0.99921940660879	1944.74650113454845	213812.82615000000806
28.22500000000000	0.99931374473686	1955.10678847825989	214592.63175000000047
28.27500000000000	0.99930412933574	1965.50371435087891	215351.52560000002268
28.32500000000000	0.99934854863312	1975.93790724424207	216123.43740000002435
28.37500000000000	0.99942470468967	1986.40976799353416	216903.65170000001672
28.42500000000000	0.99946124079540	1996.91895065659514	217676.70050000000629
28.47500000000000	0.99955291882888	2007.46610482067581	218463.20420000000740
28.52500000000000	0.99955027788679	2018.05030357988562	219230.50890000001527
28.57500000000000	0.99966702723399	2028.67288043258304	220025.43435000002501
28.62500000000000	0.99976262622913	2039.33368357553536	220817.21550000002026
28.67500000000000	0.99975810460760	2050.03171383189419	221588.30070000002161
28.72500000000000	0.99990129500991	2060.76862204414692	222393.57980000000680
28.77500000000000	0.99988885366795	2071.54280698837556	223165.69275000001653
28.82500000000000	0.99999469361056	2082.35561175347357	223965.62510000000475
28.87500000000000	1.00007706608906	2093.20685471683919	224761.79550000000745
28.92500000000000	1.00013813458633	2104.09637518467116	225554.63745000000927
28.97500000000000	1.00026049620233	2115.02491250183175	226362.79344999999739
29.02500000000000	1.00022928395447	2125.99085728527916	227137.61430000001565
29.07500000000000	1.00029210446590	2136.99530673731033	227935.16150000001653
29.12500000000000	1.00039060730252	2148.03872460048115	228742.31420000002254
29.17500000000000	1.00036401353687	2159.11979773572193	229522.26785000000382
29.22500000000000	1.00052364178228	2170.24065908126477	230346.40105000001495
29.27500000000000	1.00047102504498	2181.39901869115283	231123.10260000001290
29.32500000000000	1.00052524805497	2192.59613332448180	231925.83540000001085
29.37500000000000	1.00057237956877	2203.83199258921104	232728.35295000000042
29.42500000000000	1.00059019772417	2215.10633490081182	233525.45230000000447
29.47500000000000	1.00061479746376	2226.41930340364979	234325.51660000000265
29.52500000000000	1.00059790868840	2237.77049443103306	235117.21975000001839
29.57500000000000	1.00061475023949	2249.16035574033549	235918.19729999999981
29.62500000000000	1.00064563619965	2260.58911414327667	236723.87280000001192
29.67500000000000	1.00063249279735	2272.05633255684870	237520.49500000002445
29.72500000000000	1.00065696022704	2283.56250754841767	238327.40260000000126
29.77500000000000	1.00055750809411	2295.10627642061399	239106.08465000000433
29.82500000000000	1.00056746352179	2306.68896308597914	239912.18890000000829
29.87500000000000	1.00058452908074	2318.31071600685755	240721.36824999999953
29.92500000000000	1.00052734369635	2329.97073630571458	241514.00045000002137
29.97500000000000	1.00052392379245	2341.66971330324895	242320.91055000000051
30.02500000000000	1.00040895060422	2353.40640310430763	243102.05585000000428
30.07500000000000	1.00037385178646	2365.18180202048097	243903.83775000000605
30.12500000000000	1.00037234568757	2376.99636913290578	244715.12860000002547
30.17500000000000	1.00029563498560	2388.84927828657101	245509.30730000001495
30.22500000000000	1.00031667654999	2400.74175069280273	246328.78095000001485
30.27500000000000	1.00021660429733	2412.67240844153775	247119.71395000000484
30.32500000000000	1.00015776591510	2424.64180219668106	247922.05285000000731
30.37500000000000	1.00015447660276	2436.65065937096642	248739.45865000001504
30.42500000000000	1.00006559175553	2448.69801365084095	249536.84920000002603
30.47500000000000	1.00008859112035	2460.78527532467342	250363.45105000000331
30.52500000000000	0.99996544450436	2472.91073914206390	251154.73205000002054
30.57500000000000	0.99991386106260	2485.07533099743614	251965.19110000002547
30.62500000000000	0.99992512863932	2497.27987897455932	252792.80225000000792
30.67500000000000	0.99988259010605	2509.52379016076702	253608.13240000000224
30.72500000000000	0.99987391800763	2521.80754228021942	254433.35765000001993
30.77500000000000	0.99977180833063	2534.13004805195533	255236.06205000000773
30.82500000000000	0.99973109183504	2546.49212350214066	256055.66880000001402
30.87500000000000	0.99973992001602	2558.89444504415360	256889.28610000002664
30.92500000000000	0.99969351558691	2571.33639102734378	257710.02715000000899
30.97500000000000	0.99972096436586	2583.81894489932893	258551.13835000002291
31.02500000000000	0.99964158129009	2596.34083570704524	259365.92430000001332
31.07500000000000	0.99963276940432	2608.90300893882886	260200.29415000000154
31.12500000000000	0.99967710161160	2621.50619892823215	261049.87425000002258
31.17500000000000	0.99963530968840	2634.14938503355825	261878.31380000000354
31.22500000000000	0.99967981962970	2646.83372394152002	262730.71179999999003
31.27500000000000	0.99963528834300	2659.55815090523947	263561.05570000002626
31.32500000000000	0.99962388948011	2672.32315043933295	264401.43534999998519
31.37500000000000	0.99968138459586	2685.12966923190015	265261.42375000001630
31.42500000000000	0.99966917509056	2697.97688121951296	266104.30190000002040
31.47500000000000	0.99971969029404	2710.86565912227661	266965.25670000002719
31.52500000000000	0.99970694928754	2723.79525401196724	267810.69894999999087
31.57500000000000	0.99975815430346	2736.76655955680644	268674.65175000001909
31.62500000000000	0.99979811098674	2749.77949861440084	269537.00670000002719
31.67500000000000	0.99975371020496	2762.83303809443169	270377.96325000002980
31.72500000000000	0.99985773505717	2775.92918346932947	271260.45915000000969
31.77500000000000	0.99983086407516	2789.06628850479501	272108.85659999999916
31.82500000000000	0.99988814538389	2802.24552522330578	272981.53015000000596
31.87500000000000	0.99995698417803	2815.46711624582576	273858.81485000002431
31.92500000000000	0.99991831959959	2828.72970645971145	274708.03110000002198
31.97500000000000	1.00002948659845	2842.03535126248107	275599.82079999998678
32.02500000000000	0.99996355238296	2855.38176122484947	276444.18955000001006
32.07500000000000	1.00001250701475	2868.77053411866973	277321.65295000001788
32.12500000000000	1.00016058333758	2882.20307034230973	278228.12280000001192
32.17500000000000	1.00007003013640	2895.67623248683412	279069.60750000004191
32.22500000000000	1.00011329828996	2909.19188652051980	279949.74200000002747
32.27500000000000	1.00017756244514	2922.75038577221221	280837.19500000000698
32.32500000000000	1.00014745585749	2936.35051745522196	281699.52754999999888
32.37500000000000	1.00023772338752	2949.99398604501584	282597.16490000003250
32.42500000000000	1.00021276102874	2963.67928761164876	283463.65135000000009
32.47500000000000	1.00024481127130	2977.40726760727648	284347.64965000003576
32.52500000000000	1.00030168227098	2991.17833553080345	285240.12989999999991
32.57500000000000	1.00026437992218	3004.99126081929990	286107.12150000000838
32.62500000000000	1.00034432150296	3018.84772942352220	287009.03419999999460
32.67500000000000	1.00026979686328	3032.74566704002336	287867.98185000004014
32.72500000000000	1.00026389565045	3046.68608880410375	288747.95600000000559
32.77500000000000	1.00030075559418	3060.66965707285044	289641.64955000003101
32.82500000000000	1.00028822163338	3074.69574747497791	290522.41049999999814
32.87500000000000	1.00039672370946	3088.76612637476182	291439.75815000000875
32.92500000000000	1.00031733193743	3102.87821741658172	292303.74174999998650
32.97500000000000	1.00028965312310	3117.03281065031251	293184.08965000003809
33.02500000000000	1.00028686896125	3131.23032212862609	294073.05525000003399
33.07500000000000	1.00030340218547	3145.47109171052580	294969.06034999998519
33.12500000000000	1.00031557188844	3159.75512359869663	295865.15250000002561
33.17500000000000	1.00025832002660	3174.08148962972791	296742.01959999999963
33.22500000000000	1.00022356487779	3188.45057313039842	297626.82654999999795
33.27500000000000	1.00021364612037	3202.86279404962215	298520.33189999999013
33.32500000000000	1.00017093239003	3217.31774264228397	299405.35019999998622
33.37500000000000	1.00027386939423	3231.81759161878699	300335.37184999999590
33.42500000000000	1.00012894339767	3246.35881124173829	301192.28205000003800
33.47500000000000	1.00010049154661	3260.94315250807904	302085.46065000002272
33.52500000000000	1.00013610414012	3275.57161505094336	302999.34465000004275
33.57500000000000	1.00009465813545	3290.24313659538211	303891.22575000004144
33.62500000000000	1.00009551403781	3304.95840101866543	304797.27199999999721
33.67500000000000	1.00004315055201	3319.71668807752394	305688.39984999998705
33.72500000000000	1.00000136244392	3334.51821478542888	306584.02270000003045
33.77500000000000	1.00004229972639	3349.36427063678639	307506.35485000000335
33.82500000000000	0.99998936396210	3364.25352658718157	308401.15850000001956
33.87500000000000	1.00000807697767	3379.18711300872883	309319.37554999999702
33.92500000000000	0.99992421808093	3394.16356034132104	310207.15360000001965
33.97500000000000	0.99991179404273	3409.18399932168495	311118.35260000004200
34.02500000000000	0.99988666070674	3424.24830243564838	312026.91039999999339
34.07500000000000	0.99989942111362	3439.35710510549870	312948.62969999999041
34.12500000000000	0.99994825623541	3454.51102022644091	313883.04389999998966
34.17500000000000	0.99988842160859	3469.70846551439263	314784.68424999999115
34.22500000000000	0.99983181152355	3484.94954986236189	315688.58010000002105
34.27500000000000	0.99986341869843	3500.23568197028226	316621.65435000002617
34.32500000000000	0.99984314085161	3515.56613417173185	317539.65645000000950
34.37500000000000	0.99989018555381	3530.94200497031170	318480.41185000003316
34.42500000000000	0.99985255574135	3546.36205775841927	319395.55340000003343
34.47500000000000	0.99983149254435	3561.82661046204066	320317.28015000000596
34.52500000000000	0.99986405692772	3577.33655812293091	321257.54590000002645
34.57500000000000	0.99983270816414	3592.89097442912680	322178.62495000002673
34.62500000000000	0.99993777304541	3608.49204994928914	323145.07725000003120
34.67500000000000	0.99986864540944	3624.13713360209931	324056.61770000000251
34.72500000000000	0.99986618894520	3639.82733043254348	324991.04694999998901
34.77500000000000	0.99990837955377	3655.56340791289313	325941.37285000004340
34.82500000000000	0.99987583753269	3671.34425543378529	326868.69469999999274
34.87500000000000	0.99997471527478	3687.17201523921449	327840.38884999998845
34.92500000000000	0.99990013841836	3703.04400802638156	328756.58660000003874
34.97500000000000	0.99993000193812	3718.96195467097277	329708.42885000002570
35.02500000000000	0.99993611832618	3734.92554384200821	330653.82250000000931
35.07500000000000	0.99995969679232	3750.93512073333750	331606.36615000001621
35.12500000000000	1.00011254198921	3766.99282805723396	332603.29180000000633
35.17500000000000	0.99997437424678	3783.09405907641076	333504.79810000001453
35.22500000000000	0.99997779329571	3799.24115247426789	334454.74554999999236
35.27500000000000	1.00002789181193	3815.43492952731776	335421.70410000003176
35.32500000000000	1.00003456584509	3831.67475472408796	336375.49930000002496
35.37500000000000	1.00016488887225	3847.96270740597174	337372.36389999999665
35.42500000000000	1.00008269682944	3864.29539399655278	338298.93735000002198
35.47500000000000	1.00004957300191	3880.67367560469211	339243.34695000003558
35.52500000000000	1.00011895111868	3897.09929770192912	340223.91049999999814
35.57500000000000	1.00013507893307	3913.57145475063271	341187.78895000001648
35.62500000000000	1.00016704801786	3930.09047496017592	342158.46559999999590
35.67500000000000	1.00013163213240	3946.65531030030797	343107.43440000002738
35.72500000000000	1.00011997056481	3963.26641709796377	344065.85510000004433
35.77500000000000	1.00014869524587	3979.92453200405544	345039.53405000001658
35.82500000000000	1.00014479942641	3996.62917793656834	346003.33120000001509
35.87500000000000	1.00023983823901	4013.38207665479149	347002.79115000000456
35.92500000000000	1.00014869519586	4030.18017508087041	347939.01270000002114
35.97500000000000	1.00012960933133	4047.02474338580987	348901.54330000001937
36.02500000000000	1.00017537206882	4063.91694010282481	349888.07060000003548
36.07500000000000	1.00016385139928	4080.85586444261480	350855.93985000002431
36.12500000000000	1.00021804175040	4097.84269638147271	351848.24995000002673
36.17500000000000	1.00014608793507	4114.87535784051761	352797.51680000004126
36.22500000000000	1.00015447794930	4131.95527917734398	353776.41065000003437
36.27500000000000	1.00013080425945	4149.08197718825340	354745.29590000002645
36.32500000000000	1.00015692992130	4166.25636985465189	355733.19530000002123
36.37500000000000	1.00023811155501	4183.47947273455793	356742.12995000003139
36.42500000000000	1.00008411237420	4200.74729787816068	357668.46220000000903
36.47500000000000	1.00014961748450	4218.06369621492649	358674.55875000002561
36.52500000000000	1.00009937447092	4235.42672950322503	359640.50849999999627
36.57500000000000	1.00011692322160	4252.83763821992670	360632.15225000004284
36.62500000000000	1.00017627466230	4270.29721884080755	361640.29340000002412
36.67500000000000	1.00009239297501	4287.80303492251096	362597.96850000001723
36.72500000000000	1.00003436553176	4305.35559732533966	363566.22505000000820
36.77500000000000	1.00006970265170	4322.95660876987768	364569.75005000003148
36.82500000000000	1.00004654826316	4340.60510547245576	365553.31220000004396
36.87500000000000	1.00007393928019	4358.30204471832258	366556.70260000001872
36.92500000000000	1.00005512717197	4376.04667439772402	367544.51455000002170
36.97500000000000	0.99999806223195	4393.83837719069106	368519.53995000000577
37.02500000000000	1.00000008361253	4411.67826676722780	369517.63280000002123
37.07500000000000	0.99999229691658	4429.56623294312521	370513.44339999998920
37.12500000000000	1.00006668791577	4447.50381400570041	371541.11655000003520
37.17500000000000	1.00001813659023	4465.48887113163073	372524.48824999999488
37.22500000000000	0.99997683175209	4483.52159537000080	373511.81715000001714
37.27500000000000	0.99997873691212	4501.60282909284524	374516.59410000004573
37.32500000000000	0.99996484049228	4519.73235106695847	375516.78865000000224
37.37500000000000	1.00000057957667	4537.91112732098645	376536.99255000002449
37.42500000000000	0.99996006023738	4556.13783640467955	377529.82524999999441
37.47500000000000	0.99993092351264	4574.41274746779527	378528.23285000002943
37.52500000000000	0.99993494233131	4592.73653030703099	379540.51394999999320
37.57500000000000	0.99993117256391	4611.10910727326700	380551.18670000002021
37.62500000000000	1.00004436892841	4629.53269790225841	381607.83270000002813
37.67500000000000	0.99989472899716	4648.00252329936757	382565.49345000000903
37.72500000000000	0.99994959313135	4666.52242143826152	383602.65015000000130
37.77500000000000	0.99995040060139	4685.09145894128960	384620.47380000003614
37.82500000000000	0.99994806579656	4703.70964244677089	385638.43495000002440
37.87500000000000	1.00001017276778	4722.37823981560632	386682.65730000002077
37.92500000000000	0.99997420116592	4741.09548643119342	387690.32915000000503
37.97500000000000	0.99992730936315	4759.86123886931637	388695.03025000001071
38.02500000000000	0.99998711464155	4778.67756523202570	389742.56794999999693
38.07500000000000	0.99994886344111	4797.54268656400291	390753.25815000000875
38.12500000000000	1.00007488196618	4816.45977141168078	391829.57845000002999
38.17500000000000	0.99999057496319	4835.42490846328201	392824.88375000003725
38.22500000000000	0.99998037914189	4854.43956363639154	393850.55259999999544
38.27500000000000	0.99999875821319	4873.50434575870167	394888.83209999999963
38.32500000000000	1.00002278665977	4892.61942971564986	395930.73399999999674
38.37500000000000	1.00008150301942	4911.78554775262364	396987.80290000000969
38.42500000000000	1.00001535020104	4931.00037150580647	397996.64439999999013
38.47500000000000	1.00001544716238	4950.26523570219342	399033.13210000004619
38.52500000000001	1.00000617741669	4969.58002450637468	400067.22049999999581
38.57500000000000	1.00006298962182	4988.94608172406242	401129.14315000001807
38.62500000000000	1.00011127006677	5008.36331248733859	402189.10080000001471
38.67500000000000	1.00005005667460	5027.82965538793360	403206.36050000000978
38.72500000000000	1.00006088863208	5047.34657535365295	404253.96325000002980
38.77500000000001	1.00007715058870	5066.91424479313810	405305.13709999999264
38.82500000000000	1.00007172687689	5086.53230502095175	406348.88150000001770
38.87500000000000	1.00016357342217	5106.20273359726343	407433.58710000000428
38.92500000000000	1.00004311748510	5125.92141874911340	408433.12554999999702
38.97500000000000	1.00009539358745	5145.69182800173348	409504.48685000004480
39.02500000000001	1.00007729864776	5165.51263702988581	410548.41740000003483
39.07500000000000	1.00010515307349	5185.38482208755158	411612.56910000002244
39.12500000000000	1.00017826213313	5205.30935259979924	412696.80050000001211
39.17500000000000	1.00008709469403	5225.28302017331134	413714.57644999999320
39.22500000000000	1.00008055681307	5245.30757511951469	414768.60659999999916
39.27500000000001	1.00010423683747	5265.38368843965054	415836.53520000004210
39.32500000000000	1.00007090306361	5285.51028021770799	416882.09549999999581
39.37500000000000	1.00018029079587	5305.69029171773673	417988.57820000004722
39.42500000000000	1.00009456841871	5325.91985261188165	419014.89480000000913
39.47500000000000	1.00008002842255	5346.20046268522583	420072.27645000000484
39.52500000000001	1.00009507051424	5366.53278693331140	421143.43215000000782
39.57500000000000	1.00007281467652	5386.91613177712497	422200.22175000002608
39.62500000000000	1.00017821055354	5407.35316835563208	423312.33865000004880
39.67500000000000	1.00005934051326	5427.83937853279622	424330.87140000000363
39.72500000000000	1.00006129740329	5448.37729648775257	425401.89459999999963
39.77500000000001	1.00005315552879	5468.96677957796965	426469.96325000002980
39.82500000000000	1.00008206376939	5489.60865675417881	427555.20195000001695
39.87500000000000	1.00008901314588	5510.30254171291926	428632.43915000004927
39.92500000000000	1.00005398953270	5531.04762956356899	429693.00465000001714
39.97500000000000	1.00003770673565	5551.84437147208519	430762.91515000001527
40.02500000000001	1.00004438121323	5572.69330942886245	431844.05190000002040
40.07500000000000	1.00003556017166	5593.59418534257293	432919.84280000004219
40.12500000000000	1.00013327242992	5614.54929548348537	434043.19635000004200
40.17500000000000	1.00000148676341	5635.55389462900894	435068.26209999999264
40.22500000000000	1.00003312104602	5656.61147518223061	436165.66600000002654
40.27500000000001	1.00001212081621	5677.72099445032836	437241.47260000003735
40.32500000000000	1.00002648362175	5698.88326364365275	438334.08180000004359
40.37500000000000	1.00008563368176	5720.09929946656757	439447.75000000000000
40.42500000000000	1.00001188839859	5741.36634695119847	440504.35455000004731
40.47500000000000	0.99999995739101	5762.68578125327895	441589.44270000001416
40.52500000000001	1.00002427497101	5784.05844089460152	442691.89915000001201
40.57500000000000	1.00000005451574	5805.48335358715485	443774.21660000004340
40.62500000000000	1.00005834576094	5826.96235400719343	444894.53570000000764
40.67500000000000	0.99999595378290	5848.49291500263371	445962.50990000000456
40.72500000000000	0.99996221648721	5870.07571350847047	447044.50544999999693
40.77500000000001	0.99999584768903	5891.71226864291111	448157.96650000003865
40.82500000000000	0.99998319364750	5913.40164512864067	449252.05515000002924
40.87500000000000	1.00005054237516	5935.14564618108579	450383.49379999999655
40.92500000000000	1.00000178331261	5956.94181333705183	451464.01030000002356
40.97500000000000	0.99998022189458	5978.79080072417401	452558.07575000001816
41.02500000000001	0.99997010604955	6000.69292180036882	453658.63385000004200
41.07500000000000	1.00003154961387	6022.64981172452917	454793.06100000004517
41.12500000000000	1.00003907303516	6044.66035537100197	455904.39055000001099
41.17500000000000	0.99999310132477	6066.72343834068033	456992.63755000004312
41.22500000000000	0.99999972010708	6088.84028391105676	458106.22230000002310
41.27500000000001	0.99999935282777	6111.01080297634144	459217.96140000002924
41.32500000000000	0.99999858735895	6133.23505171632860	460330.86415000003763
41.37500000000000	1.00011220402011	6155.51564333271926	461497.89415000000736
41.42500000000000	0.99998285534922	6177.84722924248399	462554.13894999999320
41.47500000000000	1.00003204389479	6200.23385728527046	463694.22665000002598
41.52500000000001	1.00001042008215	6222.67400881816502	464802.85870000004070
41.57500000000000	1.00005078834968	6245.16914102256032	465941.67334999999730
41.62500000000000	1.00008562364707	6267.71919858053388	467079.34220000001369
41.67500000000000	1.00004072030528	6290.32244806161361	468181.10649999999441
41.72500000000000	1.00001905708013	6312.97947620820014	469295.02400000003399
41.77500000000001	1.00003836508592	6335.69127623235363	470429.51390000001993
41.82500000000000	1.00001699398436	6358.45698923139935	471546.21335000003455
41.87500000000000	1.00010644948432	6381.27920698838079	472716.59640000003856
41.92500000000000	1.00004267542577	6404.15449930723753	473815.92980000004172
41.97500000000000	1.00004195747885	6427.08437010810667	474946.41390000004321
42.02500000000001	1.00005076903249	6450.06910340613376	476082.78080000000773
42.07500000000000	1.00004033896493	6473.10832194274190	477211.33355000003939
42.12500000000000	1.00012259673575	6496.20423009467049	478385.54555000003893
42.17500000000000	1.00005010361261	6519.35331979434068	479487.09494999999879
42.22500000000000	1.00003816220807	6542.55705312844839	480618.92855000001146
42.27500000000001	1.00005104846573	6565.81607129347594	481764.04325000004610
42.32500000000000	1.00005878322266	6589.13032068270786	482908.04760000004899
42.37500000000000	1.00014847875482	6612.50178247964686	484093.08819999999832
42.42500000000000	1.00005410219939	6635.92622010335435	485190.37650000001304
42.47500000000000	1.00007136604755	6659.40630934435831	486343.08845000003930
42.52500000000001	1.00005935862979	6682.94142832279431	487482.91940000001341
42.57500000000000	1.00005196802715	6706.53174968856638	488626.32645000005141
42.62500000000000	1.00015974815309	6730.18006085311936	489827.46915000001900
42.67500000000000	1.00002430495820	6753.88067445083107	490910.80945000000065
42.72500000000000	1.00007242629814	6777.63800119490224	492085.50885000004200
42.77500000000001	1.00005409314205	6801.45052914592179	493228.89144999999553
42.82500000000000	1.00006818548439	6825.31909523240483	494389.60935000004247
42.87500000000000	1.00013509776137	6849.24502969384957	495577.88050000002841
42.92500000000000	1.00006174197831	6873.22504165256396	496697.98769999999786
42.97500000000000	1.00003228344990	6897.26024303093254	497841.12615000002552
43.02500000000001	1.00005393073286	6921.35192676338556	499011.04515000001993
43.07500000000000	1.00003088773459	6945.49908123642854	500160.01060000003781
43.12500000000000	1.00010527139520	6969.70412690577996	501359.11095000000205
43.17500000000000	1.00005367238692	6993.96408102635451	502496.42970000003697
43.22500000000000	1.00003572393476	7018.27982108099604	503651.92375000001630
43.27500000000001	1.00002555947924	7042.65159982621662	504812.65315000002738
43.32500000000000	1.00006681323073	7067.08073720604989	506000.72255000000587
43.37500000000000	1.00012091273627	7091.56761746000393	507196.75070000003325
43.42500000000000	1.00002016487680	7116.10851175588596	508315.54355000000214
43.47500000000000	1.00001353119750	7140.70578869791552	509483.39730000001146
43.52500000000001	0.99999319341435	7165.35917475015140	510645.58530000003520
43.57500000000000	1.00001209324834	7190.06970224743054	511829.15605000004871
43.62500000000000	1.00009104732140	7214.83892576397102	513044.92670000001090
43.67500000000000	1.00002633930591	7239.66335310429531	514188.36350000003586
43.72500000000000	1.00001314048370	7264.54432356492634	515359.54115000000456
43.77500000000001	1.00002697304776	7289.48257481050223	516545.99805000005290
43.82500000000000	1.00001901196539	7314.47762876458910	517722.55255000002217
43.87500000000000	1.00010750160028	7339.53196583788849	518950.48380000004545
43.92500000000000	0.99998951747350	7364.64047690824009	520072.58980000001611
43.97500000000000	1.00000889975025	7389.80667051368528	521267.36815000005299
44.02500000000001	1.00000410036517	7415.03000400225301	522450.90655000001425
44.07500000000000	1.00003083569779	7440.31133910836161	523652.29405000002589
44.12500000000000	1.00007934213022	7465.65129560416972	524866.51890000002459
44.17500000000000	1.00002701794728	7491.04738350081334	526029.16859999997541
44.22500000000000	0.99998578250817	7516.49994409316969	527198.88754999998491
44.27500000000001	1.00001989600703	7542.01095989230635	528409.67025000008289
44.32500000000000	1.00000974899420	7567.57936823964337	529598.44209999998566
44.37500000000000	1.00008661384210	7593.20746278909064	530834.72239999996964
44.42500000000000	1.00003787337077	7618.89209148842474	532005.71425000007730
44.47500000000000	1.00001845771424	7644.63406863808177	533193.57270000001881
44.52500000000001	1.00000893675467	7670.43371233760263	534388.01994999998715
44.57500000000000	1.00004383351445	7696.29223507943152	535607.58155000000261
44.62500000000000	1.00008497235628	7722.20986774979701	536831.92550000001211
44.67500000000000	1.00000729036921	7748.18359400381178	537993.79190000006929
44.72500000000000	1.00000803350586	7774.21551141800137	539199.10540000000037
44.77500000000001	1.00000978844653	7800.30571154588779	540406.31524999998510
44.82500000000000	1.00002825727042	7826.45469670010971	541623.92949999996927
44.87500000000000	1.00009338304701	7852.66375682667513	542868.26240000000689
44.92500000000000	1.00002618325243	7878.92948906966467	544042.11195000004955
44.97500000000000	1.00003771023804	7905.25402300978476	545260.07150000007823
45.02500000000001	1.00003243326200	7931.63698174339152	546470.22424999997020
45.07500000000000	1.00001983486011	7958.07823613915480	547677.70230000000447
45.12500000000000	1.00012071496681	7984.58085690385724	548948.78390000003856
45.17500000000000	1.00003063910677	8011.13984951968268	550116.41405000002123
45.22500000000000	1.00004573615917	8037.75806785356781	551343.15635000006296
45.27500000000001	1.00004194004304	8064.43507476218656	552560.84409999998752
45.32500000000000	1.00004281011365	8091.17105961960715	553782.45435000001453
45.37500000000000	1.00012388533543	8117.96823660509926	555049.92690000007860
45.42500000000000	1.00004125118895	8144.82228429249608	556227.88974999997299
45.47500000000000	1.00002088626926	8171.73493377826435	557441.70880000002217
45.52500000000001	1.00007670954082	8198.70830261666924	558699.38875000004191
45.57500000000000	1.00002190893642	8225.73947226856944	559896.61699999996927
45.62500000000000	1.00012273120494	8252.83271711493580	561182.38049999997020
45.67500000000000	1.00003102822585	8279.98288727369618	562361.47450000001118
45.72500000000000	1.00005479052705	8307.19317858597969	563606.76395000005141
45.77500000000001	1.00004279540659	8334.46268390622390	564833.26370000001043
45.82500000000000	1.00005879269652	8361.79223185198316	566076.92660000000615
45.87500000000000	1.00007576698763	8389.18191616137665	567322.53110000002198
45.92500000000000	1.00008833024020	8416.63168286344990	568567.01770000008401
45.97500000000000	1.00002786901386	8444.13958983968587	569771.27720000001136
46.02500000000001	1.00002196243692	8471.70719883401216	571007.88510000007227
46.07500000000000	1.00002461011608	8499.33481053683136	572250.72120000002906
46.12500000000000	1.00012397981244	8527.02516827118234	573550.37975000008009
46.17500000000000	1.00005224911058	8554.77360152319852	574753.29795000003651
46.22500000000000	1.00007143416837	8582.58269484867014	576009.75005000003148
46.27500000000001	1.00003621591471	8610.45099955582191	577236.19540000008419
46.32500000000000	1.00000986104658	8638.37882400673334	578469.02785000007134
46.37500000000000	1.00015456951317	8666.37101779079057	579802.30985000007786
46.42500000000000	1.00002192590622	8694.41988421284077	580976.17020000005141
46.47500000000000	1.00005825561361	8722.53022193548350	582249.42524999997113
46.52500000000001	1.00002346796118	8750.70009710576778	583482.62439999997150
46.57500000000000	1.00004077218579	8778.93104112400943	584747.54344999999739
46.62500000000000	1.00011148572157	8807.22463213197989	586045.15055000002030
46.67500000000000	1.00002483916822	8835.57648244820120	587251.87560000002850
46.72500000000000	1.00000557050570	8863.98856095209703	588499.38205000001471
46.77500000000001	1.00005369673970	8892.46284928790919	589787.93430000008084
46.82500000000000	1.00002025148747	8920.99709085349969	591029.74554999999236
46.87500000000000	1.00008645179187	8949.59419597113629	592331.83830000006128
46.92500000000000	1.00000551380054	8978.25002144558857	593548.11305000004359
46.97500000000000	1.00001822200196	9006.96731167621328	594821.23255000007339
47.02500000000001	1.00002441146020	9035.74594569104738	596091.84635000000708
47.07500000000000	1.00003048006452	9064.58598583260755	597363.75144999998156
47.12500000000000	1.00006311630695	9093.48826573164661	598652.92355000006501
47.17500000000000	1.00004499571918	9122.45138445429620	599913.07810000004247
47.22500000000000	1.00000978297503	9151.47490877713972	601164.25930000003427
47.27500000000001	0.99999292295507	9180.55943322548592	602427.75490000005811
47.32500000000000	1.00001119406980	9209.70604473521598	603713.76419999997597
47.37500000000000	1.00010463667912	9238.91700622803546	605046.64540000003763
47.42500000000000	1.00002410148317	9268.18730204216990	606275.63719999999739
47.47500000000000	1.00004993245185	9297.52010716948462	607570.39260000002105
47.52500000000001	1.00003043988157	9326.91415767150102	608838.96805000002496
47.57500000000000	0.99999909631854	9356.36916713656319	610101.61105000006501
47.62500000000000	1.00014258274380	9385.89035720561697	611472.40990000008605
47.67500000000000	0.99997442061984	9415.46859249259069	612653.98750000004657
47.72500000000000	1.00003886785049	9445.11081198775173	613979.29240000003483
47.77500000000001	1.00001614379308	9474.81449950040405	615252.47944999998435
47.82500000000000	1.00003703220290	9504.58101541786164	616553.84420000005048
47.87500000000000	1.00011647452524	9534.41217393908119	617892.78645000001416
47.92500000000000	1.00001139810897	9564.30253477036604	619119.04390000004787
47.97500000000000	1.00005145353903	9594.25649692477418	620436.41810000000987
48.02500000000001	0.99997680770879	9624.27068772995699	621683.93414999998640
48.07500000000000	1.00007334354680	9654.35031162568339	623039.24975000007544
48.12500000000000	1.00010643738409	9684.49353362134752	624356.55720000003930
48.17500000000000	1.00002364237748	9714.69692278506045	625602.79975000000559
48.22500000000000	1.00002146678207	9744.96297378466443	626900.71435000002384
48.27500000000001	1.00003763109874	9775.29230763294436	628211.49200000008568
48.32500000000000	1.00006062795449	9805.68519908024427	629527.96055000007618
48.37500000000000	1.00005003049585	9836.14069301165182	630824.64580000005662
48.42500000000000	1.00006040076435	9866.65949303578418	632135.90490000008140
48.47500000000000	1.00002573518749	9897.24028833572265	633420.01305000006687
48.52500000000001	1.00001460762890	9927.88386088691914	634720.31825000001118
48.57500000000000	1.00002766772069	9958.59101706651018	636037.32595000008587
48.62500000000000	1.00009185337869	9989.36339670741108	637388.29950000008103
48.67500000000000	1.00004588304458	10020.19767658233468	638670.43905000004452
48.72500000000000	1.00007042264002	10051.09609443112095	639998.92890000005718
48.77500000000001	1.00004777092708	10082.05725741076276	641298.56880000000820
48.82500000000000	1.00003081058602	10113.08140428234947	642603.15415000007488
48.87500000000000	1.00014834631137	10144.17277900840600	643995.64470000006258
48.92500000000000	1.00000663431278	10175.32338594845714	645222.52155000006314
48.97500000000000	1.00004212505060	10206.53880335048416	646564.94065000000410
49.02500000000001	1.00001487357161	10237.81713836716335	647868.15320000005886
49.07500000000000	1.00005108160245	10269.16044151986171	649213.83819999999832
49.12500000000000	1.00010891927023	10300.56946179692932	650575.03700000001118
49.17500000000000	1.00002395133468	10332.03977763964212	651844.65205000003334
49.22500000000000	1.00006898642115	10363.57554270500805	653200.30180000001565
49.27500000000001	0.99999348713567	10395.17301922945626	654478.53125000000000
49.32500000000000	1.00006148826745	10426.83680608558279	655852.01715000008699
49.37500000000000	1.00009321416901	10458.56582620575864	657203.19374999997672
49.42500000000000	1.00003274298258	10490.35721776423452	658495.09334999998100
49.47500000000000	1.00004358447333	10522.21330969674091	659835.23220000008587
49.52500000000001	1.00003733135502	10554.13362282627895	661165.44585000001825
49.57500000000000	0.99999710363458	10586.11713478738420	662474.48325000004843
49.62500000000000	1.00012326070246	10618.16923778310593	663895.20935000001919
49.67500000000000	1.00006974576451	10650.28424341956998	665198.11175000004005
49.72500000000000	1.00002308823305	10682.46243050495286	666506.78910000005271
49.77500000000001	0.99999425310157	10714.70443270416763	667828.59155000001192
49.82500000000000	1.00003246318223	10747.01247737890480	669196.52935000008438
49.87500000000000	1.00009750720103	10779.38750322014675	670583.91025000007357
49.92500000000000	1.00001019151670	10811.82464168404113	671870.44900000002235
49.97500000000000	1.00006472804127	10844.32855694738828	673253.59685000008903
50.02500000000001	1.00004747921744	10876.84814554143668	673578.23855000000913
