0.0250000000000 0.00000000000000	0.00000000000000	0.00000000000000
0.0750000000000 0.00000000000000	0.00000000000000	0.00000000000000
0.1250000000000 0.00000000000000	0.00000000000000	0.00000000000000
0.1750000000000 0.00000000000000	0.00000000000000	0.00000000000000
0.2250000000000 0.00000000000000	0.00000000000000	0.00000000000000
0.2750000000000 0.00000000000000	0.00000000000000	0.00000000000000
0.3250000000000 0.00000000000000	0.00000000000000	0.00000000000000
0.3750000000000 0.00000000000000	0.00000000000000	0.00000000000000
0.4250000000000 0.00000000000000	0.00000000000000	0.00000000000000
0.4750000000000 0.00000000000000	0.00000000000000	0.00000000000000
0.5250000000000 0.00000000000000	0.00000000000000	0.00000000000000
0.5750000000000 0.00000000000000	0.00000000000000	0.00000000000000
0.6250000000000 0.00000000000000	0.00000000000000	0.00000000000000
0.6750000000000 0.00000000000000	0.00000000000000	0.00000000000000
0.7250000000000 0.00000000000000	0.00000000000000	0.00000000000000
0.7750000000000 0.00000000000000	0.00000000000000	0.00000000000000
0.8250000000000 0.00000000000000	0.00000000000000	0.00000000000000
0.8750000000000 0.00000000000000	0.00000000000000	0.00000000000000
0.9250000000000 0.00000000000000	0.00000000000000	0.00000000000000
0.9750000000000 0.00000000000000	0.00000000000000	0.00000000000000
1.0250000000000 0.00000000000000	0.00000000000000	0.00000000000000
1.0750000000000 0.00000000000000	0.00000000000000	0.00000000000000
1.1250000000000 0.00000000000000	0.00000000000000	0.00000000000000
1.1750000000000 0.00000000000000	0.00000000000000	0.00000000000000
1.2250000000000 0.00000000000000	0.00000000000000	0.00000000000000
1.2750000000000 0.00000000000000	0.00000000000000	0.00000000000000
1.3250000000000 0.00000000000000	0.00000000000000	0.00000000000000
1.3750000000000 0.00000000000000	0.00000000000000	0.00000000000000
1.4250000000000 0.00000000000000	0.00000000000000	0.00000000000000
1.4750000000000 0.00000000000000	0.00000000000000	0.00000000000000
1.5250000000000 0.00000000000000	0.00000000000000	0.00000000000000
1.5750000000000 0.00000000000000	0.00000000000000	0.00000000000000
1.6250000000000 0.00000000000000	0.00000000000000	0.00000000000000
1.6750000000000 0.00000000000000	0.00000000000000	0.00000000000000
1.7250000000000 0.00000000000000	0.00000000000000	0.00000000000000
1.7750000000000 0.00000000000000	0.00000000000000	0.00000000000000
1.8250000000000 0.00000000000000	0.00000000000000	0.00000000000000
1.8750000000000 0.00000000000000	0.00000000000000	0.00000000000000
1.9250000000000 0.00000000000000	0.00000000000000	0.00000000000000
1.9750000000000 0.00000000000000	0.00000000000000	0.00000000000000
2.0250000000000 0.00000000000000	0.00000000000000	0.00000000000000
2.0750000000000 0.00000000000000	0.00000000000000	0.00000000000000
2.1250000000000 0.00000000000000	0.00000000000000	0.00000000000000
2.1750000000000 0.00000000000000	0.00000000000000	0.00000000000000
2.2250000000000 0.00000000000000	0.00000000000000	0.00000000000000
2.2750000000000 0.00000000000000	0.00000000000000	0.00000000000000
2.3250000000000 0.00000000000000	0.00000000000000	0.00000000000000
2.3750000000000 0.00000000000000	0.00000000000000	0.00000000000000
2.4250000000000 0.00000000000000	0.00000000000000	0.00000000000000
2.4750000000000 0.00000000000000	0.00000000000000	0.00000000000000
2.5250000000000 0.00000000000000	0.00000000000000	0.00000000000000
2.5750000000000 0.00000000000000	0.00000000000000	0.00000000000000
2.6250000000000 0.00000000000000	0.00000000000000	0.00000000000000
2.6750000000000 0.00000000000000	0.00000000000000	0.00000000000000
2.7250000000000 0.00000000000000	0.00000000000000	0.00000000000000
2.7750000000000 0.00000000000000	0.00000000000000	0.00000000000000
2.8250000000000 0.00000000000000	0.00000000000000	0.00000000000000
2.8750000000000 0.00000006732241	0.00000000724183	0.00015000000000
2.9250000000000 0.00000039024313	0.00000005069280	0.00090000000000
2.9750000000000 0.00000626631322	0.00000077246174	0.01495000000000
3.0250000000000 0.00010459577209	0.00001322840728	0.25800000000000
3.0750000000000 0.00120048129564	0.00016095447304	3.05985000000000
3.1250000000000 0.00840059641842	0.00122858591223	22.11385000000000
3.1750000000000 0.03840339404651	0.00626669965722	104.35445000000000
3.2250000000000 0.12445004535066	0.02311147105682	348.90575000000001
3.2750000000000 0.30665580408558	0.06591545164872	886.59885000000008
3.3250000000000 0.60780396429543	0.15336487230241	1811.33985000000007
3.3750000000000 1.01337282024888	0.30358449765848	3111.49910000000000
3.4250000000000 1.47429150818728	0.52865270603003	4661.83780000000024
3.4750000000000 1.92651159056514	0.83140724424275	6270.95474999999988
3.5250000000000 2.31307673288737	1.20544676290252	7747.48055000000022
3.5750000000000 2.59945387803500	1.63780447786414	8955.42534999999953
3.6250000000000 2.77358872059284	2.11211951672865	9824.48739999999998
3.6750000000000 2.84453524929664	2.61207879351133	10355.65650000000096
3.7250000000000 2.82901036203646	3.12293131125376	10581.28820000000087
3.7750000000000 2.74843158062117	3.63264596147345	10557.71954999999980
3.8250000000000 2.62410025585052	4.13227930285324	10348.90539999999964
3.8750000000000 2.47354247618427	4.61563933520018	10011.83634999999958
3.9250000000000 2.31063759767876	5.07889309853718	9595.37520000000040
3.9750000000000 2.14529570296665	5.52002562400429	9137.17799999999988
4.0250000000000 1.98403430304258	5.93832619369481	8664.25970000000052
4.0750000000000 1.83131804719569	6.33408116158939	8197.27265000000079
4.1250000000000 1.68950387696609	6.70820410370298	7749.20850000000064
4.1750000000000 1.55928602960565	7.06191290252495	7326.37035000000014
4.2250000000000 1.44140154462103	7.39675912470427	6935.66980000000058
4.2750000000000 1.33533170191735	7.71435018828753	6578.26370000000043
4.3250000000000 1.24028272613441	8.01627560952057	6253.78125000000000
4.3750000000000 1.15548823006950	8.30410046347700	5961.71619999999984
4.4250000000000 1.08040937387588	8.57941011683482	5702.48885000000064
4.4750000000000 1.01354794308682	8.84355172596905	5471.16514999999981
4.5250000000000 0.95426516809835	9.09783194853477	5266.90625000000000
4.5750000000000 0.90200456802427	9.34352743687537	5089.09065000000010
4.6250000000000 0.85599786199035	9.58181551199720	4935.66089999999986
4.6750000000000 0.81542308960561	9.81374304060256	4803.91490000000067
4.7250000000000 0.78000805968406	10.04036849804474	4694.09310000000005
4.7750000000000 0.74890671224457	10.26258707816346	4602.81345000000056
4.8250000000000 0.72205084599676	10.48134723603534	4531.17914999999994
4.8750000000000 0.69863397553772	10.69742231207455	4475.56305000000066
4.9250000000000 0.67868563575342	10.91165551585950	4437.41235000000052
4.9750000000000 0.66194060442532	11.12486708830203	4416.25129999999990
5.0250000000000 0.64800083451109	11.33780510548927	4410.58514999999989
5.0750000000000 0.63652879426407	11.55115654902717	4419.14845000000059
5.1250000000000 0.62782621609169	11.76575795152798	4445.03884999999991
5.1750000000000 0.62145395410884	11.98234623907690	4486.19320000000062
5.2250000000000 0.61722874802740	12.20163883792784	4542.20760000000064
5.2750000000000 0.61522520430205	12.42442295418339	4614.52739999999994
5.3250000000000 0.61525279960657	12.65146063341865	4702.63144999999986
5.3750000000000 0.61759508799829	12.88366256457295	4809.59860000000026
5.4250000000000 0.62184920043762	13.12183394003765	4933.24369999999999
5.4750000000000 0.62810728323364	13.36685703422969	5075.16334999999981
5.5250000000000 0.63666257970535	13.61977447496741	5238.67895000000044
5.5750000000000 0.64699152386935	13.88146811664186	5420.46039999999994
5.6250000000000 0.65950176662113	14.15302811760716	5624.82230000000072
5.6750000000000 0.67407648838854	14.43554580698113	5851.78890000000047
5.7250000000000 0.69073299267820	14.73016827837601	6102.51525000000038
5.7750000000000 0.70937501889160	15.03805042485414	6377.16290000000026
5.8250000000000 0.73008354593811	15.36043110848250	6677.47110000000066
5.8750000000000 0.75236228883626	15.69837710616516	6999.87545000000046
5.9250000000000 0.77672937674523	16.05323211751057	7350.11185000000023
5.9750000000000 0.80258118066510	16.42611225558824	7723.46630000000005
6.0250000000000 0.82975103227430	16.81809443344753	8119.12685000000056
6.0750000000000 0.85816749903451	17.23025743494412	8537.13225000000057
6.1250000000000 0.88689273984812	17.66325716216867	8968.72335000000021
6.1750000000000 0.91647517157778	18.11803461594161	9419.80540000000110
6.2250000000000 0.94580321495603	18.59499659151232	9879.31340000000091
6.2750000000000 0.97478079876490	19.09450022208280	10346.21870000000126
6.3250000000000 1.00332447878346	19.61685630280509	10819.56149999999980
6.3750000000000 1.03088024099618	20.16207751653550	11293.16700000000128
6.4250000000000 1.05726052832642	20.73005667455208	11764.55230000000120
6.4750000000000 1.08228626285287	21.32056465987542	12231.19189999999981
6.5250000000000 1.10608594052771	21.93341432675113	12693.95514999999978
6.5750000000000 1.12823434733815	22.56815283879692	13147.33880000000136
6.6250000000000 1.14930833414844	23.22461894462413	13597.38245000000097
6.6750000000000 1.16869968994590	23.90227515811318	14036.29315000000133
6.7250000000000 1.18673773287303	24.60073791580152	14467.25910000000113
6.7750000000000 1.20346095039784	25.31961476608899	14890.09619999999995
6.8250000000000 1.21846429195889	26.05823633466894	15299.06854999999996
6.8750000000000 1.23160070311556	26.81580006276254	15691.41750000000138
6.9250000000000 1.24259983090018	27.59128730507394	16062.66725000000042
6.9750000000000 1.25093703217653	28.38329182156113	16404.78955000000133
7.0250000000000 1.25662716434909	29.19034631390908	16716.51970000000074
7.0750000000000 1.25907710766579	30.01052588712400	16988.37949999999910
7.1250000000000 1.25862270750190	30.84203881861643	17223.12735000000248
7.1750000000000 1.25468411364344	31.68262431564708	17411.04739999999947
7.2250000000000 1.24764179233591	32.53018201853902	17555.46270000000004
7.2750000000000 1.23759469848471	33.38259110462019	17655.94940000000133
7.3250000000000 1.22469089201375	34.23774712499379	17712.84664999999950
7.3750000000000 1.20940640738911	35.09379864577797	17731.39515000000029
7.4250000000000 1.19193419252506	35.94896136725696	17712.98545000000013
7.4750000000000 1.17277210552883	36.80174639356920	17663.73625000000175
7.5250000000000 1.15217127472983	37.65079699705506	17586.38515000000189
7.5750000000000 1.13083722438186	38.49523714334031	17490.88875000000189
7.6250000000000 1.10899452726422	39.33433493941013	17380.23265000000174
7.6750000000000 1.08680499706449	40.16746318012778	17256.58525000000009
7.7250000000000 1.06490732509627	40.99447598126815	17129.91615000000093
7.7750000000000 1.04307884479307	41.81505678800754	16996.69024999999965
7.8250000000000 1.02208843276301	42.62949955100664	16869.55295000000115
7.8750000000000 1.00182404186950	43.43802921595170	16747.07495000000199
7.9250000000000 0.98262652373846	44.24116761454161	16635.40565000000061
7.9750000000000 0.96450063276531	45.03946967122053	16535.23050000000148
8.0250000000000 0.94766298015862	45.83370157389075	16450.92540000000008
8.0750000000000 0.93203434528580	46.62459923478034	16381.86325000000033
8.1250000000000 0.91775694134696	47.41305568966316	16331.29855000000134
8.1750000000000 0.90482814830652	48.20000163906664	16300.01144999999997
8.2250000000000 0.89342393385911	48.98656309081288	16292.04735000000073
8.2750000000000 0.88350170433001	49.77387467773848	16307.58490000000165
8.3250000000000 0.87491444469339	50.56298423212499	16344.82620000000134
8.3750000000000 0.86779200861213	51.35509969825699	16407.08765000000130
8.4250000000000 0.86220546930972	52.15154103461646	16496.68939999999930
8.4750000000000 0.85803156766633	52.95356226524422	16612.26575000000230
8.5250000000000 0.85521671495175	53.76241251870761	16753.71529999999984
8.5750000000000 0.85369723078678	54.57932453772965	16920.69865000000209
8.6250000000000 0.85363803483963	55.40573366726252	17117.41229999999996
8.6750000000000 0.85477457988497	56.24286518370118	17339.50510000000213
8.7250000000000 0.85718079114266	57.09205820257836	17589.33499999999913
8.7750000000000 0.86087529550814	57.95471409984036	17868.19160000000193
8.8250000000000 0.86577239767913	58.83219212813194	18175.20240000000194
8.8750000000000 0.87163645627170	59.72565227152042	18506.23994999999923
8.9250000000000 0.87864546874004	60.63647358422197	18865.84185000000070
8.9750000000000 0.88654755450522	61.56581223386198	19249.39144999999917
9.0250000000000 0.89533244211963	62.51484624873198	19657.34155000000101
9.0750000000000 0.90477140734492	63.48454125428475	20085.29264999999941
9.1250000000000 0.91483170094931	64.47585234152464	20533.02655000000232
9.1750000000000 0.92554878153282	65.48979748467148	21001.84575000000041
9.2250000000000 0.93676003004401	66.52724011490419	21488.54920000000129
9.2750000000000 0.94822774199011	67.58879748708488	21988.03785000000062
9.3250000000000 0.95977933482621	68.67490305846594	22496.50470000000132
9.3750000000000 0.97150455509658	69.78609823782085	23016.18575000000055
9.4250000000000 0.98324009131769	70.92274426929978	23543.34925000000294
9.4750000000000 0.99475405159256	72.08493414280890	24072.43885000000228
9.5250000000000 1.00606688821797	73.27277906870007	24603.83194999999978
9.5750000000000 1.01682719212810	74.48596573649455	25128.73545000000013
9.6250000000000 1.02700615456997	75.72412760343751	25646.04675000000134
9.6750000000000 1.03675772216578	76.98706585719100	26159.24005000000034
9.7250000000000 1.04570105449572	78.27409875440618	26658.31240000000253
9.7750000000000 1.05397622810076	79.58468987109639	27146.27380000000267
9.8250000000000 1.06126119716645	80.91787440254949	27614.25120000000243
9.8750000000000 1.06776596608681	82.27291758557399	28067.00945000000138
9.9250000000000 1.07332785213952	83.64884737604424	28499.63375000000087
9.9750000000000 1.07804867963425	85.04478822237201	28914.12275000000227
10.0250000000000 1.08167060553875	86.45949559214056	29302.83375000000160
10.0750000000000 1.08447258800472	87.89205125283620	29672.52540000000226
10.1250000000000 1.08632533800496	89.34133286100558	30018.96995000000243
10.1750000000000 1.08739672473051	90.80640717906698	30346.08435000000100
10.2250000000000 1.08742930952571	92.28595994544484	30645.97645000000193
10.2750000000000 1.08664376438612	93.77893872688672	30924.06950000000143
10.3250000000000 1.08529203850943	95.28460773668708	31186.92220000000088
10.3750000000000 1.08298724178681	96.80166619755688	31422.83190000000104
10.4250000000000 1.08027875950319	98.32955139043086	31647.08600000000297
10.4750000000000 1.07676194092239	99.86710585863892	31847.36570000000211
10.5250000000000 1.07274372847684	101.41358097088768	32032.13900000000285
10.5750000000000 1.06815167343046	102.96810132042704	32198.78000000000247
10.6250000000000 1.06314476411099	104.53000054313613	32351.61860000000161
10.6750000000000 1.05769606118131	106.09855417853564	32489.45145000000048
10.7250000000000 1.05187987098528	107.67312956355833	32614.17995000000155
10.7750000000000 1.04587818334344	109.25335251774270	32731.15805000000182
10.8250000000000 1.03966840067199	110.83880544344211	32839.48645000000397
10.8750000000000 1.03312571335511	112.42886866460715	32934.97950000000128
10.9250000000000 1.02650916160109	114.02330948438167	33025.65269999999873
10.9750000000000 1.01980879743598	115.62187517742504	33111.09120000000257
11.0250000000000 1.01320275161500	117.22458990006226	33197.03005000000121
11.0750000000000 1.00652927382155	118.83122238207940	33278.17859999999928
11.1250000000000 1.00011885383331	120.44206944672401	33365.47525000000314
11.1750000000000 0.99381056553643	122.05717653406090	33453.71310000000085
11.2250000000000 0.98766843322287	123.67669728190070	33545.13324999999895
11.2750000000000 0.98187064172639	125.30108618017594	33645.96725000000151
11.3250000000000 0.97627070695729	126.93056721624025	33751.44069999999920
11.3750000000000 0.97113334048364	128.56581774972227	33870.94430000000284
11.4250000000000 0.96637063883866	130.20738531356983	34001.78895000000193
11.4750000000000 0.96204308501018	131.85593682952799	34146.44755000000441
11.5250000000000 0.95810021313628	133.51207059334578	34303.49865000000136
11.5750000000000 0.95468352685132	135.17664812677918	34478.39444999999978
11.6250000000000 0.95182323960474	136.85060714768471	34672.71319999999832
11.6750000000000 0.94945365187158	138.53479347269769	34884.55135000000155
11.7250000000000 0.94748307803906	140.22991074204472	35110.96399999999994
11.7750000000000 0.94629778047002	141.93737739583904	35366.75680000000284
11.8250000000000 0.94547190602837	143.65787273209986	35636.61990000000515
11.8750000000000 0.94525482579338	145.39255007724722	35930.37185000000318
11.9250000000000 0.94553245888460	147.14237975908830	36244.22220000000380
11.9750000000000 0.94638482150968	148.90850446820920	36581.74109999999928
12.0250000000000 0.94770396500929	150.69189073770170	36939.27980000000389
12.0750000000000 0.94940759316978	152.49337107130791	37314.06215000000520
12.1250000000000 0.95168814025949	154.31416456331689	37714.09560000000056
12.1750000000000 0.95436831751127	156.15517601023652	38132.87010000000009
12.2250000000000 0.95733339404797	158.01710654661360	38566.16720000000350
12.2750000000000 0.96071413348066	159.90092786414405	39019.59095000000525
12.3250000000000 0.96445223254808	161.80751693622298	39491.17945000000327
12.3750000000000 0.96835498215186	163.73738457007605	39973.34830000000511
12.4250000000000 0.97256427684414	165.69133534977991	40472.18250000000262
12.4750000000000 0.97690196653883	167.66982871867768	40980.53315000000293
12.5250000000000 0.98134359647565	169.67328128228664	41497.51295000000391
12.5750000000000 0.98586536533910	171.70206660551275	42022.23040000000037
12.6250000000000 0.99042578959048	173.75647701443512	42553.00280000000203
12.6750000000000 0.99490587637840	175.83655884468703	43084.73495000000548
12.7250000000000 0.99939735837139	177.94254864336557	43621.36669999999867
12.7750000000000 1.00370114727084	180.07426156520066	44154.16975000000093
12.8250000000000 1.00788327728987	182.23164560903709	44685.89570000000094
12.8750000000000 1.01188567720538	184.41451823733868	45213.84075000000303
12.9250000000000 1.01562819863291	186.62251443296407	45734.22520000000077
12.9750000000000 1.01918594623250	188.85542136580855	46250.20130000000063
13.0250000000000 1.02229864349897	191.11244292231970	46749.68750000000000
13.0750000000000 1.02517464688138	193.39322455462812	47241.82994999999937
13.1250000000000 1.02772069572023	195.69719114324187	47722.05995000000257
13.1750000000000 1.02988565529317	198.02363568048901	48187.64570000000094
13.2250000000000 1.03169621960698	200.37189277506997	48639.44920000000275
13.2750000000000 1.03312190954048	202.74120922608969	49075.65164999999979
13.3250000000000 1.03414111071652	205.13076225800214	49494.81195000000298
13.3750000000000 1.03488488142239	207.54001329599811	49902.81675000000541
13.4250000000000 1.03523862405693	209.96814076908339	50293.80435000000580
13.4750000000000 1.03514897921372	212.41417668372631	50664.74190000000090
13.5250000000000 1.03477229203327	214.87750193356760	51022.85590000000229
13.5750000000000 1.03407944308331	217.35741237628540	51366.38500000000204
13.6250000000000 1.03307999930253	219.85321012166330	51695.45870000000286
13.6750000000000 1.03181900659892	222.36429043112929	52012.00645000000077
13.7250000000000 1.03024226565774	224.88990151354295	52312.98235000000568
13.7750000000000 1.02844634881764	227.42951285424476	52602.96970000000147
13.8250000000000 1.02645329441972	229.98263663882599	52882.85295000000042
13.8750000000000 1.02428419293640	232.54882688166910	53153.49850000000151
13.9250000000000 1.02194398605621	235.12764012455909	53414.95870000000286
13.9750000000000 1.01944011130276	237.71864207019667	53667.42330000000220
14.0250000000000 1.01689697515177	240.32170747598215	53917.29375000000437
14.0750000000000 1.01422330591739	242.93647314971324	54159.64140000000043
14.1250000000000 1.01148595755163	245.56274179983382	54397.90255000000616
14.1750000000000 1.00876746685688	248.20052791724896	54636.46385000000009
14.2250000000000 1.00614407201723	250.85004726500046	54879.49425000000338
14.2750000000000 1.00335363415162	253.51082520397716	55112.69345000000612
14.3250000000000 1.00069360217936	256.18317159272033	55352.31075000000419
14.3750000000000 0.99821880670408	258.86755049968662	55601.54030000000057
14.4250000000000 0.99569543061370	261.56380273258247	55847.47250000000349
14.4750000000000 0.99330835557196	264.27226999468849	56100.48240000000078
14.5250000000000 0.99107257617896	266.99334238159412	56361.57235000000219
14.5750000000000 0.98897715640833	269.72738788441967	56630.28450000000157
14.6250000000000 0.98704599921306	272.47484859267354	56908.15365000000020
14.6750000000000 0.98528562006541	275.23619384203073	57195.74415000000590
14.7250000000000 0.98363235351469	278.01172274658393	57489.53020000000106
14.7750000000000 0.98226960998353	280.80226129725384	57800.42500000000291
14.8250000000000 0.98099059823687	283.60806049099585	58116.51870000000054
14.8750000000000 0.98002506134313	286.43003745715538	58451.60889999999927
14.9250000000000 0.97926947650730	289.26882720996650	58799.85215000000608
14.9750000000000 0.97863108706276	292.12480613382849	59155.89145000000281
15.0250000000000 0.97825330751494	294.99877866074377	59528.59295000000566
15.0750000000000 0.97810663148558	297.89147714720320	59916.46375000000262
15.1250000000000 0.97815224794196	300.80353195577658	60317.39125000000058
15.1750000000000 0.97843926457453	303.73573196060261	60734.65869999999995
15.2250000000000 0.97878743146943	306.68833662916990	61157.30050000000483
15.2750000000000 0.97941444625442	309.66227015159683	61599.08505000000150
15.3250000000000 0.98028485170363	312.65836507266039	62058.11410000000615
15.3750000000000 0.98125658631714	315.67703161782202	62525.64015000000654
15.4250000000000 0.98237417240015	318.71882413218691	63004.64835000000312
15.4750000000000 0.98368662887482	321.78445871433286	63498.48910000000615
15.5250000000000 0.98496413238855	324.87394259885224	63992.47970000000350
15.5750000000000 0.98653584469895	327.98832027953887	64508.10490000000573
15.6250000000000 0.98810973720779	331.12772658958158	65026.52290000000357
15.6750000000000 0.98979260281918	334.29263827789066	65554.81579999999667
15.7250000000000 0.99157979041905	337.48352411287715	66092.81829999999900
15.7750000000000 0.99337540694443	340.70054905856358	66634.23769999999786
15.8250000000000 0.99511707587822	343.94367566021214	67174.88130000000820
15.8750000000000 0.99694741664159	347.21333121952767	67724.37559999999939
15.9250000000000 0.99880664085286	350.50975155940836	68278.75450000001001
15.9750000000000 1.00051394380301	353.83257418529365	68825.62505000000237
16.0250000000000 1.00218573932855	357.18181652343793	69372.85654999999679
16.0750000000000 1.00389718273559	360.55774684256403	69925.64470000000438
16.1250000000000 1.00542920954131	363.95989496451466	70468.69405000000552
16.1750000000000 1.00693153644796	367.38828948728218	71012.33574999999837
16.2250000000000 1.00828651385070	370.84255437647880	71548.18864999999641
16.2750000000000 1.00957590856744	374.32258639501867	72081.90320000000065
16.3250000000000 1.01071969168381	377.82800083763988	72607.64935000000696
16.3750000000000 1.01167047841114	381.35823860619064	73121.81489999999758
16.4250000000000 1.01256453495751	384.91320687974172	73634.05784999999742
16.4750000000000 1.01328838536967	388.49240855259950	74136.00424999999814
16.5250000000000 1.01382962061647	392.09529163086034	74626.51720000000205
16.5750000000000 1.01425291014354	395.72152367353664	75110.14429999999993
16.6250000000000 1.01446057066423	399.37041334669476	75579.45180000000983
16.6750000000000 1.01464875342727	403.04196516438805	76048.85280000000785
16.7250000000000 1.01458431073687	406.73533368898774	76500.74225000001024
16.7750000000000 1.01445707889702	410.45035219427496	76949.17829999999958
16.8250000000000 1.01409979341964	414.18623363105252	77381.31220000000030
16.8750000000000 1.01371923469333	417.94294209192373	77812.70235000000685
16.9250000000000 1.01312230658976	421.71972022884006	78228.40555000001041
16.9750000000000 1.01243884681399	425.51628318205746	78638.20845000000554
17.0250000000000 1.01168192290434	429.33238952348802	79043.01064999999653
17.0750000000000 1.01084966888629	433.16778572152742	79442.56145000000834
17.1250000000000 1.00989336328948	437.02202712306195	79832.90215000000899
17.1750000000000 1.00893139359200	440.89511507265786	80223.27070000000822
17.2250000000000 1.00788367519421	444.78674112634417	80607.25045000000682
17.2750000000000 1.00679084936748	448.69674871336724	80987.98715000000084
17.3250000000000 1.00563541279413	452.62490964128580	81363.99730000000272
17.3750000000000 1.00445605837947	456.57114327716960	81738.33729999999923
17.4250000000000 1.00330136438977	460.53555908849756	82114.94470000000729
17.4750000000000 1.00210288252045	464.51799597354477	82488.21520000000601
17.5250000000000 1.00094626208360	468.51863194129066	82865.17280000000028
17.5750000000000 0.99989113666092	472.53788734369846	83250.83715000000666
17.6250000000000 0.99870333433159	476.57524261815905	83625.73980000001029
17.6750000000000 0.99767852379579	480.63137091440245	84014.58540000001085
17.7250000000000 0.99668554126523	484.70642013711455	84406.49455000000307
17.7750000000000 0.99575941563704	488.80068422488318	84804.49205000000075
17.8250000000000 0.99486889574778	492.91433234924966	85205.99360000000161
17.8750000000000 0.99401177379157	497.04752680200528	85610.85670000000391
17.9250000000000 0.99333322916218	501.20103908656176	86031.69995000000927
17.9750000000000 0.99265411937742	505.37489980446924	86453.17704999999842
18.0250000000000 0.99210022143172	509.56967119200812	86886.29975000000559
18.0750000000000 0.99159814078705	513.78561212765601	87324.78459999999905
18.1250000000000 0.99125802946246	518.02345596726252	87778.45945000000938
18.1750000000000 0.99096421546281	522.28345019070650	88237.26035000001139
18.2250000000000 0.99078881833117	526.56615723941206	88707.71110000000044
18.2750000000000 0.99064541230999	530.87177230483371	89182.20485000000917
18.3250000000000 0.99070387444391	535.20123520736138	89676.16509999999835
18.3750000000000 0.99065991198155	539.55416314874412	90162.19645000000310
18.4250000000000 0.99090397080867	543.93189094047534	90675.87575000000652
18.4750000000000 0.99110006261507	548.33428169747947	91186.71975000000384
18.5250000000000 0.99137377054397	552.76175597210022	91706.27465000000666
18.5750000000000 0.99182569082624	557.21519166706878	92244.01355000000331
18.6250000000000 0.99228845217494	561.69472410804849	92784.55544999999984
18.6750000000000 0.99281955291888	566.20075046106012	93333.32385000000068
18.7250000000000 0.99335795595706	570.73339446241630	93884.65520000000834
18.7750000000000 0.99401392723936	575.29328631535395	94449.03995000000577
18.8250000000000 0.99473038916836	579.88080172596551	95021.20670000000973
18.8750000000000 0.99541401040581	584.49588826340630	95592.28745000000345
18.9250000000000 0.99615014015859	589.13888902138569	96170.47470000000612
18.9750000000000 0.99688455721437	593.80989705257764	96750.58935000000929
19.0250000000000 0.99764262622685	598.50912490224016	97335.10645000000659
19.0750000000000 0.99842750583340	603.23680197460124	97924.37520000000950
19.1250000000000 0.99914420873889	607.99270768357530	98509.07495000000927
19.1750000000000 0.99993373034132	612.77729114806732	99103.07730000000447
19.2250000000000 1.00061787221357	617.59014997102781	99688.74480000000040
19.2750000000000 1.00135777495736	622.43165309468088	100282.05419999999867
19.3250000000000 1.00205449492063	627.30169292473033	100873.13500000000931
19.3750000000000 1.00267303660524	632.19998778786396	101458.38150000000314
19.4250000000000 1.00327152586437	637.12653565152448	102043.58590000000549
19.4750000000000 1.00386820484834	642.08142312074415	102630.58415000000969
19.5250000000000 1.00435278421425	647.06418961522525	103208.04240000000573
19.5750000000000 1.00482443024077	652.07486061893235	103786.02850000000035
19.6250000000000 1.00510973852174	657.11259159705935	104346.52174999999988
19.6750000000000 1.00554524980356	662.17821920051006	104924.34455000000889
19.7250000000000 1.00582629847986	667.27104906579405	105487.78500000000349
19.7750000000000 1.00607421782065	672.39099247332149	106049.38780000001134
19.8250000000000 1.00617230392153	677.53736128035314	106596.73709999999846
19.8750000000000 1.00623910025296	682.71006516922012	107142.21564999999828
19.9250000000000 1.00632627286284	687.90927834451281	107691.30250000000524
19.9750000000000 1.00625512324282	693.13424872060966	108224.81140000000596
20.0250000000000 1.00617064432652	698.38496851493687	108758.15910000000440
20.0750000000000 1.00605795830338	703.66135085936401	109289.70750000000407
20.1250000000000 1.00579545398020	708.96266567131624	109806.13370000000577
20.1750000000000 1.00557455755918	714.28918504320120	110328.19574999999895
20.2250000000000 1.00528680369883	719.64060690629537	110844.00105000000622
20.2750000000000 1.00491522978233	725.01653311929408	111351.55965000001015
20.3250000000000 1.00456770888831	730.41713877274128	111862.74490000000515
20.3750000000000 1.00413801628031	735.84202691305120	112365.70805000000109
20.4250000000000 1.00375365384351	741.29148619224122	112874.65005000001111
20.4750000000000 1.00321729078201	746.76473222130915	113367.34500000000116
20.5250000000000 1.00276418281305	752.26225813016322	113870.25415000000794
20.5750000000000 1.00230520796627	757.78407264037344	114373.34395000000950
20.6250000000000 1.00174590725033	763.32966099551163	114865.77160000000731
20.6750000000000 1.00122144808753	768.89925217013808	115362.94200000001001
20.7250000000000 1.00072533834076	774.49304155602908	115864.15955000001122
20.7750000000000 1.00021720910005	780.11099999758119	116364.77320000001055
20.8250000000000 0.99976375378919	785.75347367112442	116872.55720000001020
20.8750000000000 0.99925177020708	791.42017114131124	117374.30470000000787
20.9250000000000 0.99881529459202	797.11155986578251	117885.73464999999851
20.9750000000000 0.99837490811085	802.82765867329420	118397.55460000000312
21.0250000000000 0.99796188023935	808.56866587167087	118913.48210000000836
21.0750000000000 0.99765515237543	814.33523822236771	119443.01310000001104
21.1250000000000 0.99724753324888	820.12683788200593	119961.40375000001222
21.1750000000000 0.99698368161808	825.94434622700010	120498.05035000000498
21.2250000000000 0.99668991087100	831.78763818133416	121032.10625000001164
21.2750000000000 0.99648551331101	837.65728880896290	121578.07345000001078
21.3250000000000 0.99625706841474	843.55320931782296	122122.20150000001013
21.3750000000000 0.99607322861386	849.47571706898941	122672.90305000000808
21.4250000000000 0.99601152379569	855.42559624631429	123239.84739999999874
21.4750000000000 0.99594285686891	861.40286643412378	123807.19740000000456
21.5250000000000 0.99585771797914	867.40748927968355	124373.75300000001153
21.5750000000000 0.99592476497005	873.44044670014307	124960.64704999999958
21.6250000000000 0.99594154899250	879.50150137594551	125542.62550000000920
21.6750000000000 0.99610521993412	885.59161711243894	126144.56725000000733
21.7250000000000 0.99615832635219	891.71018885241620	126733.97645000000193
21.7750000000000 0.99634290208077	897.85809564524914	127341.59340000001248
21.8250000000000 0.99652363415022	904.03538895621364	127950.27635000000009
21.8750000000000 0.99672503533593	910.24227260657233	128563.18104999999923
21.9250000000000 0.99700255586805	916.47929910442724	129187.52985000000626
21.9750000000000 0.99718555015167	922.74595512479516	129801.24615000000631
22.0250000000000 0.99750610064809	929.04318440833435	130434.51015000000189
22.0750000000000 0.99786517444692	935.37131453917755	131074.55939999999828
22.1250000000000 0.99814869035406	941.72994974171411	131706.41095000001951
22.1750000000000 0.99851918779826	948.11972790758784	132351.47515000001295
22.2250000000000 0.99877870615170	954.54002200309264	132983.55160000000615
22.2750000000000 0.99910220988047	960.99132518948318	133625.84290000001783
22.3250000000000 0.99951173419590	967.47427917249729	134281.42584999999963
22.3750000000000 0.99980800542276	973.98823491768633	134923.56535000001895
22.4250000000000 1.00019158153936	980.53384608940883	135579.24420000001555
22.4750000000000 1.00045377259132	987.11040222324721	136220.20720000000438
22.5250000000000 1.00077743108165	993.71838961521598	136871.24285000000964
22.5750000000000 1.00111471420839	1000.35798272099760	137525.89199999999255
22.6250000000000 1.00133785664807	1007.02850613865564	138166.55155000000377
22.6750000000000 1.00165046573993	1013.73063679331881	138821.23225000000093
22.7250000000000 1.00182687952354	1020.46354299232848	139458.68610000002082
22.7750000000000 1.00203816081956	1027.22753572151714	140102.58139999999548
22.8250000000000 1.00226063485623	1034.02276859218114	140749.65845000001718
22.8750000000000 1.00237934486667	1040.84861344083674	141383.72435000000405
22.9250000000000 1.00259165311516	1047.70578271858903	142032.54725000000326
22.9750000000000 1.00264992578131	1054.59329621252209	142661.06700000001001
23.0250000000000 1.00269998338493	1061.51116597065288	143289.83629999999539
23.0750000000000 1.00280202768734	1068.45982046540439	143927.48055000000750
23.1250000000000 1.00279581320541	1075.43857767103145	144550.99800000002142
23.1750000000000 1.00287828549801	1082.44812233380958	145188.69860000000335
23.2250000000000 1.00275700454263	1089.48709441415122	145798.22870000000694
23.2750000000000 1.00270943862001	1096.55607151063759	146419.72260000000824
23.3250000000000 1.00267887289478	1103.65523635156728	147045.00135000000591
23.3750000000000 1.00256318487970	1110.78404705498633	147659.05610000001616
23.4250000000000 1.00248093095842	1117.94280057211290	148279.26159999999800
23.4750000000000 1.00229132606605	1125.13078724472939	148884.76795000000857
23.5250000000000 1.00212867859045	1132.34825485685519	149495.40665000001900
23.5750000000000 1.00195985467513	1139.59521398397419	150106.26440000001458
23.6250000000000 1.00174043385941	1146.87135195286737	150710.64574999999604
23.6750000000000 1.00159615255390	1154.17726854149805	151327.45029999999679
23.7250000000000 1.00137988899441	1161.51249275334067	151934.49910000001546
23.7750000000000 1.00110042490487	1168.87661148795200	152532.99134999999660
23.8250000000000 1.00095376888583	1176.27065364505506	153152.79519999999320
23.8750000000000 1.00066776975068	1183.69364160913392	153752.34970000002068
23.9250000000000 1.00053236558517	1191.14674452275358	154376.12064999999711
23.9750000000000 1.00024175193868	1198.62885804325788	154977.01735000000917
24.0250000000000 1.00000121029781	1206.14040523826384	155586.67704999999842
24.0750000000000 0.99979346053661	1213.68168347898427	156202.49619999999413
24.1250000000000 0.99959597374307	1221.25282253657065	156821.00330000001122
24.1750000000000 0.99939667261154	1228.85386125379546	157440.31494999999995
24.2250000000000 0.99920416747806	1236.48490402161951	158061.78885000001173
24.2750000000000 0.99900717714182	1244.14596932361110	158683.64560000001802
24.3250000000000 0.99889845100365	1251.83778937865236	159320.66880000001402
24.3750000000000 0.99876338655793	1259.56021865253774	159954.67755000002217
24.4250000000000 0.99862733202644	1267.31330587794741	160589.69570000001113
24.4750000000000 0.99849245068887	1275.09711653069166	161226.07005000000936
24.5250000000000 0.99837044998326	1282.91180781152252	161865.70050000000629
24.5750000000000 0.99829589110389	1290.75780975958219	162514.23834999999963
24.6250000000000 0.99823103098874	1298.63525910056501	163165.60820000001695
24.6750000000000 0.99825924695195	1306.54495411817174	163833.51290000000154
24.7250000000000 0.99817685360427	1314.48608161298739	164484.57380000001285
24.7750000000000 0.99818372180882	1322.45941423984891	165151.63870000001043
24.8250000000000 0.99823819822872	1330.46539921545923	165827.96679999999469
24.8750000000000 0.99822550414508	1338.50356412638826	166494.50979999999981
24.9250000000000 0.99830228096931	1346.57469646358027	167177.36410000000615
24.9750000000000 0.99833795285487	1354.67853250373923	167854.75590000001830
25.0250000000000 0.99840205017585	1362.81537118958499	168538.33970000001136
25.0750000000000 0.99853995954984	1370.98588562496730	169235.86550000001444
25.1250000000000 0.99857343111423	1379.18929181431258	169917.15240000002086
25.1750000000000 0.99875480270019	1387.42687678027528	170625.09739999999874
25.2250000000000 0.99884764843629	1395.69798434316385	171319.45094999999856
25.2750000000000 0.99895453312166	1404.00280230532258	172017.69445000000997
25.3250000000000 0.99916140902759	1412.34223726886262	172734.71640000000480
25.3750000000000 0.99926652372056	1420.71551518370075	173435.70545000000857
25.4250000000000 0.99937380128884	1429.12272620818521	174138.56195000000298
25.4750000000000 0.99955341159937	1437.56455336263025	174855.56585000001360
25.5250000000000 0.99971592750264	1446.04092865591451	175571.16145000001416
25.5750000000000 0.99989143294300	1454.55203850239718	176290.61824999999953
25.6250000000000 1.00002266064274	1463.09758127744612	177003.82750000001397
25.6750000000000 1.00015143023608	1471.67760971612006	177718.12905000001774
25.7250000000000 1.00031942667849	1480.29253533047176	178440.95425000000978
25.7750000000000 1.00044042499316	1488.94202812724370	179156.94430000000284
25.8250000000000 1.00057320316312	1497.62626356153169	179876.56854999999632
25.8750000000000 1.00070084364905	1506.34527089991525	180596.79899999999907
25.9250000000000 1.00078546112410	1515.09874754742737	181310.76180000000750
25.9750000000000 1.00091673860496	1523.88717402597513	182034.67764999999781
26.0250000000000 1.00093951213720	1532.70966796212929	182740.31690000000526
26.0750000000000 1.00108459671276	1541.56737825038340	183469.75320000000647
26.1250000000000 1.00114610787698	1550.45963757060099	184185.36730000001262
26.1750000000000 1.00117216086017	1559.38619909960244	184895.86895000000368
26.2250000000000 1.00126488076617	1568.34772643990664	185620.11579999999958
26.2750000000000 1.00123187033973	1577.34316146382184	186322.44565000000875
26.3250000000000 1.00130659948728	1586.37353872205131	187046.20415000000503
26.3750000000000 1.00132847781651	1595.43845003621846	187761.50805000000400
26.4250000000000 1.00125752704655	1604.53711850286777	188460.71994999999879
26.4750000000000 1.00130256025258	1613.67066235939978	189183.09390000000712
26.5250000000000 1.00123083761701	1622.83808082847372	189884.73875000001863
26.5750000000000 1.00117241474521	1632.03955634141653	190590.16229999999632
26.6250000000000 1.00119042739237	1641.27585514409839	191311.45709999999963
26.6750000000000 1.00107427444020	1650.54580125765847	192008.39385000002221
26.7250000000000 1.00106010809299	1659.85039969584636	192726.14745000001858
26.7750000000000 1.00094420804911	1669.18876548062326	193425.57050000000163
26.8250000000000 1.00084867248650	1678.56114636700386	194130.12530000001425
26.8750000000000 1.00080291495390	1687.96806869116199	194845.58209999999963
26.9250000000000 1.00068917621682	1697.40895301259457	195549.03695000000880
26.9750000000000 1.00062656554844	1706.88434062906708	196263.70370000001276
27.0250000000000 1.00049830164417	1716.39366824699869	196966.70295000000624
27.0750000000000 1.00037123832757	1725.93700339882298	197671.10099999999511
27.1250000000000 1.00032092831832	1735.51513714093471	198391.88420000000042
27.1750000000000 1.00019645160163	1745.12741823974920	199099.17840000000433
27.2250000000000 1.00012326705180	1754.77439772606090	199817.88610000000335
27.2750000000000 0.99996339990770	1764.45529629457974	200520.45205000002170
27.3250000000000 0.99988821100041	1774.17099046249132	201241.17330000002403
27.3750000000000 0.99984516796352	1783.92185344228892	201969.62489999999525
27.4250000000000 0.99969208229566	1793.70687012504300	202677.05055000001448
27.4750000000000 0.99962858178848	1803.52697469464465	203403.82594999999856
27.5250000000000 0.99955184530467	1813.38209715396169	204129.15150000000722
27.5750000000000 0.99948377917971	1823.27238284169880	204857.48745000001509
27.6250000000000 0.99945146757587	1833.19824699706510	205594.42425000001094
27.6750000000000 0.99934386649293	1843.15900189735635	206317.11625000002095
27.7250000000000 0.99936132694738	1853.15595585140068	207066.90725000001839
27.7750000000000 0.99925790456162	1863.18796154831125	207792.93400000000838
27.8250000000000 0.99922035480496	1873.25574024043044	208533.90004999999655
27.8750000000000 0.99924679732462	1883.36000130835737	209289.55950000000303
27.9250000000000 0.99916444913281	1893.49970766187312	210023.73769999999786
27.9750000000000 0.99924063799204	1903.67653295997320	210792.58240000001388
28.0250000000000 0.99919852827554	1913.88933864000296	211537.84405000001425
28.0750000000000 0.99916725281010	1924.13829777915271	212286.69065000000410
28.1250000000000 0.99926246410532	1934.42477517018665	213063.80620000002091
28.1750000000000 0.99923281558119	1944.74755291363090	213815.69539999999688
28.2250000000000 0.99929371702876	1955.10763262202295	214588.33100000000559
28.2750000000000 0.99933328806728	1965.50486186694911	215357.80934999999590
28.3250000000000 0.99933588889358	1975.93892258002097	216120.69955000001937
28.3750000000000 0.99941272607896	1986.41065781876046	216901.05199999999604
28.4250000000000 0.99945047764498	1996.91972730891075	217674.35635000001639
28.4750000000000 0.99952944413802	2007.46663377104755	218458.07355000000098
28.5250000000000 0.99958033704730	2018.05115082557700	219237.10175000000163
28.5750000000000 0.99967120195154	2028.67377203930914	220026.35320000001229
28.6250000000000 0.99976158873934	2039.33456411914767	220816.98635000002105
28.6750000000000 0.99973917339596	2050.03239179983802	221584.10474999999860
28.7250000000000 0.99991069026199	2060.76940089799791	222395.66945000001579
28.7750000000000 0.99988256038933	2071.54351802975680	223164.28815000000759
28.8250000000000 0.99997213267876	2082.35607884661840	223960.57220000002417
28.8750000000000 1.00005876486055	2093.20712323421776	224757.68240000001970
28.9250000000000 1.00012789995379	2104.09653226716773	225552.32930000001215
28.9750000000000 1.00020977965289	2115.02451547096734	226351.31609999999637
29.0250000000000 1.00023297221210	2125.99050069040686	227138.45185000001220
29.0750000000000 1.00033325032802	2136.99540279775510	227944.53734999999870
29.1250000000000 1.00037707719361	2148.03867130061735	228739.22050000002491
29.1750000000000 1.00037604071193	2159.11987766135644	229525.02735000001849
29.2250000000000 1.00048033191848	2170.24025761599069	230336.43000000002212
29.2750000000000 1.00044367327370	2181.39831216868561	231116.78395000001183
29.3250000000000 1.00050766445597	2192.59523001978823	231921.75945000001229
29.3750000000000 1.00058024000545	2203.83117755271496	232730.18125000002328
29.4250000000000 1.00061245917941	2215.10577069956207	233530.64785000000848
29.4750000000000 1.00061321364978	2226.41872129580224	234325.14570000002277
29.5250000000000 1.00058723209907	2237.76979120361420	235114.71100000001024
29.5750000000000 1.00062674502657	2249.15978904795475	235921.02535000001080
29.6250000000000 1.00065955125322	2260.58870638005283	236727.16470000002300
29.6750000000000 1.00056404048510	2272.05514033213831	237504.24645000000601
29.7250000000000 1.00065045439539	2283.56124051562165	238325.85310000000754
29.7750000000000 1.00058211026071	2295.10529323130504	239111.96390000000247
29.8250000000000 1.00056183097601	2306.68791469367716	239910.83835000000545
29.8750000000000 1.00055660893239	2318.30934332301922	240714.65120000002207
29.9250000000000 1.00051087800089	2329.96917173272595	241510.02585000000545
29.9750000000000 1.00050540413614	2341.66793218267139	242316.42519999999786
30.0250000000000 1.00041988484579	2353.40475026312697	243104.71290000001318
30.0750000000000 1.00038632078481	2365.18029595180815	243906.87785000001895
30.1250000000000 1.00041608607315	2376.99537964560795	244725.82855000000563
30.1750000000000 1.00031416216233	2388.84850833532983	245513.85455000001821
30.2250000000000 1.00031512487991	2400.74096229420320	246328.39884999999776
30.2750000000000 1.00019454118213	2412.67135687250948	247114.26290000000154
30.3250000000000 1.00018827386307	2424.64111573164064	247929.61525000000256
30.3750000000000 1.00018804582304	2436.65037597160108	248747.80735000001732
30.4250000000000 1.00001733659881	2448.69714894269464	249524.80855000001611
30.4750000000000 1.00008514502460	2460.78436896635412	250362.58835000000545
30.5250000000000 0.99997592811736	2472.90995990682086	251157.36514999999781
30.5750000000000 0.99995075444918	2485.07500059382710	251974.48775000000023
30.6250000000000 0.99993543274980	2497.27967433737376	252795.40725000001839
30.6750000000000 0.99988756077462	2509.52364639115422	253609.39315000001807
30.7250000000000 0.99984588944719	2521.80705417129820	254426.22535000002244
30.7750000000000 0.99978938686522	2534.12977660407660	255240.54975000000559
30.8250000000000 0.99972511856913	2546.49177819243505	256054.13890000001993
30.8750000000000 0.99978471151666	2558.89465539756111	256900.79555000000983
30.9250000000000 0.99972262640609	2571.33696368704568	257717.53160000001662
30.9750000000000 0.99973758912451	2583.81972513640403	258555.43790000001900
31.0250000000000 0.99966475066124	2596.34190617243257	259371.93580000000657
31.0750000000000 0.99967870270865	2608.90465663835039	260212.25040000001900
31.1250000000000 0.99968176588010	2621.50790543139465	261051.09225000001607
31.1750000000000 0.99962324894279	2634.15093899483008	261875.15420000001905
31.2250000000000 0.99968151626131	2646.83529943032136	262731.15770000003977
31.2750000000000 0.99964355475817	2659.55983161780432	263563.23519999999553
31.3250000000000 0.99964840584125	2672.32514422100576	264407.91995000001043
31.3750000000000 0.99971119171933	2685.13204486072573	265269.33295000001090
31.4250000000000 0.99967442843432	2697.97932436150586	266105.70030000002589
31.4750000000000 0.99973076147730	2710.86824499831528	266968.21315000002505
31.5250000000000 0.99968576403664	2723.79756589098997	267805.02364999998827
31.5750000000000 0.99974556330669	2736.76870807463683	268671.26805000001332
31.6250000000000 0.99978833434081	2749.78151988364152	269534.37099999998463
31.6750000000000 0.99975471059480	2762.83507242553378	270378.23379999998724
31.7250000000000 0.99982934185105	2775.93084590597300	271252.75609999999870
31.7750000000000 0.99981447414352	2789.06773558877103	272104.39600000000792
31.8250000000000 0.99986267141839	2802.24663654226470	272974.57545000000391
31.8750000000000 0.99990838494826	2815.46758497803421	273845.50495000003139
31.9250000000000 0.99992567480847	2828.73027274898868	274710.05180000001565
31.9750000000000 1.00000560144469	2842.03559975375629	275593.23824999999488
32.0250000000000 0.99995071409308	2855.38183836479902	276440.64035000000149
32.0750000000000 1.00000731838998	2868.77054179021934	277320.21405000000959
32.1250000000000 1.00013867261653	2882.20278374449754	278222.02760000003036
32.1750000000000 1.00007730929614	2895.67604395550870	279071.63875000004191
32.2250000000000 1.00008349777993	2909.19129526141887	279941.40030000003753
32.2750000000000 1.00014315686945	2922.74932810792370	280827.53435000003083
32.3250000000000 1.00015843371025	2936.34960906919969	281702.61955000000307
32.3750000000000 1.00024943028586	2949.99323734366681	282600.47245000000112
32.4250000000000 1.00017548641698	2963.67802890457097	283453.08760000002803
32.4750000000000 1.00024069347192	2977.40595238498372	284346.47905000002356
32.5250000000000 1.00025356407872	2991.17635786945129	285226.40880000003381
32.5750000000000 1.00027495428199	3004.98942918216062	286110.14610000001267
32.6250000000000 1.00036666978127	3018.84620734802593	287015.44615000003250
32.6750000000000 1.00030212352199	3032.74459411723592	287877.28515000001062
32.7250000000000 1.00026052417433	3046.68496889392782	288746.98275000002468
32.7750000000000 1.00031206106265	3060.66869520590490	289644.92310000001453
32.8250000000000 1.00030959757262	3074.69508534251918	290528.61890000000130
32.8750000000000 1.00038975295275	3088.76536619997842	291437.72740000003250
32.9250000000000 1.00031287659543	3102.87739438757308	292302.43985000002431
32.9750000000000 1.00021933119616	3117.03099253128767	293163.47834999999031
33.0250000000000 1.00030226070831	3131.22872247138002	294077.58024999999907
33.0750000000000 1.00028071495939	3145.46916906773004	294962.37035000004107
33.1250000000000 1.00031319590140	3159.75316702794998	295864.44975000002887
33.1750000000000 1.00026344886898	3174.07960651765052	296743.54115000000456
33.2250000000000 1.00019882669888	3188.44833463283157	297619.46545000001788
33.2750000000000 1.00023598069336	3202.86087737413027	298526.99780000001192
33.3250000000000 1.00020260540684	3217.31628372038222	299414.83165000000736
33.3750000000000 1.00027018350440	3231.81607926664674	300334.26514999999199
33.4250000000000 1.00016295728656	3246.35779342926162	301202.52545000001555
33.4750000000000 1.00012495595670	3260.94249145705362	302092.85025000001770
33.5250000000000 1.00012113853979	3275.57073510598957	302994.81070000003092
33.5750000000000 1.00007900236816	3290.24202697824057	303886.46854999999050
33.6250000000000 1.00015067678798	3304.95810305845998	304814.08384999999544
33.6750000000000 1.00001962149316	3319.71604288370327	305681.20760000002338
33.7250000000000 1.00002212317573	3334.51787688169088	306590.38760000001639
33.7750000000000 1.00004389049251	3349.36395634864812	307506.84400000004098
33.8250000000000 0.99999222043849	3364.25325483033293	308402.03945000004023
33.8750000000000 1.00003214452959	3379.18720066382457	309326.82005000003846
33.9250000000000 0.99995642750178	3394.16413041568558	310217.14595000003465
33.9750000000000 0.99989737989979	3409.18435287018792	311113.86770000000251
34.0250000000000 0.99990927542332	3424.24899669773231	312033.96760000003269
34.0750000000000 0.99990778378564	3439.35792573019944	312951.24705000000540
34.1250000000000 0.99996798023695	3454.51213976247936	313889.23525000002701
34.1750000000000 0.99988144634872	3469.70947903248407	314782.48830000002636
34.2250000000000 0.99984432776768	3484.95075417365842	315692.53200000000652
34.2750000000000 0.99987214969437	3500.23701976295570	316624.41915000003064
34.3250000000000 0.99985537346739	3515.56765952538854	317543.54139999998733
34.3750000000000 0.99989266110139	3530.94356839183638	318481.20034999999916
34.4250000000000 0.99982380034533	3546.36317770484720	319386.36770000000251
34.4750000000000 0.99983722745317	3561.82781911117991	320319.11745000001974
34.5250000000000 0.99985033569151	3577.33755392749163	321253.13725000002887
34.5750000000000 0.99984377315494	3592.89214237192891	322182.19044999999460
34.6250000000000 0.99995876262063	3608.49354537245335	323151.86035000003176
34.6750000000000 0.99986427406251	3624.13856062618288	324055.20095000002766
34.7250000000000 0.99988084892563	3639.82898750544518	324995.81195000000298
34.7750000000000 0.99988933002036	3655.56476519335138	325935.16325000004144
34.8250000000000 0.99987889189683	3671.34566092067962	326869.69320000003790
34.8750000000000 0.99998145130926	3687.17352734517863	327842.59724999999162
34.9250000000000 0.99992412276674	3703.04590084968959	328764.47240000002785
34.9750000000000 0.99992921417598	3718.96383495391456	329708.16909999999916
35.0250000000000 0.99994035662730	3734.92749178775057	330655.22399999998743
35.0750000000000 0.99995452430155	3750.93698586636037	331604.65085000003455
35.1250000000000 1.00010741518522	3766.99461087482314	332601.58679999999003
35.1750000000000 0.99997085234872	3783.09578518562330	333503.62349999998696
35.2250000000000 0.99998703096217	3799.24302774826538	334457.83520000003045
35.2750000000000 1.00000518483638	3815.43643709985054	335414.08790000004228
35.3250000000000 1.00001652362802	3831.67596930430545	336369.43054999999003
35.3750000000000 1.00011782672585	3847.96315556656828	337356.48905000003288
35.4250000000000 1.00006631410494	3864.29557460535852	338293.39555000001565
35.4750000000000 1.00003506824018	3880.67361866221427	339238.42655000003288
35.5250000000000 1.00009608522055	3897.09886521751741	340216.13190000003669
35.5750000000000 1.00009154599747	3913.57030528173254	341172.93804999999702
35.6250000000000 1.00016359450882	3930.08926845216911	342157.28415000002133
35.6750000000000 1.00013823749287	3946.65421319463576	343109.70045000000391
35.7250000000000 1.00009533424393	3963.26491080479718	344057.37960000004387
35.7750000000000 1.00013664541469	3979.92282501326508	345035.37700000003679
35.8250000000000 1.00012188505780	3996.62708822475770	345995.40390000003390
35.8750000000000 1.00023083788238	4013.37983619707620	346999.66875000001164
35.9250000000000 1.00012452328618	4030.17752864145677	347930.60360000003129
35.9750000000000 1.00015883181971	4047.02258912274874	348911.73775000002934
36.0250000000000 1.00018340004333	4063.91492142617790	349890.87900000001537
36.0750000000000 1.00016824109926	4080.85392011059912	350857.47974999999860
36.1250000000000 1.00022090895215	4097.84080074347730	351849.25855000002775
36.1750000000000 1.00014857995492	4114.87350464199153	352798.39585000002990
36.2250000000000 1.00016353747089	4131.95358069088434	353779.61520000000019
36.2750000000000 1.00014637126573	4149.08054527832246	354750.81750000000466
36.3250000000000 1.00014640690179	4166.25475724665648	355729.45250000001397
36.3750000000000 1.00024396914029	4183.47796098824620	356744.21910000004573
36.4250000000000 1.00011710925219	4200.74635586833028	357680.26315000001341
36.4750000000000 1.00012936155423	4218.06240349785185	358667.29454999999143
36.5250000000000 1.00010292795546	4235.42549847919599	359641.78635000000941
36.5750000000000 1.00012221233125	4252.83649927337865	360634.05945000000065
36.6250000000000 1.00018392062262	4270.29621336600030	361643.05800000001909
36.6750000000000 1.00010504451807	4287.80225090278600	362602.55550000001676
36.7250000000000 1.00007697285129	4305.35556114757583	363581.71510000003036
36.7750000000000 1.00006905348512	4322.95656116686041	364569.51339999999618
36.8250000000000 1.00005520444868	4340.60521063099804	365556.47635000001173
36.8750000000000 1.00009333307534	4358.30249306233054	366563.81100000004517
36.9250000000000 1.00005366046606	4376.04709671706314	367543.97550000000047
36.9750000000000 1.00002629840049	4393.83930188047179	368529.94555000000400
37.0250000000000 1.00002032040223	4411.67955247913960	369525.11065000004601
37.0750000000000 0.99998732830923	4429.56742977593149	370511.60245000000577
37.1250000000000 1.00006324567148	4447.50494909718054	371539.83770000003278
37.1750000000000 0.99997763422295	4465.48927779895621	372509.40040000004228
37.2250000000000 0.99997938556125	4483.52204809057093	373512.77105000003939
37.2750000000000 0.99999443428063	4501.60356564718222	374522.47315000003437
37.3250000000000 0.99995274412157	4519.73286831217138	375512.24609999998938
37.3750000000000 0.99999198201005	4537.91148827305278	376533.75525000004563
37.4250000000000 0.99998319443915	4556.13861903398356	377538.55945000000065
37.4750000000000 0.99995946591107	4574.41405174288866	378539.03770000004442
37.5250000000000 0.99994256421010	4592.73797425289285	379543.40695000003325
37.5750000000000 0.99993720458292	4611.11066205042061	380553.48235000000568
37.6250000000000 1.00005735980416	4629.53449200741306	381612.78990000003250
37.6750000000000 0.99990966029312	4648.00459321202288	382571.20625000004657
37.7250000000000 0.99992471864471	4666.52403065463568	383593.10775000002468
37.7750000000000 0.99994783820240	4685.09302057403875	384619.48820000002161
37.8250000000000 0.99995138894415	4703.71126595380156	385639.71655000001192
37.8750000000000 1.00002505618300	4722.38014117224157	386688.41240000003017
37.9250000000000 0.99995598606671	4741.09704684256758	387683.26715000002878
37.9750000000000 0.99993145897305	4759.86287715682738	388696.64329999999609
38.0250000000000 0.99997342796294	4778.67894598318344	389737.23360000003595
38.0750000000000 0.99994951893635	4797.54407968182022	390753.51430000003893
38.1250000000000 1.00007334393752	4816.46113543671436	391828.97585000004619
38.1750000000000 0.99998332599987	4835.42613500941297	392822.03614999999991
38.2250000000000 0.99995258500744	4854.44026167624270	393839.60565000004135
38.2750000000000 0.99999020936214	4873.50488081638014	394885.45625000004657
38.3250000000000 0.99999095246222	4892.61935627380808	395918.13015000004089
38.3750000000000 1.00008462767738	4911.78553419354830	396989.04325000004610
38.4250000000000 1.00000220554173	4931.00010537826802	397991.41295000002719
38.4750000000000 1.00001003111241	4950.26486523682797	399030.97095000004629
38.5250000000000 1.00000881961401	4969.57970507411937	400068.27754999999888
38.5750000000000 1.00008364125463	4988.94616220729858	401137.42660000000615
38.6250000000000 1.00010983065826	5008.36336502433460	402188.52195000002393
38.6750000000000 1.00005397161535	5027.82978413070396	403207.93895000003977
38.7250000000000 1.00003782622952	5047.34625401679114	404244.64075000002049
38.7750000000000 1.00006778914133	5066.91374028866721	405301.34315000002971
38.8250000000000 1.00005340534506	5086.53144110942230	406341.43710000003921
38.8750000000000 1.00016373089690	5106.20187278280537	407433.65124999999534
38.9250000000000 1.00003614443954	5125.92042044127174	408430.27765000000363
38.9750000000000 1.00010626190431	5145.69104454447188	409508.93705000000773
39.0250000000000 1.00007518253402	5165.51181163275942	410547.54870000004303
39.0750000000000 1.00008901253497	5185.38367597646447	411605.92615000001388
39.1250000000000 1.00015179585882	5205.30767925461078	412685.87989999999991
39.1750000000000 1.00008799176739	5225.28136474432995	413714.94755000004079
39.2250000000000 1.00006924947760	5245.30569328445108	414763.91705000004731
39.2750000000000 1.00013154055517	5265.38235469992924	415847.88790000003064
39.3250000000000 1.00005436304201	5285.50861360739873	416875.20075000001816
39.3750000000000 1.00016303960724	5305.68827704097384	417981.36869999999180
39.4250000000000 1.00010988590978	5325.91814777193485	419021.31245000002673
39.4750000000000 1.00009959602609	5346.19915465647864	420080.49560000002384
39.5250000000000 1.00011603306178	5366.53190508140051	421152.25955000001704
39.5750000000000 1.00008907485235	5386.91558133779290	422207.08630000002449
39.6250000000000 1.00015460060913	5407.35213548493994	423302.34604999999283
39.6750000000000 1.00010046876182	5427.83918817407994	424348.32235000003129
39.7250000000000 1.00007034199355	5448.37729187465993	425405.74194999999600
39.7750000000000 1.00006840805840	5468.96708898999805	426476.46765000000596
39.8250000000000 1.00011118286688	5489.60956718967464	427567.65095000003930
39.8750000000000 1.00008062829313	5510.30327864870287	428628.84545000002254
39.9250000000000 1.00005433514694	5531.04837366870834	429693.15315000002738
39.9750000000000 1.00005071937242	5551.84538618743318	430768.52030000003288
40.0250000000000 1.00003591944988	5572.69414773331118	431840.39790000003995
40.0750000000000 1.00003120747903	5593.59493267515336	432917.95850000000792
40.1250000000000 1.00014052255931	5614.55019472310232	434046.34280000004219
40.1750000000000 0.99999222383539	5635.55459930480174	435064.23210000002291
40.2250000000000 1.00003171706050	5656.61215029451159	436165.05365000001621
40.2750000000000 1.00001331810964	5677.72169483658035	437241.99610000004759
40.3250000000000 1.00004153680839	5698.88428258096428	438340.67995000001974
40.3750000000000 1.00010139606332	5720.10065279051923	439454.67615000001388
40.4250000000000 1.00002191146066	5741.36791343361620	440508.76970000000438
40.4750000000000 0.99998204074967	5762.68696576306957	441581.53090000001248
40.5250000000000 1.00001046604790	5784.05933027810443	442685.78620000003139
40.5750000000000 0.99997367398213	5805.48367777001295	443762.50960000004852
40.6250000000000 1.00007204935855	5826.96297251245596	444900.63200000004144
40.6750000000000 0.99998462384047	5848.49328956692898	445957.45715000003111
40.7250000000000 0.99998248708105	5870.07652558538211	447053.56765000004089
40.7750000000000 0.99999306475330	5891.71302050650320	448156.71929999999702
40.8250000000000 0.99997904326325	5913.40230697143670	449250.19054999999935
40.8750000000000 1.00006740430266	5935.14667465117236	450391.08775000000605
40.9250000000000 0.99999849323275	5956.94277009604775	451462.52495000005001
40.9750000000000 0.99999417065715	5978.79206225557846	452564.38850000000093
41.0250000000000 0.99997410221686	6000.69427085892403	453660.44680000003427
41.0750000000000 1.00002516881829	6022.65102068506621	454790.15915000002133
41.1250000000000 1.00003724867787	6044.66152417805461	455903.55885000003036
41.1750000000000 0.99999044210989	6066.72454847687277	456991.42230000003474
41.2250000000000 1.00001492290876	6088.84173028536679	458113.18680000002496
41.2750000000000 0.99999773594955	6111.01221350360447	459217.21890000003623
41.3250000000000 0.99997617677076	6133.23596418434863	460320.54785000003176
41.3750000000000 1.00008536274976	6155.51595782841650	461485.50835000001825
41.4250000000000 0.99994530806390	6177.84670523343448	462536.77100000000792
41.4750000000000 1.00001742096684	6200.23300592867054	463687.44630000001052
41.5250000000000 1.00000982530767	6222.67314411488951	464802.58225000003586
41.5750000000000 1.00002674227342	6245.16773542703595	465930.46984999999404
41.6250000000000 1.00009881504082	6267.71809042627683	467085.50310000003083
41.6750000000000 1.00001777985086	6290.32082139956947	468170.36665000003995
41.7250000000000 1.00002656657199	6312.97801968567546	469298.54810000001453
41.7750000000000 1.00004152731751	6335.68989152706490	470431.00145000003977
41.8250000000000 1.00001506911380	6358.45556070585008	471545.30570000002626
41.8750000000000 1.00011802562212	6381.27804262781683	472722.06805000000168
41.9250000000000 1.00005715423986	6404.15366613962942	473822.78980000002775
41.9750000000000 1.00004159668618	6427.08352866792757	474946.24255000002449
42.0250000000000 1.00006372573541	6450.06855975718827	476088.94895000004908
42.0750000000000 1.00003727059885	6473.10770760389642	477209.86935000005178
42.1250000000000 1.00011117389929	6496.20335196739870	478380.08170000003884
42.1750000000000 1.00006003472153	6519.35267155166639	479491.85655000002589
42.2250000000000 1.00004405712387	6542.55654166465865	480621.76165000000037
42.2750000000000 1.00003497089521	6565.81518590011729	481756.29805000004126
42.3250000000000 1.00006698423072	6589.12962647851236	482912.00770000001648
42.3750000000000 1.00014466373614	6612.50099912615042	484091.24165000003995
42.4250000000000 1.00006101274741	6635.92559861678637	485193.72925000003306
42.4750000000000 1.00007086944907	6659.40567619853755	486342.84695000003558
42.5250000000000 1.00006617260629	6682.94095553517855	487486.24090000003343
42.5750000000000 1.00006790209409	6706.53165277123117	488634.11185000004480
42.6250000000000 1.00014495333665	6730.17961411918168	489820.22340000001714
42.6750000000000 1.00002456254688	6753.88023382175925	490910.93590000004042
42.7250000000000 1.00006060574838	6777.63727976154132	492079.69255000003614
42.7750000000000 1.00004481003285	6801.44958667017545	493224.31300000002375
42.8250000000000 1.00005412466307	6825.31781716789919	494382.65830000001006
42.8750000000000 1.00013537454638	6849.24375825082279	495578.01765000005253
42.9250000000000 1.00007828584908	6873.22416690720183	496706.20450000005076
42.9750000000000 1.00003656015310	6897.25947107373031	497843.25520000001416
43.0250000000000 1.00008734842864	6921.35195985128303	499027.72005000000354
43.0750000000000 1.00003885403133	6945.49930668180878	500163.99490000004880
43.1250000000000 1.00010751732731	6969.70440670826338	501360.23685000004480
43.1750000000000 1.00006675527158	6993.96467820211365	502503.00345000001835
43.2250000000000 1.00003355757953	7018.28036558199074	503650.83270000002813
43.2750000000000 1.00003582404453	7042.65239448659486	504817.83470000000671
43.3250000000000 1.00005754118183	7067.08130537349280	505996.03120000002673
43.3750000000000 1.00009313179429	7091.56750544101214	507182.66200000001118
43.4250000000000 1.00004853286781	7116.10909589868515	508329.96315000002505
43.4750000000000 1.00003097086341	7140.70680180325689	509492.28240000002552
43.5250000000000 1.00000303353819	7165.36043044950566	510650.61015000002226
43.5750000000000 1.00001058852885	7190.07092076476420	511828.38590000005206
43.6250000000000 1.00010647369072	7214.84052634577165	513052.84040000004461
43.6750000000000 1.00002700600523	7239.66497023596457	514188.70630000001984
43.7250000000000 1.00001874809886	7264.54608021774584	515362.43105000001378
43.7750000000000 1.00002027356048	7289.48416439435823	516542.53755000000820
43.8250000000000 1.00000526727674	7314.47887480566533	517715.43675000005169
43.8750000000000 1.00012254048965	7339.53358862787081	518958.28740000003017
43.9250000000000 1.00000096392869	7364.64238710473819	520078.54285000002710
43.9750000000000 1.00001745148385	7389.80879592286237	521271.82585000002291
44.0250000000000 1.00000878589640	7415.03224759576369	522453.35450000001583
44.0750000000000 1.00001142785123	7440.31309206056176	523642.13140000001295
44.1250000000000 1.00008303164663	7465.65314204130664	524868.45524999999907
44.1750000000000 1.00001298555162	7491.04887357943426	526021.78734999999870
44.2250000000000 0.99997717733922	7516.50121514515649	527194.35085000004619
44.2750000000000 1.00001733922779	7542.01216571965597	528408.31925000005867
44.3250000000000 0.99998414179611	7567.57991933809717	529584.88069999997970
44.3750000000000 1.00005675686031	7593.20724877613793	530818.87465000001248
44.4250000000000 1.00001374113710	7618.89125767152927	531992.87624999997206
44.4750000000000 1.00000038214397	7644.63276952876640	533183.93510000000242
44.5250000000000 1.00001522999091	7670.43257559022459	534391.38294999999925
44.5750000000000 1.00003580779084	7696.29089080772883	535603.28310000000056
44.6250000000000 1.00007100506648	7722.20816150966584	536824.42804999998771
44.6750000000000 1.00001713414192	7748.18214344129410	537999.08775000006426
44.7250000000000 1.00002216281564	7774.21442866546658	539206.72385000006761
44.7750000000000 1.00001953555979	7800.30488309518842	540411.58260000008158
44.8250000000000 1.00002475067929	7826.45377655820175	541622.03029999998398
44.8750000000000 1.00011534945082	7852.66341234975789	542880.18615000008140
44.9250000000000 1.00002185387862	7878.92903088168987	544039.75664999999572
44.9750000000000 1.00002446009777	7905.25321603096017	545252.84700000006706
45.0250000000000 1.00004231554817	7931.63643548008076	546475.62445000000298
45.0750000000000 1.00002061243137	7958.07771043542380	547678.12815000000410
45.1250000000000 1.00011122286284	7984.58007966502191	548943.57385000004433
45.1750000000000 1.00000855192310	8011.13848568533740	550104.26390000001993
45.2250000000000 1.00003780008513	8037.75649278471064	551338.78104999999050
45.2750000000000 1.00002990077340	8064.43317853529970	552554.19195000000764
45.3250000000000 1.00004634739413	8091.16925796116448	553784.41315000003669
45.3750000000000 1.00011675194030	8117.96624381548099	555045.96799999999348
45.4250000000000 1.00004686027246	8144.82044212325854	556231.00955000007525
45.4750000000000 1.00002868150720	8171.73330139530208	557446.05410000006668
45.5250000000000 1.00008208565266	8198.70681523444546	558702.39214999997057
45.5750000000000 1.00004220044838	8225.73853337752007	559907.97790000005625
45.6250000000000 1.00013384580089	8252.83207931738798	561188.61705000000075
45.6750000000000 1.00003913989733	8279.98246970255059	562366.03604999999516
45.7250000000000 1.00005703583250	8307.19282210693382	563608.02935000008438
45.7750000000000 1.00004910320164	8334.46249943035036	564836.82640000001993
45.8250000000000 1.00007905438492	8361.79260108625203	566088.39560000004712
45.8750000000000 1.00008611206351	8389.18256872254278	567328.39965000003576
45.9250000000000 1.00007509131745	8416.63197205123106	568559.49115000001621
45.9750000000000 1.00002371424849	8444.13976474203810	569768.91000000003260
46.0250000000000 1.00002289449357	8471.70739943028821	571008.41729999997187
46.0750000000000 1.00005296918803	8499.33579460726651	572266.94929999997839
46.1250000000000 1.00013535711974	8527.02646734412883	573556.90439999999944
46.1750000000000 1.00002341123174	8554.77410043211785	574736.72415000002366
46.2250000000000 1.00007775812417	8582.58336960846100	576013.39245000004303
46.2750000000000 1.00003022179075	8610.45150727564578	577232.73550000006799
46.3250000000000 1.00002274993632	8638.37969168165728	578476.48360000003595
46.3750000000000 1.00015417621491	8666.37187445805648	579802.08185000007506
46.4250000000000 0.99998893777143	8694.41981562067667	580957.00530000007711
46.4750000000000 1.00005785653458	8722.53014212567905	582249.19290000002366
46.5250000000000 0.99999334339235	8750.69916871048736	583465.04765000008047
46.5750000000000 1.00004629889863	8778.93026874666612	584750.77505000005476
46.6250000000000 1.00011624962281	8807.22399452757236	586047.94209999998566
46.6750000000000 1.00005016828181	8835.57656295321067	587266.74979999999050
46.7250000000000 1.00002602951965	8863.98922273690187	588511.42210000008345
46.7750000000000 1.00005245588808	8892.46347574216998	589787.20250000001397
46.8250000000000 1.00000593161363	8920.99730870955500	591021.28225000004750
46.8750000000000 1.00010037002508	8949.59481181380943	592340.08180000004359
46.9250000000000 1.00002817426204	8978.25128663884971	593561.56304999999702
46.9750000000000 1.00004236658675	9006.96927022405544	594835.59400000004098
47.0250000000000 1.00002740201195	9035.74799030072973	596093.62895000004210
47.0750000000000 1.00002950433112	9064.58800230302040	597363.16859999997541
47.1250000000000 1.00006793927216	9093.49042158786324	598655.81064999999944
47.1750000000000 1.00003553633991	9122.45326634971389	599907.40355000004638
47.2250000000000 1.00000748125215	9151.47672386903287	601162.87560000002850
47.2750000000000 0.99999055297811	9180.56117938739226	602426.32715000002645
47.3250000000000 0.99998910794216	9209.70714716842303	603700.43064999999478
47.3750000000000 1.00009398341058	9238.91779750157184	605040.20035000005737
47.4250000000000 1.00002118285583	9268.18800788869521	606273.86774999997579
47.4750000000000 1.00005093855834	9297.52084252637724	607571.00384999997914
47.5250000000000 1.00002055379752	9326.91460244527843	608832.94920000003185
47.5750000000000 1.00000562522508	9356.36980421966291	610105.59435000002850
47.6250000000000 1.00013602771145	9385.89080080391432	611468.40225000004284
47.6750000000000 0.99998439418375	9415.46933109879319	612660.09799999999814
47.7250000000000 1.00001893643622	9445.11095980537721	613967.05540000007022
47.7750000000000 1.00001022311999	9474.81447145518359	615248.83680000004824
47.8250000000000 1.00004281171751	9504.58115940225980	616557.40745000005700
47.8750000000000 1.00009517377031	9534.41168257122627	617879.62640000006650
47.9250000000000 0.99999695581067	9564.30161172213047	619110.10250000003725
47.9750000000000 1.00005015414484	9594.25553495630265	620435.61195000004955
48.0250000000000 0.99996676513755	9624.26942433508157	621677.69070000003558
48.0750000000000 1.00004004376421	9654.34804665908086	623018.50420000008307
48.1250000000000 1.00011083309685	9684.49140114189868	624359.30139999999665
48.1750000000000 1.00002931607958	9714.69496166656972	625606.34915000002366
48.2250000000000 1.00004792026284	9744.96181329118917	626917.29769999999553
48.2750000000000 1.00004330551600	9775.29131923436944	628215.05660000001080
48.3250000000000 1.00005527997264	9805.68404815092072	629524.59405000007246
48.3750000000000 1.00007257180186	9836.14022855450457	630838.86470000003465
48.4250000000000 1.00004501382400	9866.65855901603572	632126.17885000002570
48.4750000000000 1.00002225328494	9897.23924783957409	633417.80760000005830
48.5250000000000 1.00001432947082	9927.88281186685708	634720.14170000003651
48.5750000000000 1.00004487229707	9958.59049633560244	636048.26840000005905
48.6250000000000 1.00010559187102	9989.36329870362715	637397.05544999998529
48.6750000000000 1.00002520586103	10020.19694104184782	638657.23375000001397
48.7250000000000 1.00006040840245	10051.09504948840731	639992.52025000005960
48.7750000000000 1.00004269902216	10082.05605544342507	641295.31634999997914
48.8250000000000 1.00001502679718	10113.07971265151536	642593.01175000006333
48.8750000000000 1.00015411156883	10144.17126660076974	643999.35695000004489
48.9250000000000 1.00001416664788	10175.32210817606392	645227.38155000004917
48.9750000000000 1.00004350841927	10206.53756875878389	646565.83504999999423
49.0250000000000 1.00004532605388	10237.81685626419676	647887.88210000004619
49.0750000000000 1.00004629310503	10269.16000933713076	649210.72960000007879
49.1250000000000 1.00011966324417	10300.56936703518295	650582.02600000007078
49.1750000000000 1.00000331862398	10332.03903357556737	651831.20305000001099
49.2250000000000 1.00006095823787	10363.57454548353235	653195.05815000005532
49.2750000000000 1.00001761993206	10395.17278454831467	654494.32575000007637
49.3250000000000 1.00007911413495	10426.83712947182175	655863.57640000001993
49.3750000000000 1.00011613630974	10458.56687682132360	657218.25685000000522
49.4250000000000 1.00005241081942	10490.35889362719536	658508.04410000005737
49.4750000000000 1.00004520206885	10522.21503708783894	659836.29950000008103
49.5250000000000 1.00005005723799	10554.13575641623720	661173.85944999998901
49.5750000000000 0.99999301511159	10586.11913761164578	662471.77470000006724
49.6250000000000 1.00012102603829	10618.17116899050961	663893.72594999999274
49.6750000000000 1.00006104827518	10650.28589532661681	665192.32660000002943
49.7250000000000 1.00002673389148	10682.46419972004514	666509.21889999997802
49.7750000000000 1.00000345496080	10714.70649860706908	667834.73684999998659
49.8250000000000 1.00004357104214	10747.01490214359910	669203.96244999999180
49.8750000000000 1.00008919512649	10779.38965890749023	670578.33685000007972
49.9250000000000 1.00001186038223	10811.82685150389807	671871.57024999998976
49.9750000000000 1.00005533238495	10844.33046139144426	673247.27159999997821
50.0250000000000 1.00003384696893	10876.84960669144857	673569.05660000001080
