0.02500000000000	0.00000000000000	0.00000000000000	0.00000000000000
0.07500000000000	0.00000000000000	0.00000000000000	0.00000000000000
0.12500000000000	0.00000000000000	0.00000000000000	0.00000000000000
0.17500000000000	0.00000000000000	0.00000000000000	0.00000000000000
0.22500000000000	0.00000000000000	0.00000000000000	0.00000000000000
0.27500000000000	0.00000000000000	0.00000000000000	0.00000000000000
0.32500000000000	0.00000000000000	0.00000000000000	0.00000000000000
0.37500000000000	0.00000000000000	0.00000000000000	0.00000000000000
0.42500000000000	0.00000000000000	0.00000000000000	0.00000000000000
0.47500000000000	0.00000000000000	0.00000000000000	0.00000000000000
0.52500000000000	0.00000000000000	0.00000000000000	0.00000000000000
0.57500000000000	0.00000000000000	0.00000000000000	0.00000000000000
0.62500000000000	0.00000000000000	0.00000000000000	0.00000000000000
0.67500000000000	0.00000000000000	0.00000000000000	0.00000000000000
0.72500000000000	0.00000000000000	0.00000000000000	0.00000000000000
0.77500000000000	0.00000000000000	0.00000000000000	0.00000000000000
0.82500000000000	0.00000000000000	0.00000000000000	0.00000000000000
0.87500000000000	0.00000000000000	0.00000000000000	0.00000000000000
0.92500000000000	0.00000000000000	0.00000000000000	0.00000000000000
0.97500000000000	0.00000000000000	0.00000000000000	0.00000000000000
1.02500000000000	0.00000000000000	0.00000000000000	0.00000000000000
1.07500000000000	0.00000000000000	0.00000000000000	0.00000000000000
1.12500000000000	0.00000000000000	0.00000000000000	0.00000000000000
1.17500000000000	0.00000000000000	0.00000000000000	0.00000000000000
1.22500000000000	0.00000000000000	0.00000000000000	0.00000000000000
1.27500000000000	0.00000000000000	0.00000000000000	0.00000000000000
1.32500000000000	0.00000000000000	0.00000000000000	0.00000000000000
1.37500000000000	0.00000000000000	0.00000000000000	0.00000000000000
1.42500000000000	0.00000000000000	0.00000000000000	0.00000000000000
1.47500000000000	0.00000000000000	0.00000000000000	0.00000000000000
1.52500000000000	0.00000000000000	0.00000000000000	0.00000000000000
1.57500000000000	0.00000000000000	0.00000000000000	0.00000000000000
1.62500000000000	0.00000000000000	0.00000000000000	0.00000000000000
1.67500000000000	0.00000000000000	0.00000000000000	0.00000000000000
1.72500000000000	0.00000000000000	0.00000000000000	0.00000000000000
1.77500000000000	0.00000000000000	0.00000000000000	0.00000000000000
1.82500000000000	0.00000000000000	0.00000000000000	0.00000000000000
1.87500000000000	0.00000000000000	0.00000000000000	0.00000000000000
1.92500000000000	0.00000000000000	0.00000000000000	0.00000000000000
1.97500000000000	0.00000000000000	0.00000000000000	0.00000000000000
2.02500000000000	0.00000000000000	0.00000000000000	0.00000000000000
2.07500000000000	0.00000000000000	0.00000000000000	0.00000000000000
2.12500000000000	0.00000000000000	0.00000000000000	0.00000000000000
2.17500000000000	0.00000000000000	0.00000000000000	0.00000000000000
2.22500000000000	0.00000000000000	0.00000000000000	0.00000000000000
2.27500000000000	0.00000000000000	0.00000000000000	0.00000000000000
2.32500000000000	0.00000000000000	0.00000000000000	0.00000000000000
2.37500000000000	0.00000000000000	0.00000000000000	0.00000000000000
2.42500000000000	0.00000000000000	0.00000000000000	0.00000000000000
2.47500000000000	0.00000000000000	0.00000000000000	0.00000000000000
2.52500000000000	0.00000000000000	0.00000000000000	0.00000000000000
2.57500000000000	0.00000000000000	0.00000000000000	0.00000000000000
2.62500000000000	0.00000000000000	0.00000000000000	0.00000000000000
2.67500000000000	0.00000000000000	0.00000000000000	0.00000000000000
2.72500000000000	0.00000000000000	0.00000000000000	0.00000000000000
2.77500000000000	0.00000000000000	0.00000000000000	0.00000000000000
2.82500000000000	0.00000000000000	0.00000000000000	0.00000000000000
2.87500000000000	0.00000000000000	0.00000000000000	0.00000000000000
2.92500000000000	0.00000004332223	0.00000000482789	0.00010000000000
2.97500000000000	0.00000454379475	0.00000052865350	0.01085000000000
3.02500000000000	0.00010586075539	0.00001314633322	0.26135000000000
3.07500000000000	0.00123856604881	0.00016569304302	3.15970000000000
3.12500000000000	0.00872893872172	0.00127602954666	22.99840000000000
3.17500000000000	0.03952630061942	0.00646601892531	107.50025000000001
3.22500000000000	0.12718765773199	0.02369648288514	356.89460000000003
3.27500000000000	0.31176508920033	0.06725192149857	902.16380000000004
3.32500000000000	0.61510459054861	0.15582960459616	1834.70955000000004
3.37500000000000	1.02236487393814	0.30751552889490	3141.87055000000009
3.42500000000000	1.48380600874029	0.53423554048182	4696.05159999999978
3.47500000000000	1.93493919569772	0.83858203060881	6303.92885000000024
3.52500000000000	2.31982390424983	1.21404266402743	7776.91610000000037
3.57500000000000	2.60350663052111	1.64745545551103	8977.27915000000030
3.62500000000000	2.77590827714049	2.12258483319653	9841.35480000000098
3.67500000000000	2.84514206176514	2.62309074011490	10366.97885000000133
3.72500000000000	2.82729011966115	3.13408181576787	10584.15815000000111
3.77500000000000	2.74581730568558	3.64375967025540	10556.95740000000114
3.82500000000000	2.62098933000105	4.14323976005404	10345.73110000000088
3.87500000000000	2.47023208640420	4.62637761067925	10007.23430000000008
3.92500000000000	2.30695213868173	5.08929942306766	9588.49949999999990
3.97500000000000	2.14151355847560	5.53004167431088	9129.09425000000010
4.02500000000000	1.98016287245617	5.94789333510354	8654.96145000000070
4.07500000000000	1.82764153078046	6.34320129387342	8188.01375000000007
4.12500000000000	1.68617887411702	6.71691646791869	7740.76240000000053
4.17500000000000	1.55647743615381	7.07029880992610	7319.60845000000063
4.22500000000000	1.43873381529906	7.40481936706413	6928.92430000000058
4.27500000000000	1.33278065973546	7.72208259305747	6571.47320000000036
4.32500000000000	1.23807994163633	8.02373695746635	6248.16685000000052
4.37500000000000	1.15355107901042	8.31133209337127	5956.95805000000018
4.42500000000000	1.07841102005861	8.58637430599141	5696.94934999999987
4.47500000000000	1.01188920927154	8.85031565200587	5467.01710000000003
4.52500000000000	0.95281022788785	9.10443156471777	5263.50290000000041
4.57500000000000	0.90083480855887	9.35002431564719	5086.96265000000039
4.62500000000000	0.85480893173426	9.58819078597981	4933.14210000000003
4.67500000000000	0.81448910203184	9.82005648867867	4802.63430000000062
4.72500000000000	0.77907932774741	10.04661126587165	4692.62910000000011
4.77500000000000	0.74807068666252	10.26877707478396	4601.72040000000015
4.82500000000000	0.72121684102117	10.48747680442225	4529.92749999999978
4.87500000000000	0.69806149798034	10.70356477815858	4475.83020000000033
4.92500000000000	0.67827688022415	10.91785733114463	4438.64165000000048
4.97500000000000	0.66149059960248	11.13111142036409	4417.13194999999996
5.02500000000000	0.64756571992587	11.34409368029735	4411.50154999999995
5.07500000000000	0.63634054626662	11.55756968570470	4421.72850000000017
5.12500000000000	0.62760861873508	11.77228545840766	4447.40779999999995
5.17500000000000	0.62122649883164	11.98898496596346	4488.49690000000010
5.22500000000000	0.61707948510100	12.20841742866799	4545.10460000000057
5.27500000000000	0.61533992467883	12.43143913725693	4619.44865000000027
5.32500000000000	0.61543464676155	12.65874373581818	4708.16015000000061
5.37500000000000	0.61764521867103	12.89116883116864	4814.22100000000046
5.42500000000000	0.62200521800356	13.12960956645593	4938.82295000000067
5.47500000000000	0.62842252079561	13.37497132235788	5082.17805000000044
5.52500000000000	0.63688994937818	13.62820169217396	5245.16064999999981
5.57500000000000	0.64737778641436	13.89028195336264	5428.46845000000030
5.62500000000000	0.65992807970585	14.16225657799453	5633.41040000000066
5.67500000000000	0.67457021248812	14.44522994737605	5861.22740000000067
5.72500000000000	0.69127391173418	14.74034256264180	6112.66760000000068
5.77500000000000	0.71004562520683	15.04878690677355	6388.80770000000030
5.82500000000000	0.73076708536236	15.37175332641321	6689.60345000000052
5.87500000000000	0.75334478028036	15.71043836479531	7015.18320000000040
5.92500000000000	0.77773498662494	16.06606541543947	7366.10310000000027
5.97500000000000	0.80359746704476	16.43974621010950	7740.05030000000079
6.02500000000000	0.83080874589956	16.83257338145139	8136.62920000000031
6.07500000000000	0.85903912267673	17.24551801284214	8553.32214999999997
6.12500000000000	0.88804247421079	17.67946052720519	8988.25129999999990
6.17500000000000	0.91745325872660	18.13512388837926	9438.15520000000106
6.22500000000000	0.94689775344061	18.61305796601179	9899.44855000000098
6.27500000000000	0.97594288165196	19.11359708395699	10367.66675000000032
6.32500000000000	1.00430679281872	19.63692461980403	10839.68325000000004
6.37500000000000	1.03191821345771	20.18317499396532	11314.48400000000038
6.42500000000000	1.05817402008409	20.75214505624467	11785.07690000000002
6.47500000000000	1.08316776175321	21.34365397093596	12251.92415000000074
6.52500000000000	1.10682093876395	21.95745044416516	12713.56635000000097
6.57500000000000	1.12907499027861	22.59322077922085	13168.71095000000059
6.62500000000000	1.14993286963031	23.25062150581774	13616.74125000000095
6.67500000000000	1.16937358028266	23.92926503645046	14056.74344999999994
6.72500000000000	1.18754798411472	24.62881962535613	14489.87420000000020
6.77500000000000	1.20402755056809	25.34866772075508	14910.21360000000095
6.82500000000000	1.21913710416029	26.08834736638825	15320.98450000000048
6.87500000000000	1.23215311793817	26.84691771834140	15712.26770000000033
6.92500000000000	1.24280561085563	27.62321579925668	16079.46215000000120
6.97500000000000	1.25128338950651	28.41613663158409	16423.76920000000246
7.02500000000000	1.25672611781728	29.22396480712588	16732.54500000000189
7.07500000000000	1.25924903901953	30.04497810070979	17005.64834999999948
7.12500000000000	1.25842171474083	30.87708972384505	17235.52805000000080
7.17500000000000	1.25447220456460	31.71827270313337	17423.42305000000124
7.22500000000000	1.24731171144616	32.56635168734645	17566.26000000000204
7.27500000000000	1.23707563597326	33.41915292811254	17664.07210000000123
7.32500000000000	1.22411103978138	34.27465610003398	17720.03720000000249
7.37500000000000	1.20857478313945	35.13087164099829	17734.79249999999956
7.42500000000000	1.19109534262165	35.98618439627290	17716.09310000000187
7.47500000000000	1.17189401026971	36.83908066190292	17666.04034999999931
7.52500000000000	1.15127763548587	37.68821917636247	17588.20605000000069
7.57500000000000	1.12985739768331	38.53266997296388	17491.10935000000245
7.62500000000000	1.10808191168820	39.37181491816713	17381.20924999999988
7.67500000000000	1.08585594509459	40.20494800608290	17256.68564999999944
7.72500000000000	1.06373250285526	41.03177526674068	17126.07304999999906
7.77500000000000	1.04217304820532	41.85236484092137	16996.87184999999954
7.82500000000000	1.02114951913080	42.66677535605651	16868.88500000000204
7.87500000000000	1.00094201619499	43.47530392265728	16747.05220000000190
7.92500000000000	0.98179317134862	44.27846722106896	16635.92139999999927
7.97500000000000	0.96366956362546	45.07678318447315	16535.51855000000069
8.02500000000000	0.94686374150016	45.87104345338729	16451.51295000000027
8.07500000000000	0.93119910392238	46.66192758895412	16381.58310000000165
8.12500000000000	0.91710656132153	47.45051851494200	16334.08385000000089
8.17500000000000	0.90432840236363	48.23772182687246	16305.34220000000096
8.22500000000000	0.89301441115967	49.02461446675980	16298.90725000000020
8.27500000000000	0.88303474078996	49.81220226910690	16313.30615000000034
8.32500000000000	0.87463847948347	50.60175699077876	16354.04694999999992
8.37500000000000	0.86752596174916	51.39432632887537	16416.48870000000170
8.42500000000000	0.86192868654153	52.19121250663831	16505.90339999999924
8.47500000000000	0.85770324230132	52.99363222130999	16620.51955000000089
8.52500000000000	0.85512844046753	53.80311056824231	16766.72500000000218
8.57500000000000	0.85362158082581	54.62066888186158	16934.08535000000120
8.62500000000000	0.85363835549945	55.44780542654378	17132.47925000000032
8.67500000000000	0.85488880901096	56.28578545116580	17357.08024999999907
8.72500000000000	0.85742413577631	57.13596690967000	17609.80855000000156
8.77500000000000	0.86124124020138	57.99974882682375	17891.51484999999957
8.82500000000000	0.86609488049086	58.87832602230439	18197.96945000000051
8.87500000000000	0.87209815810408	59.77304594216220	18532.33369999999923
8.92500000000000	0.87894416514016	60.68497853521904	18888.85980000000200
8.97500000000000	0.88691636065354	61.61552179790520	19274.34259999999995
9.02500000000000	0.89563918911397	62.56571623859445	19681.37744999999995
9.07500000000000	0.90522590862512	63.53675196012117	20113.06290000000081
9.12500000000000	0.91545708785995	64.52961350359691	20565.14114999999947
9.17500000000000	0.92615807435777	65.54511882392677	21034.16170000000056
9.22500000000000	0.93740556944133	66.58418978419323	21522.27679999999964
9.27500000000000	0.94883760265132	67.64736450296915	22021.53795000000173
9.32500000000000	0.96048198864346	68.73522150581792	22532.78210000000036
9.37500000000000	0.97227032087078	69.84827099888949	23054.59415000000081
9.42500000000000	0.98397470977724	70.98676707381831	23581.66920000000027
9.47500000000000	0.99541332308972	72.15075040071417	24109.58665000000110
9.52500000000000	1.00667902723613	73.34036381258171	24640.46260000000257
9.57500000000000	1.01738766283340	74.55528717713534	25164.70765000000029
9.62500000000000	1.02762983896698	75.79529100082155	25684.19920000000275
9.67500000000000	1.03730347424937	77.06000583208690	26196.03830000000016
9.72500000000000	1.04612473363673	78.34869302370480	26692.57780000000275
9.77500000000000	1.05442211652825	79.66099218365294	27181.65250000000015
9.82500000000000	1.06174010645514	80.99595184666651	27651.01950000000215
9.87500000000000	1.06807609115694	82.35258115434704	28099.86285000000134
9.92500000000000	1.07358544397997	83.73005204219652	28531.55450000000201
9.97500000000000	1.07812636311539	85.12732176652311	28941.64780000000246
10.02500000000000	1.08181559659011	86.54346364601878	29332.54675000000134
10.07500000000000	1.08452852840692	87.97735368126230	29700.16430000000037
10.12500000000000	1.08641250078030	89.42802680683577	30047.79245000000083
10.17500000000000	1.08732776620423	90.89429715878985	30370.85780000000159
10.22500000000000	1.08745910793324	92.37519226814149	30673.78040000000328
10.27500000000000	1.08662946279695	93.86946495920529	30950.87024999999994
10.32500000000000	1.08516768633272	95.37628604016851	31210.78505000000223
10.37500000000000	1.08289591286418	96.89455121662756	31447.82660000000033
10.42500000000000	1.08007285319914	98.42348921933065	31668.89285000000018
10.47500000000000	1.07647623994609	99.96198815961019	31866.92855000000054
10.52500000000000	1.07252839467446	101.50951321633720	32053.88650000000052
10.57500000000000	1.06795295077788	103.06511182590508	32221.11400000000140
10.62500000000000	1.06282442389929	104.62791422777929	32370.32615000000078
10.67500000000000	1.05733448141204	106.19731124173212	32506.92035000000033
10.72500000000000	1.05159015814783	107.77283793752717	32633.88445000000138
10.77500000000000	1.04549878385449	109.35387748756825	32748.07220000000234
10.82500000000000	1.03921929650156	110.94003988316560	32854.18170000000100
10.87500000000000	1.03267833748257	112.53081294597588	32949.68245000000024
10.92500000000000	1.02600835843404	114.12587804760342	33038.58344999999827
10.97500000000000	1.01942178883164	115.72524304060325	33127.64710000000196
11.02500000000000	1.01274730795628	117.32864682083679	33211.30249999999796
11.07500000000000	1.00611715649686	118.93603447110578	33293.82040000000416
11.12500000000000	0.99967371876511	120.54758122676655	33379.96794999999838
11.17500000000000	0.99334486809660	122.16335184183785	33467.45675000000483
11.22500000000000	0.98724314848066	123.78359953169483	33560.19039999999950
11.27500000000000	0.98145485079660	125.40872914353197	33661.30965000000288
11.32500000000000	0.97592348561426	127.03906380292557	33769.12180000000080
11.37500000000000	0.97078051963174	128.67515846569884	33888.42874999999913
11.42500000000000	0.96606131788399	130.31764443586184	34020.81190000000061
11.47500000000000	0.96169731713610	131.96705337951897	34164.20745000000170
11.52500000000000	0.95788408045026	133.62427034229660	34325.93495000000257
11.57500000000000	0.95451828443560	135.29002406218365	34502.75680000000284
11.62500000000000	0.95160870843223	136.96507826727222	34695.39775000000373
11.67500000000000	0.94932840231941	138.65052403080307	34910.63810000000376
11.72500000000000	0.94747424842438	140.34711691449908	35141.52840000000288
11.77500000000000	0.94621722956122	142.05594038767975	35394.86059999999998
11.82500000000000	0.94540008561492	143.77781866943423	35665.26484999999957
11.87500000000000	0.94525897795197	145.51402987254482	35962.14265000000159
11.92500000000000	0.94565060527491	147.26561795490744	36280.64395000000513
11.97500000000000	0.94644992972477	149.03341817457593	36616.44595000000118
12.02500000000000	0.94780625403379	150.81856618790115	36975.77079999999842
12.07500000000000	0.94958794598459	152.62197404528484	37353.98694999999861
12.12500000000000	0.95189430422937	154.44476432192289	37755.45500000000175
12.17500000000000	0.95457074360483	156.28778638777581	38174.51604999999836
12.22500000000000	0.95757338278648	158.15182228552078	38609.77554999999847
12.27500000000000	0.96099758117134	160.03785734562746	39065.44420000000537
12.32500000000000	0.96472401117694	161.94666164486065	39537.06345000000147
12.37500000000000	0.96870669032845	163.87892879351162	40023.04944999999861
12.42500000000000	0.97286030375224	165.83519399169688	40520.12105000000156
12.47500000000000	0.97714592306590	167.81592262347277	41026.83215000000200
12.52500000000000	0.98159518989749	169.82165198667590	41544.67229999999836
12.57500000000000	0.98627854549367	171.85307332834492	42076.83024999999907
12.62500000000000	0.99072607894653	173.90991471056807	42603.35555000000022
12.67500000000000	0.99526227638675	175.99257246415212	43138.09004999999888
12.72500000000000	0.99971639377895	178.10108807029420	43673.68375000000378
12.77500000000000	1.00408856728197	180.23550009655870	44210.07630000000063
12.82500000000000	1.00818746264648	182.39543396900422	44738.71029999999882
12.87500000000000	1.01219285526121	184.58089040457779	45267.35915000000386
12.92500000000000	1.01593473080395	186.79149626804707	45788.27924999999959
12.97500000000000	1.01941469304989	189.02686938878924	46301.28345000000263
13.02500000000000	1.02257612521213	191.28648991454668	46803.51995000000170
13.07500000000000	1.02533533690187	193.56963607396256	47290.80640000000130
13.12500000000000	1.02789175426268	195.87601359532650	47771.99760000000242
13.17500000000000	1.03013061492416	198.20505885675658	48241.51450000000477
13.22500000000000	1.03180812879669	200.55563697436276	48687.52455000000191
13.27500000000000	1.03324340581123	202.92731691449910	49124.60659999999916
13.32500000000000	1.03427336024474	205.31927821416443	49544.69440000000031
13.37500000000000	1.03492393630881	207.73073999903474	49948.60795000000508
13.42500000000000	1.03520340224573	210.16092114131126	50336.34200000000419
13.47500000000000	1.03515378431397	212.60912053058414	50709.55395000000135
13.52500000000000	1.03470505537322	215.07445290156059	51064.42940000000090
13.57500000000000	1.03400833614051	217.55637458118053	51408.04375000000437
13.62500000000000	1.03298590823303	220.05414070631895	51736.22975000000588
13.67500000000000	1.03167274539403	222.56707409356085	52050.38925000000017
13.72500000000000	1.03002823563373	225.09438214889059	52348.13175000000047
13.77500000000000	1.02828033426151	227.63581761936874	52640.75289999999950
13.82500000000000	1.02632421375888	230.19086638584437	52922.72510000000329
13.87500000000000	1.02405921816176	232.75875031864160	53188.57990000000427
13.92500000000000	1.02164782238202	235.33908448558978	53446.46160000000236
13.97500000000000	1.01918701029059	237.93172224207274	53701.30585000000428
14.02500000000000	1.01658700569582	240.53628375657891	53948.28265000000101
14.07500000000000	1.01402391626317	243.15283549703199	54196.63620000000083
14.12500000000000	1.01134142773442	245.78103923864450	54437.98410000000149
14.17500000000000	1.00853567758885	248.42053954521256	54671.96985000000132
14.22500000000000	1.00583647767688	251.07157932216134	54910.98690000000352
14.27500000000000	1.00318220045644	253.73424328682145	55151.75870000000577
14.32500000000000	1.00049955241461	256.40842223724434	55390.26860000000306
14.37500000000000	0.99796285344896	259.09447405011502	55636.19120000000112
14.42500000000000	0.99549634601582	261.79255896538331	55885.43285000000469
14.47500000000000	0.99313202169896	264.50292799932481	56139.87380000000121
14.52500000000000	0.99094514249735	267.22604429585590	56403.90785000000324
14.57500000000000	0.98882765313525	269.96208164196344	56671.54155000000173
14.62500000000000	0.98682541392103	272.71134512142152	56945.49445000000560
14.67500000000000	0.98511053146000	275.47462876937260	57235.89420000000246
14.72500000000000	0.98355597335727	278.25238397141680	57535.64350000000559
14.77500000000000	0.98210938827805	281.04492216241027	57841.84355000000505
14.82500000000000	0.98095229047770	283.85308033602058	58165.38025000000198
14.87500000000000	0.97996356711296	286.67736295079959	58499.36579999999958
14.92500000000000	0.97914188084037	289.51828016221799	58843.91820000000007
14.97500000000000	0.97861087610150	292.37671284459037	59206.71615000000020
15.02500000000000	0.97824168630762	295.25317982426600	59580.26055000000633
15.07500000000000	0.97809897455854	298.14840074590956	59968.71095000000059
15.12500000000000	0.97811589264692	301.06290935644347	60368.21685000000434
15.17500000000000	0.97842714057781	303.99765285086443	60787.34200000000419
15.22500000000000	0.97891202607936	306.95323150919768	61218.90075000000070
15.27500000000000	0.97947578962792	309.92996803456765	61657.14365000000544
15.32500000000000	0.98032808417040	312.92883127745966	62115.45434999999998
15.37500000000000	0.98135432828863	315.95045470477237	62586.88605000000098
15.42500000000000	0.98252743326726	318.99539846714390	63069.92015000000538
15.47500000000000	0.98375841601479	322.06395422440005	63558.99539999999979
15.52500000000000	0.98518443740699	325.15684797470055	64063.10825000000477
15.57500000000000	0.98668791428072	328.27444628494203	64574.81380000000354
15.62500000000000	0.98829821771517	331.41721412156539	65096.15020000000368
15.67500000000000	0.98994004203301	334.58538227200120	65622.26690000000235
15.72500000000000	0.99173667003945	337.77958084294954	66161.43499999999767
15.77500000000000	0.99349636152886	340.99982829624082	66700.98550000000978
15.82500000000000	0.99533831943013	344.24652999323871	67248.93224999999802
15.87500000000000	0.99717530554377	347.51981037029890	67799.45644999999786
15.92500000000000	0.99896570504931	350.81965645005926	68349.71185000000696
15.97500000000000	1.00069789290843	354.14601406845901	68898.84535000000324
16.02500000000000	1.00234208002726	357.49872613093345	69444.72495000000345
16.07500000000000	1.00409090666177	360.87827874764781	70000.67334999999730
16.12500000000000	1.00560360212071	364.28401082653238	70542.92854999999690
16.17500000000000	1.00707666807444	367.71591635205101	71085.05915000000095
16.22500000000000	1.00842055120745	371.17368002703660	71620.65899999999965
16.27500000000000	1.00966162735048	374.65706963742230	72151.44900000000780
16.32500000000000	1.01078256487349	378.16578652053983	72676.05280000000494
16.37500000000000	1.01173119289054	381.69934236952639	73190.54230000000098
16.42500000000000	1.01270369483518	385.25792743204801	73708.97239999999874
16.47500000000000	1.01328870191048	388.84027933423681	74201.25495000000228
16.52500000000000	1.01388884096678	392.44654299715017	74696.53925000000163
16.57500000000000	1.01429639712030	396.07612114372728	75179.45214999999735
16.62500000000000	1.01450871395792	399.72839455897400	75649.53925000000163
16.67500000000000	1.01465870168177	403.40321276975902	76116.50960000000487
16.72500000000000	1.01452640028582	407.09961985709509	76563.68000000000757
16.77500000000000	1.01439164097425	410.81766711968379	77011.91294999999809
16.82500000000000	1.01407427366620	414.55674142326075	77447.44604999999865
16.87500000000000	1.01365160481168	418.31650432337449	77875.96895000000950
16.92500000000000	1.01309128542226	422.09648966108534	78294.83630000000994
16.97500000000000	1.01237495633282	425.89615317192073	78702.43030000000726
17.02500000000000	1.01161731941531	429.71537315936501	79107.50360000001092
17.07500000000000	1.01078251487016	433.55388885482489	79507.17560000000231
17.12500000000000	1.00982242131353	437.41125036933249	79897.52904999999737
17.17500000000000	1.00879582623395	441.28722512673403	80283.06515000000945
17.22500000000000	1.00772034692607	445.18164397720818	80665.09765000001062
17.27500000000000	1.00663086809942	449.09446987399127	81046.36280000000261
17.32500000000000	1.00549668132067	453.02554455655928	81424.34990000000107
17.37500000000000	1.00430304872687	456.97464856853077	81797.79140000000189
17.42500000000000	1.00318478837594	460.94209137498541	82177.64285000000382
17.47500000000000	1.00198246387948	464.92755317675392	82550.87030000000959
17.52500000000000	1.00083304589491	468.93125614107061	82928.69950000000244
17.57500000000000	0.99975706784235	472.95350843914900	83312.91185000000405
17.62500000000000	0.99862291800374	476.99409054699936	83692.57719999999972
17.67500000000000	0.99755993152438	481.05330500168662	84078.50900000000547
17.72500000000000	0.99655348259939	485.13139918891324	84469.56489999999758
17.77500000000000	0.99564373845998	489.22878950900503	84869.24569999999949
17.82500000000000	0.99478500368877	493.34570978129636	85273.76959999999963
17.87500000000000	0.99396101582164	497.48232952493635	85681.80475000001024
17.92500000000000	0.99323203057007	501.63907269588907	86098.62129999999888
17.97500000000000	0.99258072208018	505.81629683773770	86522.84365000000980
18.02500000000000	0.99203670964603	510.01449016076913	86957.17829999999958
18.07500000000000	0.99159121126501	514.23411094481719	87401.00530000000435
18.12500000000000	0.99124621476405	518.47563283686713	87854.64295000000857
18.17500000000000	0.99096082664403	522.73936057548360	88314.59265000000596
18.22500000000000	0.99071932832704	527.02553506734694	88779.53225000000384
18.27500000000000	0.99064542886636	531.33493843962958	89260.67205000000831
18.32500000000000	0.99069139104126	535.66815595760818	89753.93445000000065
18.37500000000000	0.99073615011925	540.02524904407335	90248.46910000000207
18.42500000000000	0.99094674087027	544.40701763868128	90759.57289999999921
18.47500000000000	0.99113660811379	548.81344425240297	91270.31445000000531
18.52500000000000	0.99142331575618	553.24503544150957	91791.54830000000948
18.57500000000000	0.99189679062912	557.70270895814349	92331.79155000000901
18.62500000000000	0.99234804016015	562.18645189011352	92871.76735000000917
18.67500000000000	0.99286511557107	566.69664978033404	93419.72890000000189
18.72500000000000	0.99345216816345	571.23371202867577	93976.17035000000033
18.77500000000000	0.99406006735858	575.79782768550979	94536.52760000000126
18.82500000000000	0.99481155525301	580.38975400956235	95112.56995000000461
18.87500000000000	0.99550060699895	585.00930291121620	95684.71640000000480
18.92500000000000	0.99627838950275	589.65698703713031	96267.48129999999946
18.97500000000000	0.99691121460925	594.33222980495157	96838.30345000000671
19.02500000000000	0.99769090610793	599.03581981847060	97425.45995000000403
19.07500000000000	0.99854354595165	603.76820641866937	98021.92365000001155
19.12500000000000	0.99926793899880	608.52888601602524	98607.95650000000023
19.17500000000000	1.00004431956104	613.31820875296364	99201.24185000000580
19.22500000000000	1.00068329186628	618.13561704002882	99782.97785000001022
19.27500000000000	1.00142448468456	622.98170271327092	100376.97255000000587
19.32500000000000	1.00212946291123	627.85639204847450	100969.44020000001183
19.37500000000000	1.00275133943669	632.75937947183240	101555.57850000000326
19.42500000000000	1.00340089270682	637.69089770192409	102146.53710000000137
19.47500000000000	1.00389200668418	642.65026224352494	102723.31775000000198
19.52500000000000	1.00441298874646	647.63771170279699	103305.04065000000992
19.57500000000000	1.00488827443085	652.65310992131015	103883.94329999999900
19.62500000000000	1.00521359620612	657.69579428136979	104449.12115000000631
19.67500000000000	1.00558942924476	662.76610156423999	105021.27475000001141
19.72500000000000	1.00583977728106	667.86348059189754	105582.01180000000750
19.77500000000000	1.00604612151949	672.98778560082542	106139.72965000000841
19.82500000000000	1.00623431029894	678.13899979723044	106697.09965000000375
19.87500000000000	1.00625391451281	683.31633103848105	107238.06200000000536
19.92500000000000	1.00631470956126	688.52005887365590	107784.81465000000026
19.97500000000000	1.00622421864438	693.74946575340050	108316.70470000000205
20.02500000000000	1.00613705562661	699.00462988220329	108850.21460000000661
20.07500000000000	1.00597738728206	704.28523164196918	109377.10425000000396
20.12500000000000	1.00580896157782	709.59128199923191	109904.22105000000738
20.17500000000000	1.00555411272468	714.92237944286239	110423.02135000000999
20.22500000000000	1.00520099136423	720.27805247429183	110932.05550000000221
20.27500000000000	1.00486562171785	725.65844300197091	111444.02900000000955
20.32500000000000	1.00450664890660	731.06347175204121	111954.36050000000978
20.37500000000000	1.00407565540377	736.49279570077226	112457.58695000001171
20.42500000000000	1.00366502753102	741.94656802733095	112963.98619999999937
20.47500000000000	1.00316207958288	747.42432813449955	113460.84510000000591
20.52500000000000	1.00269121771651	752.92629059045407	113962.14835000000312
20.57500000000000	1.00222019029269	758.45249460725131	114464.26380000000063
20.62500000000000	1.00167570221956	764.00257317867954	114958.77745000000868
20.67500000000000	1.00120243973348	769.57695884709744	115462.25035000000207
20.72500000000000	1.00065658523494	775.17528520012081	115958.13375000000815
20.77500000000000	1.00014164599654	780.79776173176504	116458.35640000000421
20.82500000000000	0.99968327018671	786.44474522280348	116965.96904999999970
20.87500000000000	0.99920535200849	792.11616499058334	117472.11765000000014
20.92500000000000	0.99879193161047	797.81242796069580	117986.69490000000224
20.97500000000000	0.99832002168932	803.53324147394926	118495.21030000000610
21.02500000000000	0.99794040967943	809.27917619369623	119015.54585000000952
21.07500000000000	0.99755821844095	815.05026139864492	119536.48785000000498
21.12500000000000	0.99720231457552	820.84669387341557	120061.50585000000137
21.17500000000000	0.99695510309199	826.66915376575560	120600.61175000001094
21.22500000000000	0.99662911038738	832.51723008979616	121131.20490000001155
21.27500000000000	0.99641789745084	838.39164641529578	121676.78535000000556
21.32500000000000	0.99628514308292	844.29292066094661	122233.09345000000030
21.37500000000000	0.99614898557780	850.22109008352140	122790.17325000000710
21.42500000000000	0.99597838246596	856.17600602761604	123344.17395000001125
21.47500000000000	0.99589832761514	862.15826774972368	123910.58705000000191
21.52500000000000	0.99587937703705	868.16830438854868	124485.88890000000538
21.57500000000000	0.99595353121172	874.20674423066646	125074.20445000000473
21.62500000000000	0.99595333860023	880.27320345194346	125654.56984999999986
21.67500000000000	0.99609283151224	886.36860168251087	126253.98355000000447
21.72500000000000	0.99617232641998	892.49264282817626	126847.26425000000745
21.77500000000000	0.99640887217691	898.64636619514192	127462.07210000000487
21.82500000000000	0.99658155005403	904.82945383817571	128070.29435000001104
21.87500000000000	0.99678166775610	911.04215150389211	128683.60675000000629
21.92500000000000	0.99701016994736	917.28471323564190	129302.18115000000398
21.97500000000000	0.99728086061753	923.55748237581031	129927.86720000000787
22.02500000000000	0.99755630120688	929.86056938154684	130555.84115000000747
22.07500000000000	0.99789732113699	936.19447127165870	131194.10985000000801
22.12500000000000	0.99818577550943	942.55893748612425	131827.18869999999879
22.17500000000000	0.99853320638230	948.95442739584837	132469.78250000000116
22.22500000000000	0.99886776512218	955.38094328441457	133112.42360000000917
22.27500000000000	0.99915606867782	961.83827063680053	133750.62145000000601
22.32500000000000	0.99953976915191	968.32711055375307	134403.34119999999530
22.37500000000000	0.99985901186893	974.84713012117743	135049.16529999999329
22.42500000000000	1.00022689236579	981.39873164679227	135703.32240000000456
22.47500000000000	1.00048730228692	987.98129467482818	136344.62799999999697
22.52500000000000	1.00077939595848	994.59510899676457	136991.93605000001844
22.57500000000000	1.00114167421310	1001.24072281658357	137650.59905000001891
22.62500000000000	1.00138586021476	1007.91743526287451	138294.74490000001970
22.67500000000000	1.00166889779444	1014.62558613189515	138945.92895000000135
22.72500000000000	1.00188636760428	1021.36481633273365	139589.67514999999548
22.77500000000000	1.00208168974332	1028.13505435474485	140231.94015000000945
22.82500000000000	1.00227515680395	1034.93636445951438	140875.53620000000228
22.87500000000000	1.00240637865033	1041.76839918409541	141511.93525000000955
22.92500000000000	1.00258678296772	1048.63156830734010	142156.82205000001704
22.97500000000000	1.00263471937260	1055.52503713368674	142784.41980000000331
23.02500000000000	1.00275195197575	1062.44935234152604	143423.34090000001015
23.07500000000000	1.00283084728467	1069.40432038573908	144058.25310000000172
23.12500000000000	1.00284582635701	1076.38956611548087	144685.39480000000913
23.17500000000000	1.00283754595994	1083.40499303094498	145310.53770000001532
23.22500000000000	1.00275517654250	1090.45014540868010	145926.24120000001858
23.27500000000000	1.00268243305124	1097.52515149182091	146544.60099999999511
23.32500000000000	1.00268402324464	1104.63059893062155	147175.13280000002123
23.37500000000000	1.00249997396022	1111.76523195578284	147779.65385000000242
23.42500000000000	1.00241036050478	1118.92977961183192	148399.27559999999357
23.47500000000000	1.00225446603754	1126.12382595711711	149010.28195000000414
23.52500000000000	1.00208279270715	1133.34731298943461	149620.08689999999478
23.57500000000000	1.00195520138662	1140.60061456571952	150237.63555000000633
23.62500000000000	1.00170910031825	1147.88292655096461	150838.52814999999828
23.67500000000000	1.00156314928931	1155.19503020084403	151455.60289999999804
23.72500000000000	1.00130564177154	1162.53616385844884	152056.90145000000484
23.77500000000000	1.00109141367867	1169.90669546418781	152665.82115000000340
23.82500000000000	1.00091974491001	1177.30699160914264	153282.33405000000494
23.87500000000000	1.00065334251353	1184.73640346882780	153885.40785000001779
23.92500000000000	1.00046780380946	1192.19558253754053	154501.97604999999749
23.97500000000000	1.00020567638493	1199.68400899677567	155107.77725000001374
24.02500000000000	0.99998682486108	1207.20205696905532	155721.32765000002109
24.07500000000000	0.99981518646234	1214.75013431661205	156343.32610000000568
24.12500000000000	0.99956023519463	1222.32766380534076	156953.36830000000191
24.17500000000000	0.99940645706737	1229.93546467194142	157580.37935000000289
24.22500000000000	0.99918946661727	1237.57310913437163	158198.52975000001607
24.27500000000000	0.99898633552607	1245.24075494857470	158819.94775000002119
24.32500000000000	0.99889405164587	1252.93930863708283	159460.14255000001867
24.37500000000000	0.99869673904096	1260.66801661032332	160084.72825000001467
24.42500000000000	0.99859828183347	1268.42769954375740	160726.31260000000475
24.47500000000000	0.99845411717233	1276.21805957851666	161361.72740000000340
24.52500000000000	0.99839463793627	1284.03981600203952	162012.04080000001704
24.57500000000000	0.99828359989820	1291.89262445805866	162655.22155000001658
24.62500000000000	0.99823445574513	1299.77703171195571	163309.72745000000577
24.67500000000000	0.99828750725207	1307.69391008063212	163982.30165000000852
24.72500000000000	0.99815950479962	1315.64188632260493	164626.43189999999595
24.77500000000000	0.99818640665410	1323.62225563897664	165297.38964999999735
24.82500000000000	0.99825981196363	1331.63545806499678	165977.46185000002151
24.87500000000000	0.99820328769843	1339.68051618791651	166637.28890000001411
24.92500000000000	0.99830104981979	1347.75873983488600	167324.24640000000363
24.97500000000000	0.99837560839490	1355.87001185245595	168008.77730000001611
25.02500000000000	0.99842158810941	1364.01416899290803	168689.92685000001802
25.07500000000000	0.99856233707882	1372.19205540482358	169388.56124999999884
25.12500000000000	0.99861780725991	1380.40304412206365	170074.20930000001681
25.17500000000000	0.99876528125552	1388.64796331289926	170777.01120000000810
25.22500000000000	0.99886283467556	1396.92647395595850	171472.79094999999506
25.27500000000000	0.99897421874340	1405.23876259595477	172172.43460000000778
25.32500000000000	0.99916870907324	1413.58559587699096	172887.95775000000140
25.37500000000000	0.99927456234074	1421.96630832086112	173589.69685000000754
25.42500000000000	0.99943237140680	1430.38140946506564	174301.99000000001979
25.47500000000000	0.99955147965485	1438.83064771156478	175009.07180000000517
25.52500000000000	0.99969794368223	1447.31432820934651	175722.47414999999455
25.57500000000000	0.99990615700457	1455.83305187805104	176448.32335000002058
25.62500000000000	1.00004935341501	1464.38634162844914	177164.29060000000754
25.67500000000000	1.00017381713024	1472.97411130448745	177878.47330000001239
25.72500000000000	1.00034612636655	1481.59684678463145	178602.72000000000116
25.77500000000000	1.00044811923975	1490.25401629652629	179315.95209999999497
25.82500000000000	1.00058114774398	1498.94596144691195	180036.25990000000456
25.87500000000000	1.00070356163442	1507.67266378362137	180756.18550000002142
25.92500000000000	1.00078726353402	1516.43385783324129	181470.61235000001034
25.97500000000000	1.00094695429144	1525.23028222372795	182200.33840000000782
26.02500000000000	1.00096571072712	1534.06076963017949	182905.88565000001108
26.07500000000000	1.00110202532380	1542.92642759618479	183634.37345000001369
26.12500000000000	1.00117173587034	1551.82673847584101	184352.13925000000745
26.17500000000000	1.00120301815815	1560.76142928354398	185064.25070000000414
26.22500000000000	1.00128746972464	1569.73104365132076	185787.62240000002203
26.27500000000000	1.00127048590928	1578.73474042386169	186493.57125000000815
26.32500000000000	1.00123797718201	1587.77244351132208	187197.94405000002007
26.37500000000000	1.00131853937228	1596.84524040940028	187924.84215000001132
26.42500000000000	1.00126075645493	1605.95194358374215	188627.14285000000382
26.47500000000000	1.00128195783558	1615.09333536669169	189345.64800000001560
26.52500000000000	1.00124355523056	1624.26893620673900	190054.22020000001066
26.57500000000000	1.00117312184646	1633.47851401293838	190757.98510000001988
26.62500000000000	1.00120351041719	1642.72306004441793	191482.28195000000414
26.67500000000000	1.00106801186256	1652.00110414714595	192176.12750000000233
26.72500000000000	1.00108743084610	1661.31414328683172	192900.97969999999623
26.77500000000000	1.00092175291987	1670.66051562061398	193591.41015000001062
26.82500000000000	1.00087625359370	1680.04140117317479	194306.28244999999879
26.87500000000000	1.00077979614456	1689.45638255202971	195012.50930000000517
26.92500000000000	1.00065705653815	1698.90527000673569	195714.80585000000428
26.97500000000000	1.00059237705650	1708.38867037850878	196429.67190000001574
27.02500000000000	1.00047847497732	1717.90617603436681	197136.09465000001364
27.07500000000000	1.00034059698587	1727.45761518612358	197838.95915000000969
27.12500000000000	1.00028257288593	1737.04380853569228	198558.82284999999683
27.17500000000000	1.00016863166527	1746.66427926905612	199268.81030000001192
27.22500000000000	1.00011015449321	1756.31961992226661	199991.07095000002300
27.27500000000000	0.99994559062338	1766.00886352532189	200693.30275000000256
27.32500000000000	0.99988483871840	1775.73307311349890	201417.55320000002393
27.37500000000000	0.99983104192594	1785.49237736929467	202144.46905000001425
27.42500000000000	0.99971188586879	1795.28619726982902	202859.39160000000265
27.47500000000000	0.99960662028893	1805.11472598609384	203578.31530000001658
27.52500000000000	0.99952168115933	1814.97822166998321	204302.58610000001499
27.57500000000000	0.99944656657784	1824.87684062906851	205030.09450000000652
27.62500000000000	0.99942719950024	1834.81119669048576	205770.31710000001476
27.67500000000000	0.99933927668200	1844.78066963259471	206497.69305000000168
27.72500000000000	0.99932079318038	1854.78601343599712	207240.68619999999646
27.77500000000000	0.99924381175168	1864.82670404334704	207972.82455000001937
27.82500000000000	0.99923105199719	1874.90344860475807	208719.61010000001988
27.87500000000000	0.99927409962901	1885.01687608507063	209479.42339999999967
27.92500000000000	0.99917082089716	1895.16556843528906	210209.86465000000317
27.97500000000000	0.99922820331299	1905.35122091682001	210975.41985000000568
28.02500000000000	0.99916205388934	1915.57263905758055	211716.23395000002347
28.07500000000000	0.99919088896760	1925.83085826050274	212478.49435000002268
28.12500000000000	0.99927889576135	1936.12655536136890	213254.77405000000726
28.17500000000000	0.99924533550510	1946.45854490899114	214006.49950000000536
28.22500000000000	0.99932169476981	1956.82803009944382	214783.14675000001444
28.27500000000000	0.99930926835199	1967.23415707526851	215542.10805000000983
28.32500000000000	0.99936651375971	1977.67771808526641	216317.47920000000158
28.37500000000000	0.99943033435903	1988.15885139283409	217095.71420000001672
28.42500000000000	0.99947725133284	1998.67744890888866	217871.71035000000848
28.47500000000000	0.99956048659596	2009.23396276252311	218657.07145000001765
28.52500000000000	0.99957951285026	2019.82778372036864	219429.81350000001839
28.57500000000000	0.99969831323410	2030.46003943899473	220225.91270000001532
28.62500000000000	0.99973475253157	2041.12992485153268	221005.33655000000726
28.67500000000000	0.99978806265564	2051.83768847101692	221789.90785000001779
28.72500000000000	0.99988692640691	2062.58388897553959	222586.05105000000913
28.77500000000000	0.99991634344379	2073.36784990828392	223368.18280000000959
28.82500000000000	0.99998770896918	2084.19009257714015	224161.11240000001271
28.87500000000000	1.00008038870442	2095.05091893740064	224960.29640000002109
28.92500000000000	1.00011982765987	2105.94982089507448	225748.95625000001746
28.97500000000000	1.00024273453952	2116.88777930283186	226557.93250000002445
29.02500000000000	1.00021647523472	2127.86323176751148	227334.54690000001574
29.07500000000000	1.00031835684014	2138.87765239222335	228141.69440000000759
29.12500000000000	1.00039113315298	2149.93079246125308	228943.69025000001420
29.17500000000000	1.00039318699889	2161.02193856275517	229730.90920000002370
29.22500000000000	1.00047638332856	2172.15205869986676	230538.17840000000433
29.27500000000000	1.00046174759111	2183.32013227200787	231324.30790000001434
29.32500000000000	1.00050676773230	2194.52689152945413	232125.60450000001583
29.37500000000000	1.00060496048516	2205.77300269395073	232940.70055000000866
29.42500000000000	1.00061457715803	2217.05753951863790	233736.61125000001630
29.47500000000000	1.00061637920710	2228.38047947665336	234532.05535000000964
29.52500000000000	1.00058978937666	2239.74156549991812	235322.17480000000796
29.57500000000000	1.00059030244876	2251.14116948778155	236119.99740000002203
29.62500000000000	1.00065306687963	2262.58006826631981	236933.91040000002249
29.67500000000000	1.00060739331211	2274.05708805825407	237723.51095000002533
29.72500000000000	1.00063001669560	2285.57307650992016	238530.66880000001402
29.77500000000000	1.00056183689246	2297.12705199150378	239317.49415000001318
29.82500000000000	1.00058499815669	2308.72013268234878	240127.48034999999800
29.87500000000000	1.00059043226053	2320.35217946458442	240934.58500000002095
29.92500000000000	1.00046488549112	2332.02173014772598	241711.40330000000540
29.97500000000000	1.00054909572786	2343.73129491624513	242540.21504999999888
30.02500000000000	1.00041562501379	2355.47838945107151	243317.56910000002244
30.07500000000000	1.00039309345230	2367.26437547918840	244123.12860000002547
30.12500000000000	1.00037352947255	2379.08935146526574	244930.72760000001290
30.17500000000000	1.00029409374500	2390.95267095542886	245724.93660000001546
30.22500000000000	1.00030813602192	2402.85550516099920	246543.40490000002319
30.27500000000000	1.00020023117786	2414.79646445951130	247333.08995000002324
30.32500000000000	1.00017077662173	2426.77654516002940	248143.41155000001891
30.37500000000000	1.00016517276385	2438.79609670017180	248960.97105000002193
30.42500000000000	1.00006025225896	2450.85398629604742	249755.06720000001951
30.47500000000000	1.00008628286505	2462.95185485443199	250583.15145000000484
30.52500000000000	0.99996950101139	2475.08803632261606	251376.72675000000163
30.57500000000000	0.99994663778565	2487.26373012357271	252195.14570000002277
30.62500000000000	0.99991980034549	2499.47895100903224	253013.87020000000484
30.67500000000000	0.99987479983237	2511.73353934967326	253829.28830000001471
30.72500000000000	0.99983607127065	2524.02763378795044	254647.57810000001336
30.77500000000000	0.99977503545655	2536.36102115338099	255461.45250000001397
30.82500000000000	0.99973525537228	2548.73402473084343	256282.02310000002035
30.87500000000000	0.99977203120427	2561.14765698835618	257123.56494999999995
30.92500000000000	0.99970405121261	2573.60068108190399	257939.48805000001448
30.97500000000000	0.99969898556428	2586.09394288369094	258772.93170000001555
31.02500000000000	0.99965680572387	2598.62704177569276	259598.07735000000685
31.07500000000000	0.99966316393473	2611.20064995657503	260437.14625000001979
31.12500000000000	0.99964924999278	2623.81457724375832	261272.27590000000782
31.17500000000000	0.99962451600782	2636.46875064210144	262105.89360000001034
31.22500000000000	0.99969312140352	2649.16441861392650	262965.37070000002859
31.27500000000000	0.99966915734405	2661.90047248586188	263801.88384999998379
31.32500000000000	0.99963832575317	2674.67688763580236	264637.88699999998789
31.37500000000000	0.99967839742299	2687.49463576255721	265494.01695000001928
31.42500000000000	0.99970200204860	2700.35357343454734	266347.17600000003586
31.47500000000000	0.99971420353032	2713.25362054749530	267198.67584999999963
31.52500000000000	0.99969412419912	2726.19442534158043	268042.88969999999972
31.57500000000000	0.99974088097533	2739.17691919809613	268906.39525000000140
31.62500000000000	0.99977960871306	2752.20106647755347	269769.16260000003967
31.67500000000000	0.99975531043037	2765.26611184282228	270616.28464999998687
31.72500000000000	0.99984141191797	2778.37356568823134	271494.69150000001537
31.77500000000000	0.99986203598166	2791.52263915895765	272356.75880000001052
31.82500000000000	0.99982811602552	2804.71267951770460	273205.30595000000903
31.87500000000000	0.99996391812403	2817.94599513349658	274101.66635000001406
31.92500000000000	0.99994403312282	2831.22059560662728	274956.79960000002757
31.97500000000000	1.00002826802261	2844.53793096604113	275841.96730000001844
32.02500000000000	0.99997058992099	2857.89617759136763	276689.36235000001034
32.07500000000000	0.99998875664404	2871.29641214454205	277559.05830000003334
32.12500000000000	1.00013114253672	2884.74037104716263	278464.72075000003679
32.17500000000000	1.00007748006493	2898.22548781924343	279317.22370000003139
32.22500000000000	1.00012613828441	2911.75320708494382	280199.64915000001201
32.27500000000000	1.00015628478237	2925.32334689569370	281078.30590000003576
32.32500000000000	1.00018306592188	2938.93592911940686	281957.41560000000754
32.37500000000000	1.00024746443783	2952.59153471006812	282848.55859999998938
32.42500000000000	1.00021472749855	2966.28890402645357	283713.61064999998780
32.47500000000000	1.00023272396566	2980.02879635251384	284594.38975000003120
32.52500000000000	1.00027504883647	2993.81161357357496	285483.49310000002151
32.57500000000000	1.00026476878352	3007.63669734466157	286358.96014999999898
32.62500000000000	1.00036960295418	3021.50570786702701	287268.81495000002906
32.67500000000000	1.00032135211073	3035.41659033696897	288136.10860000003595
32.72500000000000	1.00025906611700	3049.36921001784413	289000.61145000002580
32.77500000000000	1.00027842753305	3063.36476912564285	289890.01579999999376
32.82500000000000	1.00030766885249	3077.40347311592586	290783.67574999999488
32.87500000000000	1.00037070029271	3091.48586530440889	291688.58939999999711
32.92500000000000	1.00029933823322	3105.61011859943255	292555.65850000001956
32.97500000000000	1.00026094937869	3119.77675902331021	293433.62310000002617
33.02500000000000	1.00030529600621	3133.98702375561470	294337.21340000000782
33.07500000000000	1.00028663761993	3148.24008400039338	295223.63685000000987
33.12500000000000	1.00033004095769	3162.53689028627787	296129.74859999999171
33.17500000000000	1.00022337537044	3176.87536022790118	296992.72789999999804
33.22500000000000	1.00021426024292	3191.25695237773061	297885.91820000001462
33.27500000000000	1.00021521075361	3205.68187625161636	298783.44820000004256
33.32500000000000	1.00017094028352	3220.14954294163908	299668.78015000000596
33.37500000000000	1.00027268593020	3234.66213223578598	300599.26205000001937
33.42500000000000	1.00015407493502	3249.21651146378326	301464.85694999998668
33.47500000000000	1.00013122663178	3263.81413315790041	302360.53815000003669
33.52500000000000	1.00015481449007	3278.45574025494716	303271.60779999999795
33.57500000000000	1.00005583205196	3293.13960024624521	304146.79200000001583
33.62500000000000	1.00012496056023	3307.86824534109655	305074.42584999999963
33.67500000000000	1.00005260329741	3322.63965689424640	305960.24749999999767
33.72500000000000	0.99999989875132	3337.45418483320054	306853.31719999999041
33.77500000000000	1.00000477846333	3352.31274526869493	307765.36230000003707
33.82500000000000	0.99997629435784	3367.21490655145726	308668.46665000001667
33.87500000000000	1.00003967612527	3382.16210437890686	309601.30859999998938
33.92500000000000	0.99993701648353	3397.15192038575287	310484.05895000003511
33.97500000000000	0.99990800010841	3412.18551784632155	311390.90419999998994
34.02500000000000	0.99991518315956	3427.26350517305218	312310.35149999998976
34.07500000000000	0.99990121661647	3442.38562826485941	313224.53560000000289
34.12500000000000	0.99994748746094	3457.55286468399981	314158.96795000002021
34.17500000000000	0.99987789571418	3472.76352110509197	315058.32644999999320
34.22500000000000	0.99983935597699	3488.01813021291809	315968.71845000004396
34.27500000000000	0.99986108986721	3503.31767597402495	316899.49135000002570
34.32500000000000	0.99986588104675	3518.66196543716433	317826.26764999999432
34.37500000000000	0.99991205298152	3534.05170104278477	318767.59360000002198
34.42500000000000	0.99985429182150	3549.48534774535619	319677.12414999998873
34.47500000000000	0.99983150703874	3564.96350694250350	320599.11145000002580
34.52500000000000	0.99986167813365	3580.48706388017763	321539.43485000001965
34.57500000000000	0.99983563676153	3596.05521112102269	322463.03380000003381
34.62500000000000	0.99992125624912	3611.66975510548536	323424.04954999999609
34.67500000000000	0.99986763147069	3627.32858798582720	324341.40545000002021
34.72500000000000	0.99984632207562	3643.03227758411640	325270.52264999999898
34.77500000000000	0.99990565845253	3658.78215736980837	326227.26000000000931
34.82500000000000	0.99988337023758	3674.57700843918337	327158.75020000000950
34.87500000000000	0.99995740436077	3690.41841983537597	328123.15425000002142
34.92500000000000	0.99988660424747	3706.30416234731638	329041.38465000002179
34.97500000000000	0.99994292875071	3722.23632013711222	330002.78429999999935
35.02500000000000	0.99995079049185	3738.21418908899295	330949.59960000001593
35.07500000000000	0.99995965191345	3754.23785106212745	331898.11045000003651
35.12500000000000	1.00007318163610	3770.30905401196787	332882.82670000003418
35.17500000000000	0.99998459451711	3786.42461618064272	333801.63920000003418
35.22500000000000	0.99996800916037	3802.58575824361151	334745.73555000004126
35.27500000000000	1.00003559847057	3818.79390806979563	335719.40734999999404
35.32500000000000	1.00004843518511	3835.04824707430180	336676.12380000000121
35.37500000000000	1.00014046204355	3851.35013233476093	337660.94940000004135
35.42500000000000	1.00007125834820	3867.69700203981029	338592.71220000000903
35.47500000000000	1.00006176772735	3884.08989374308885	339545.96585000003688
35.52500000000000	1.00012303378962	3900.53003480427878	340524.64180000004126
35.57500000000000	1.00011505026427	3917.01635448751767	341481.13959999999497
35.62500000000000	1.00016155225458	3933.54981787519864	342457.62715000001481
35.67500000000000	1.00014918842568	3950.12951858735914	343415.34085000003688
35.72500000000000	1.00011509772426	3966.75515942884385	344366.89874999999302
35.77500000000000	1.00016885275041	3983.42826677452058	345350.07245000003604
35.82500000000000	1.00013128069730	4000.14738406315610	346303.07640000001993
35.87500000000000	1.00023408872566	4016.91492620089730	347306.10029999999097
35.92500000000000	1.00015694192075	4033.72794282814448	348248.01339999999618
35.97500000000000	1.00015211953415	4050.58771104859261	349216.37914999999339
36.02500000000000	1.00017062818836	4067.49468993626488	350194.25370000000112
36.07500000000000	1.00014457177695	4084.44819094047125	351157.86629999999423
36.12500000000000	1.00020991696641	4101.44983039881390	352154.95809999998892
36.17500000000000	1.00018363596013	4118.49811781732478	353121.17730000003939
36.22500000000000	1.00015005478081	4135.59299108052437	354086.10990000003949
36.27500000000000	1.00013732769829	4152.73486958431840	355059.72945000004256
36.32500000000000	1.00012821201377	4169.92387932940255	356035.95884999999544
36.37500000000000	1.00023650247769	4187.16210798289376	357055.43009999999776
36.42500000000000	1.00011086095430	4204.44558823686748	357992.72649999998976
36.47500000000000	1.00013762674219	4221.77701437503219	358985.82959999999730
36.52500000000000	1.00010179780287	4239.15536639308721	359957.80535000003874
36.57500000000000	1.00011234704493	4256.58151411672679	360947.79780000000028
36.62500000000000	1.00016069050374	4274.05618401966422	361952.83770000003278
36.67500000000000	1.00010391066393	4291.57760413268170	362921.17480000003707
36.72500000000000	1.00006648636168	4309.14617419013848	363897.79159999999683
36.77500000000000	1.00009233755182	4326.76307035678838	364898.77030000003288
36.82500000000000	1.00003273856121	4344.42685091730073	365869.88675000000512
36.87500000000000	1.00010257164388	4362.13986767974802	366889.71620000002440
36.92500000000000	1.00003109529110	4379.89968293339825	367859.05335000000196
36.97500000000000	1.00001043700687	4397.70725986818525	368848.34105000004638
37.02500000000000	1.00001957232837	4415.56319360301677	369849.95545000000857
37.07500000000000	0.99999094164952	4433.46687398975246	370838.93184999999357
37.12500000000000	1.00007953789048	4451.42046786561423	371872.78995000000577
37.17500000000000	0.99995636011528	4469.42023688020709	372829.21559999999590
37.22500000000000	0.99996406238284	4487.46859648291229	373835.67245000001276
37.27500000000000	1.00000919207991	4505.56628988794637	374857.52350000001024
37.32500000000000	0.99993864615698	4523.71128754162601	375837.33640000002924
37.37500000000000	0.99999589060067	4541.90597282143335	376866.51620000001276
37.42500000000000	0.99993262524411	4560.14821790908445	377851.62249999999767
37.47500000000000	0.99996070731781	4578.43975270848205	378872.56030000001192
37.52500000000000	0.99994811456000	4596.77989906336461	379879.45144999999320
37.57500000000000	0.99991351532665	4615.16831616620129	380879.28345000004629
37.62500000000000	1.00003760916774	4633.60799188916644	381941.00325000000885
37.67500000000000	0.99990259175400	4652.09421306912282	382905.09930000000168
37.72500000000000	0.99995092583763	4670.63043038433352	383940.66925000003539
37.77500000000000	0.99993838299804	4689.21558223095599	384954.25020000000950
37.82500000000000	0.99995180091815	4707.85021628929371	385979.17525000002934
37.87500000000000	1.00004881623673	4726.53596100755840	387037.83035000000382
37.92500000000000	0.99996463767302	4745.26949656498164	388027.72200000000885
37.97500000000000	0.99993350098774	4764.05187608749020	389039.42704999999842
38.02500000000000	0.99998516556812	4782.88472102307696	390084.71715000004042
38.07500000000000	0.99994064862018	4801.76628544868890	391093.84395000000950
38.12500000000000	1.00005640246854	4820.69966436776667	392167.07755000004545
38.17500000000000	0.99999736585306	4839.68161653314201	393173.17519999999786
38.22500000000000	0.99998031149297	4858.71300019552109	394197.04980000003707
38.27500000000000	1.00002464324690	4877.79505012552272	395246.50020000000950
38.32500000000000	1.00001343600156	4896.92677332834592	396275.38270000001648
38.37500000000000	1.00009428934403	4916.10999966450254	397342.16710000002058
38.42500000000000	0.99998275875854	4935.34110252982737	398333.83365000004414
38.47500000000000	1.00001435036403	4954.62289549804609	399383.77775000000838
38.52500000000001	1.00002479248427	4973.95503800752977	400426.66779999999562
38.57500000000000	1.00007699216757	4993.33840557376607	401487.69239999999991
38.62500000000000	1.00009618919877	5012.77242726064924	402536.89120000001276
38.67500000000000	1.00004943432511	5032.25588522425369	403560.86480000003939
38.72500000000000	1.00007137922840	5051.79018178920887	404613.88475000002654
38.77500000000001	1.00006199301698	5071.37477073098762	405655.59075000003213
38.82500000000000	1.00005306134616	5091.00972515572175	406698.81100000004517
38.87500000000000	1.00020053173239	5110.69818798819233	407807.13065000000643
38.92500000000000	1.00005431658595	5130.43444336407538	408797.05760000000009
38.97500000000000	1.00009858430655	5150.22231046442994	409866.09124999999767
39.02500000000001	1.00006229516531	5170.06026093271430	410903.46805000002496
39.07500000000000	1.00008715146505	5189.94957224444988	411967.30520000000251
39.12500000000000	1.00016881624177	5209.89144473761280	413056.00495000003139
39.17500000000000	1.00009922835267	5229.88292840722170	414083.60125000000698
39.22500000000000	1.00008635427488	5249.92521786076304	415135.94145000004210
39.27500000000001	1.00010169171665	5270.01894373100549	416201.34395000000950
39.32500000000000	1.00006884240505	5290.16320210013782	417248.02360000001499
39.37500000000000	1.00016629441361	5310.36068605468517	418350.48515000002226
39.42500000000000	1.00009320698250	5330.60801808048382	419382.98824999999488
39.47500000000000	1.00008220765596	5350.90651599476405	420442.78730000002543
39.52500000000001	1.00007747470670	5371.25637130792529	421506.55310000001919
39.57500000000000	1.00007440085407	5391.65768250853944	422572.35889999999199
39.62500000000000	1.00014636905307	5412.11204912374615	423671.29570000001695
39.67500000000000	1.00007368653138	5432.61657794140137	424710.30540000001201
39.72500000000000	1.00008536863324	5453.17306067206846	425786.42680000001565
39.77500000000001	1.00004204353943	5473.78043015012554	426840.44400000001770
39.82500000000000	1.00009378266327	5494.44071088446981	427936.39485000004061
39.87500000000000	1.00012732730775	5515.15359656253077	429026.00105000002077
39.92500000000000	1.00005216428303	5535.91689879060323	430070.27905000001192
39.97500000000000	1.00006066073847	5556.73241619031705	431151.81190000002971
40.02500000000001	1.00005818979736	5577.59998592667489	432229.97195000003558
40.07500000000000	1.00003119403531	5598.51915984895004	433298.84945000003790
40.12500000000000	1.00013004302016	5619.49263932551548	434423.68040000001201
40.17500000000000	0.99999399672708	5640.51556160867312	435447.78925000003073
40.22500000000000	1.00004907961954	5661.59200571137353	436556.38670000003185
40.27500000000001	0.99999798344650	5682.71979920102694	437619.98655000003055
40.32500000000000	1.00001763633896	5703.90050033072930	438715.86250000004657
40.37500000000000	1.00007331339883	5725.13494118909784	439828.97350000002189
40.42500000000000	1.00001365164350	5746.42073771785817	440892.70350000000326
40.47500000000000	0.99998373461852	5767.75858345965844	441970.79885000002105
40.52500000000001	1.00001751207844	5789.14990287016553	443078.39895000000251
40.57500000000000	0.99999532597429	5810.59356457299509	444162.56485000002431
40.62500000000000	1.00006165315912	5832.09153408734801	445287.44255000003614
40.67500000000000	1.00000942912705	5853.64132883211732	446360.89855000004172
40.72500000000000	0.99999116026713	5875.24374192051073	447450.78230000002077
40.77500000000001	0.99999137825840	5896.89923688507588	448550.26720000000205
40.82500000000000	0.99997902867528	5918.60760604690131	449645.45045000000391
40.87500000000000	1.00004585108786	5940.37063616087380	450777.64274999999907
40.92500000000000	0.99998289195289	5962.18556824695315	451852.68830000003800
40.97500000000000	0.99996927170308	5984.05353969247153	452951.29255000001285
41.02500000000001	0.99997181290384	6005.97496845944261	454058.55405000003520
41.07500000000000	1.00002005429459	6027.95092422874404	455187.97185000003083
41.12500000000000	1.00003047481094	6049.98064413170869	456301.58835000003455
41.17500000000000	0.99997160211537	6072.06266423500438	457384.88240000000224
41.22500000000000	1.00000339568162	6094.19905036453929	458510.96590000001015
41.27500000000001	1.00000351915636	6116.38916830012386	459623.91280000004917
41.32500000000000	1.00000146495946	6138.63303474144413	460737.20560000004480
41.37500000000000	1.00009383043475	6160.93281993433811	461895.45070000004489
41.42500000000000	0.99997954259779	6183.28397993045292	462959.57700000004843
41.47500000000000	1.00003281876727	6205.69032189450263	464102.56110000004992
41.52500000000001	1.00002466007582	6228.15053690434797	465218.43350000004284
41.57500000000000	1.00004184029943	6250.66525967988582	466347.45285000000149
41.62500000000000	1.00008255393488	6273.23508831165873	467488.86045000003651
41.67500000000000	1.00004553521315	6295.85833386762897	468595.28520000004210
41.72500000000000	1.00001578046186	6318.53522217935279	469706.38760000001639
41.77500000000001	1.00003989678079	6341.26703967796129	470844.13585000002058
41.82500000000000	1.00002345341567	6364.05292994976026	471964.14520000002813
41.87500000000000	1.00010320967367	6386.89515351704722	473130.97675000003073
41.92500000000000	1.00005684537986	6409.79089675323667	474239.52965000004042
41.97500000000000	1.00002937045597	6432.74065321774196	475358.30564999999478
42.02500000000001	1.00006673036118	6455.74597648099189	476509.26075000001583
42.07500000000000	1.00004605212236	6478.80559748709493	477633.92990000004647
42.12500000000000	1.00011790952474	6501.92171791141482	478804.20235000003595
42.17500000000000	1.00005574939433	6525.09130581523823	479911.67425000004005
42.22500000000000	1.00005655506994	6548.31588176988043	481050.64175000000978
42.27500000000001	1.00005844665339	6571.59553627192872	482191.48370000004070
42.32500000000000	1.00007396640056	6594.93065265044697	483340.26555000001099
42.37500000000000	1.00014470178328	6618.32258916144201	484517.18095000000903
42.42500000000000	1.00006644390997	6641.76792578326695	485623.25745000003371
42.47500000000000	1.00007067917885	6665.26865750975867	486770.65625000000000
42.52500000000001	1.00006870526237	6688.82470368612485	487916.38445000001229
42.57500000000000	1.00005220942558	6712.43578636365237	489056.35550000000512
42.62500000000000	1.00016077837185	6736.10492854246513	490258.94195000000764
42.67500000000000	1.00003567943578	6759.82666460427208	491348.31905000004917
42.72500000000000	1.00005634246379	6783.60451148074571	492510.54235000000335
42.77500000000001	1.00004931300025	6807.43787662814248	493660.49230000004172
42.82500000000000	1.00005835710524	6831.32720835705732	494819.72810000000754
42.87500000000000	1.00013611424970	6855.27421805389531	496014.41185000003316
42.92500000000000	1.00007332770305	6879.27560654178160	497140.75975000002654
42.97500000000000	1.00003977906758	6903.33213526529835	498282.87945000000764
43.02500000000001	1.00006129523442	6927.44519329647119	499453.77100000000792
43.07500000000000	1.00003000087460	6951.61357187028716	500599.62540000001900
43.12500000000000	1.00012140808047	6975.84030490026089	501808.32125000003725
43.17500000000000	1.00005779385922	7000.12170386951311	502940.61685000004945
43.22500000000000	1.00003421888879	7024.45880115880391	504094.29615000000922
43.27500000000001	1.00002820263727	7048.85208754412270	505258.14089999999851
43.32500000000000	1.00004400163711	7073.30216083617870	506434.36810000002151
43.37500000000000	1.00011423967118	7097.81042200067532	507639.61350000003586
43.42500000000000	1.00003082029454	7122.37316997536709	508768.19880000001285
43.47500000000000	1.00001814119317	7146.99220197699378	509934.00985000003129
43.52500000000001	0.99998785748666	7171.66714729877185	511092.14245000004303
43.57500000000000	1.00001746824674	7196.39954894032962	512282.23519999999553
43.62500000000000	1.00007816453611	7221.19024596150120	513489.70740000001388
43.67500000000000	1.00001577457617	7246.03625223768995	514635.32800000003772
43.72500000000000	1.00000119240780	7270.93881633269666	515806.81010000000242
43.77500000000001	1.00001722612265	7295.89876586924947	516995.43475000001490
43.82500000000000	1.00000566600216	7320.91547749968231	518171.14800000004470
43.87500000000000	1.00009912146837	7345.99164815818858	519402.72285000002012
43.92500000000000	0.99998846480565	7371.12222414433290	520529.62040000001434
43.97500000000000	1.00003158990823	7396.31113139333502	521737.83585000003222
44.02500000000001	0.99999954281839	7421.55654221981786	522908.19445000000997
44.07500000000000	1.00003033835930	7446.86010816876296	524112.76150000002235
44.12500000000000	1.00006421882113	7472.22197613815570	525320.37124999996740
44.17500000000000	1.00000418362454	7497.63982802836290	526479.96620000002440
44.22500000000000	0.99998381987345	7523.11473269922317	527661.70045000000391
44.27500000000001	1.00001470693436	7548.64806151452103	528871.83975000004284
44.32500000000000	0.99997821574816	7574.23815890985134	530047.68735000002198
44.37500000000000	1.00005150963499	7599.88790161013003	531283.12054999999236
44.42500000000000	1.00002377412832	7625.59476612993240	532466.28480000002310
44.47500000000000	1.00001819234825	7651.35938515913404	533662.55394999997225
44.52500000000001	1.00002288257398	7677.18208842273998	534865.65269999997690
44.57500000000000	1.00003137286973	7703.06303993866914	536072.14875000005122
44.62500000000000	1.00008954265663	7729.00359441898490	537306.70495000004303
44.67500000000000	1.00001323345182	7755.00032778931927	538470.33830000006128
44.72500000000000	1.00003014168573	7781.05572503981148	539685.44325000001118
44.77500000000001	1.00002589185792	7807.16930077007783	540890.49410000001080
44.82500000000000	1.00002516689959	7833.34121186206539	542098.79445000004489
44.87500000000000	1.00013357040472	7859.57438576257755	543367.73100000002887
44.92500000000000	1.00004003662560	7885.86359172026278	544528.32299999997485
44.97500000000000	1.00002878778812	7912.21105185394208	545734.94174999999814
45.02500000000001	1.00004343553909	7938.61751378118242	546957.04590000002645
45.07500000000000	1.00004039849386	7965.08257633861467	548170.84074999997392
45.12500000000000	1.00013903098163	7991.60900085210233	549441.83094999997411
45.17500000000000	1.00000349293249	8018.19063943648052	550585.47999999998137
45.22500000000000	1.00004753105850	8044.83232525220865	551829.23830000008456
45.27500000000001	1.00003803020313	8071.53269915993860	553044.84475000004750
45.32500000000000	1.00005252466130	8098.29246724287623	554275.07630000007339
45.37500000000000	1.00013946086475	8125.11363904316750	555546.93150000006426
45.42500000000000	1.00005348746785	8151.99164275573548	556724.09090000006836
45.47500000000000	1.00002748963874	8178.92814882439870	557935.85019999998622
45.52500000000001	1.00006753460652	8205.92500212433333	559185.82240000006277
45.57500000000000	1.00002693651439	8232.98009078839459	560392.05150000005960
45.62500000000000	1.00010606791777	8260.09672144055367	561666.77069999999367
45.67500000000000	1.00005218236220	8287.27135412060125	562868.16670000005979
45.72500000000000	1.00005384431452	8314.50556025691003	564102.11170000000857
45.77500000000001	1.00004798993757	8341.79920003854204	565333.16080000007059
45.82500000000000	1.00005535355040	8369.15269943516068	566573.03300000005402
45.87500000000000	1.00008563421787	8396.56675265046033	567827.28425000002608
45.92500000000000	1.00008496831742	8424.04057828669647	569065.35039999999572
45.97500000000000	1.00003701341862	8451.57293946555910	570277.79710000008345
46.02500000000001	1.00001299992699	8479.16455614586266	571505.15630000003148
46.07500000000000	1.00003057321174	8506.81664050116706	572757.62325000006240
46.12500000000000	1.00012388376060	8534.53135854538050	574054.95484999998007
46.17500000000000	1.00001622423119	8562.30320540483990	575238.26400000008289
46.22500000000000	1.00006961913060	8590.13671565448021	576515.49780000001192
46.27500000000001	1.00004960304451	8618.02991328869393	577751.80260000005364
46.32500000000000	1.00000816694898	8645.98226228937892	578977.00485000002664
46.37500000000000	1.00017212646857	8673.99957642539994	580322.62770000007004
46.42500000000000	1.00000600043034	8702.07267417316507	581478.07365000003483
46.47500000000000	1.00003834277307	8730.20718416456111	582750.10545000003185
46.52500000000001	1.00000180535569	8758.40123344768472	583983.34279999998398
46.57500000000000	1.00004601159263	8786.65716410232926	585265.09165000007488
46.62500000000000	1.00011495781962	8814.97574714190887	586562.81050000002142
46.67500000000000	1.00003931946098	8843.35295332884743	587777.07175000000279
46.72500000000000	1.00001820950897	8871.79038921440406	589024.60950000002049
46.77500000000001	1.00005969984491	8900.28990132766739	590310.39439999999013
46.82500000000000	1.00000810762010	8928.84890153042033	591542.57120000000577
46.87500000000000	1.00011022528083	8957.47184780075440	592867.08610000007320
46.92500000000000	1.00000292990623	8986.15281159177539	594068.80300000007264
46.97500000000000	1.00002221196103	9014.89548300580645	595346.95299999997951
47.02500000000001	1.00001438194804	9043.69914861435609	596610.32575000007637
47.07500000000000	1.00002513971238	9072.56440911263053	597886.14069999998901
47.12500000000000	1.00003983542144	9101.49144485584475	599165.69134999997914
47.17500000000000	1.00004330783108	9130.47999744369554	600439.88974999997299
47.22500000000000	1.00000327699487	9159.52886871526971	601689.27065000007860
47.27500000000001	0.99999754847919	9188.63911742384698	602960.58149999997113
47.32500000000000	1.00000796403280	9217.81127894309793	604242.98155000002589
47.37500000000000	1.00011622287320	9247.04827999560257	605586.00280000001658
47.42500000000000	1.00000393956531	9276.34373821756344	606796.82614999997895
47.47500000000000	1.00003727247234	9305.70197973972972	608097.25664999999572
47.52500000000001	1.00002306783728	9335.12167530531769	609370.15425000002142
47.57500000000000	0.99997938161025	9364.60201913769379	610626.36180000007153
47.62500000000000	1.00013651695454	9394.14900380907966	612006.69350000005215
47.67500000000000	0.99998852782112	9423.75368073433674	613201.67315000004601
47.72500000000000	1.00002329720677	9453.42151858249417	614509.92535000003409
47.77500000000001	0.99999695834718	9483.15077009613378	615781.98660000006203
47.82500000000000	1.00004651984903	9512.94375831606885	617102.16500000003725
47.87500000000000	1.00009663990224	9542.80057122099788	618424.16570000001229
47.92500000000000	0.99999274369893	9572.71667259446258	619652.20775000005960
47.97500000000000	1.00005469461394	9602.69708648439700	620984.31290000001900
48.02500000000001	1.00000728160031	9632.73860032837365	622249.87624999997206
48.07500000000000	1.00008515050680	9662.84504479305178	623594.78419999999460
48.12500000000000	1.00011169044185	9693.01494634530354	624909.17084999999497
48.17500000000000	1.00001581859376	9723.24467302896119	626148.32880000001751
48.22500000000000	1.00003979960785	9753.53790852598286	627463.78685000003316
48.27500000000001	1.00004558677645	9783.89416870569949	628769.21710000000894
48.32500000000000	1.00005868774109	9814.31374189414055	630080.61944999999832
48.37500000000000	1.00007730975925	9844.79686315599611	631396.89069999998901
48.42500000000000	1.00006810974707	9875.34275017869004	632696.95790000003763
48.47500000000000	1.00002039560550	9905.95028813297176	633973.93365000002086
48.52500000000001	1.00002428841496	9936.62111891082532	635284.91790000000037
48.57500000000000	1.00004277456911	9967.35575663348027	636606.55115000007208
48.62500000000000	1.00012456506213	9998.15621832915531	637969.96310000005178
48.67500000000000	1.00003575660613	10029.01731480951094	639225.89140000008047
48.72500000000000	1.00008660269153	10059.94341853914193	640572.38655000005383
48.77500000000001	1.00004627953530	10090.93177604882476	641861.84909999999218
48.82500000000000	1.00002559795925	10121.98305722494842	643165.18700000003446
48.87500000000000	1.00013948222591	10153.10151146141470	644556.54260000004433
48.92500000000000	1.00000654177777	10184.27952293961243	645790.15175000007730
48.97500000000000	1.00006406577055	10215.52309024997157	647148.00970000005327
49.02500000000001	1.00001496397545	10246.82894789992133	648438.22950000001583
49.07500000000000	1.00005767356275	10278.20003480175365	649789.32299999997485
49.12500000000000	1.00010658399449	10309.63661645826141	651145.91584999999031
49.17500000000000	1.00001237482223	10341.13425638726585	652410.61585000006016
49.22500000000000	1.00006433351258	10372.69762089993674	653771.96915000001900
49.27500000000001	0.99999181281576	10404.32284506829274	655053.26820000004955
49.32500000000000	1.00006130732289	10436.01448512772913	656428.94055000005756
49.37500000000000	1.00011516479204	10467.77211859941599	657795.86210000002757
49.42500000000000	1.00002475531799	10499.59122721229505	659069.19670000008773
49.47500000000000	1.00002803602110	10531.47485155223512	660405.51095000002533
49.52500000000001	1.00003105573995	10563.42304883156430	661743.01025000005029
49.57500000000000	0.99999156596437	10595.43452376528148	663053.68030000000726
49.62500000000000	1.00013116266035	10627.51508081886459	664484.57825000002049
49.67500000000000	1.00005403573087	10659.65783745471890	665772.91820000007283
49.72500000000000	1.00001391648258	10691.86404068215961	667087.08744999999180
49.77500000000001	1.00000419604079	10724.13473141740360	668422.81720000004862
49.82500000000000	1.00002928989636	10756.47109926138728	669783.18715000001248
49.87500000000000	1.00010986113704	10788.87501008555228	671182.20490000001155
49.92500000000000	1.00001939159793	10821.34098659292613	672467.77140000008512
49.97500000000000	1.00005214472376	10853.86889367304502	673750.53934999997728
50.02500000000001	1.00003934542863	10886.38817930293044	673571.96325000002980
